<?xml version="1.0" standalone="no"?>
<!DOCTYPE svg PUBLIC "-//W3C//DTD SVG 1.1//EN" "http://www.w3.org/Graphics/SVG/1.1/DTD/svg11.dtd" >
<svg xmlns="http://www.w3.org/2000/svg">
<metadata>Generated by IcoMoon</metadata>
<defs>
<font id="icomoon" horiz-adv-x="1024">
<font-face units-per-em="1024" ascent="960" descent="-64" />
<missing-glyph horiz-adv-x="1024" />
<glyph unicode="&#x20;" horiz-adv-x="512" d="" />
<glyph unicode="&#xe900;" glyph-name="question" d="M462 958.8c-89.4-10.8-165-38-233.4-84-32.8-22-51-37-78.6-64.8-27.8-27.6-42.8-45.8-64.8-78.6-40.8-60.4-68-130.2-80.6-206.4-5.2-31.6-5.2-122.4 0-154 12.6-76.2 39.8-146 80.6-206.4 22-32.8 37-51 64.8-78.6 27.6-27.8 45.8-42.8 78.6-64.8 60.4-40.8 130.2-68 206.4-80.6 17.6-2.8 33.2-3.6 77-3.6s59.4 0.8 77 3.6c76.2 12.6 146 39.8 206.4 80.6 32.8 22 51 37 78.6 64.8 27.8 27.6 42.8 45.8 64.8 78.6 40.8 60.4 68 130.2 80.6 206.4 5.2 31.6 5.2 122.4 0 154-12.6 76.2-39.8 146-80.6 206.4-22 32.8-37 51-64.8 78.6-27.6 27.8-45.8 42.8-78.6 64.8-59 39.8-126.2 66.4-200.4 79.6-17 3-33.8 4-74 4.6-28.6 0.2-55.2 0.2-59-0.2zM570 891.2c51-7 93.8-19.8 139-42 49.6-24.4 80.8-46.6 119.2-85s60.6-69.6 85-119.2c31.2-63.8 44.8-123 44.8-197s-13.6-133.2-44.8-197c-24.4-49.6-46.6-80.8-85-119.2s-69.6-60.6-119.2-85c-63.8-31.2-123-44.8-197-44.8s-133.2 13.6-197 44.8c-49.6 24.4-80.8 46.6-119.2 85s-60.6 69.6-85 119.2c-31.2 63.8-44.8 123-44.8 197s13.6 133.2 44.8 197c24.4 49.6 46.6 80.8 85 119.2s69.6 60.6 119.2 85c44.4 21.8 87.4 34.8 137 41.8 25.8 3.6 91.8 3.6 118 0.2zM495 774.6c-108.8-6.6-189-77-211-184.8-2.4-11.2-4-20.4-3.6-20.8 0.8-0.6 124-19 127.6-19 2 0 4.2 4.4 6.6 12.6 17.2 59.4 60.4 88.6 119.6 81.2 30.4-3.8 51.8-13.6 71-32.8 12.4-12.2 20.2-25 24.8-40.4 3.6-11.8-1-23.6-13.8-35-10.2-9.2-11.6-10-44.8-25.4-79.8-37.2-118.2-89.6-122.8-167.6l-1.2-22.6h130.6v13.6c0 18.8 4.4 32.8 12.6 39.4 9.2 7.6 35.8 22.2 48 26.2 23.6 7.6 44 20.4 64 40.2 49.2 48.2 65 113.6 44.4 182.6-8.2 27-27.4 56.4-54 81.6-41.6 40.2-96.2 64.6-156.6 70.4-11.8 1-23.6 1.8-26.4 1.6s-9.4-0.6-15-1zM440 192v-64h130v128h-130v-64z" />
<glyph unicode="&#xe901;" glyph-name="video" d="M462 958.8c-89.4-10.8-165-38-233.4-84-32.8-22-51-37-78.6-64.8-27.8-27.6-42.8-45.8-64.8-78.6-40.8-60.4-68-130.2-80.6-206.4-5.2-31.6-5.2-122.4 0-154 12.6-76.2 39.8-146 80.6-206.4 22-32.8 37-51 64.8-78.6 27.6-27.8 45.8-42.8 78.6-64.8 60.4-40.8 130.2-68 206.4-80.6 17.6-2.8 33.2-3.6 77-3.6s59.4 0.8 77 3.6c76.2 12.6 146 39.8 206.4 80.6 32.8 22 51 37 78.6 64.8 27.8 27.6 42.8 45.8 64.8 78.6 40.8 60.4 68 130.2 80.6 206.4 5.2 31.6 5.2 122.4 0 154-12.6 76.2-39.8 146-80.6 206.4-22 32.8-37 51-64.8 78.6-27.6 27.8-45.8 42.8-78.6 64.8-59 39.8-126.2 66.4-200.4 79.6-17 3-33.8 4-74 4.6-28.6 0.2-55.2 0.2-59-0.2zM570 891.2c51-7 93.8-19.8 139-42 49.6-24.4 80.8-46.6 119.2-85s60.6-69.6 85-119.2c31.2-63.8 44.8-123 44.8-197s-13.6-133.2-44.8-197c-24.4-49.6-46.6-80.8-85-119.2s-69.6-60.6-119.2-85c-63.8-31.2-123-44.8-197-44.8s-133.2 13.6-197 44.8c-49.6 24.4-80.8 46.6-119.2 85s-60.6 69.6-85 119.2c-31.2 63.8-44.8 123-44.8 197s13.6 133.2 44.8 197c24.4 49.6 46.6 80.8 85 119.2s69.6 60.6 119.2 85c44.4 21.8 87.4 34.8 137 41.8 25.8 3.6 91.8 3.6 118 0.2zM242 632.8c-13.2-6.2-19-11.2-24.6-21.8-4.4-8-4.4-8.2-4.4-164s0-156 4.4-164c5.6-10.4 11.4-15.8 23.6-21.4l10-4.6h356l11.6 5.8c12.8 6.2 22 16.8 25.4 29.4 2.6 9.4 2.8 300.2 0.2 309-4.6 16.2-11.8 24.2-28.8 31.6l-11.6 5.2h-350.8l-11-5.2zM772 607.2c-41.2-32.8-73.2-58.2-86-68.2l-7.8-6v-86.2l-0.2-86.2 23.6-18.4c12.8-10 32-25 42.4-33.2 10.4-8.4 29.8-23.6 43-34l24-19 0.6 96.2c0.2 52.8 0.2 138.8 0 191l-0.6 95-39-31z" />
<glyph unicode="&#xe902;" glyph-name="Send-smart-pls" d="M1016.106 303.841l-190.705 190.716c-8.51 8.542-18.527 10.571-30.039 5.98-11.51-4.484-17.021-13.028-17.021-25.521v-97.067c-68.566-12.067-135.489-37.803-182.196-65.032-45.896-26.803-90.093-62.148-116.127-88.631-26.023-26.59-48.469-56.594-56.564-69.090-3.919-6.087-6.631-10.464-8.010-13.028-6.631-12.387-5.393-24.452 5.008-34.063 9.141-8.436 23.525-9.504 33.541-2.99 1.998 2.030 19.488 12.601 59.062 30.007 19.488 8.65 41.122 16.873 64.572 24.561 23.599 7.795 52.090 14.843 84.595 20.503 33.072 5.873 65.568 9.077 97.601 9.077h18.516v-94.611c0-11.533 5.512-20.077 17.021-25.523 4.006-1.494 7.508-2.028 10.508-2.028 7.518 0 14.010 2.562 19.531 8.008l190.706 189.756c10.541 10.464 10.508 28.51 0 38.976zM833.409 161.178v53.606c0 14.523-11.020 27.015-25.531 27.551-10.508 1.496-26.527 1.921-48.054 1.921-71.576 0-143.656-11.958-215.234-36.519 77.588 65.566 165.707 104.968 265.284 118.637 13.541 1.815 23.535 13.028 23.535 27.551v54.566l123.132-124.192-123.132-123.121zM55.56 127.647v555.599l386.42-394.89c5.446-5.552 12.014-8.008 19.521-8.008h1.004c8.5 0 15.077 2.456 20.513 8.008l385.428 394.89v-146.616h55.057v230.761c0 33.958-26.035 61.509-60.065 61.509h-802.883c-17.011 0-31.533-5.98-43.045-17.94-11.51-12.067-17.512-26.589-17.512-43.568v-639.746c0-16.551 5.873-31.18 17.513-43.033 11.394-11.64 26.033-17.513 43.045-17.513h294.331v55.528h-294.333c-3.502 0.002-4.996 1.496-4.996 5.020zM55.56 767.391c0 3.952 1.496 5.98 4.998 5.98h802.88c3.504 0 5.010-2.028 5.010-5.98v-5.018l-405.943-415.499-406.944 415.499v5.018z" />
<glyph unicode="&#xe903;" glyph-name="Cancel-smart-pls" d="M398.222 647.111v227.556l-398.222-398.222 398.222-398.222v233.244c284.444 0 483.556-91.022 625.778-290.133-56.889 284.444-227.556 568.889-625.778 625.778z" />
<glyph unicode="&#xe904;" glyph-name="Denied-smart-pls" d="M867.119 816.453c-0.402 0.448-0.784 0.91-1.214 1.34-0.924 0.924-1.896 1.779-2.895 2.577-91.719 86.513-215.269 139.63-351.001 139.63-282.313 0-511.995-229.687-511.995-512.019 0.009-135.671 53.080-259.165 139.523-350.87 0.826-1.046 1.704-2.059 2.671-3.021 0.5-0.495 1.027-0.934 1.545-1.396 93.175-96.546 223.823-156.694 368.261-156.694 282.304 0 511.977 229.673 511.977 511.986-0.005 144.546-60.223 275.278-156.872 368.467zM512.009 889.968c105.226 0 201.954-36.991 277.934-98.619l-621.283-621.283c-61.619 75.975-98.605 172.704-98.615 277.92 0 243.707 198.266 441.982 441.963 441.982zM512.009 6.032c-113.307 0-216.782 42.888-295.087 113.256l623.799 623.795c70.359-78.305 113.233-181.785 113.233-295.097 0-243.693-198.256-441.954-441.945-441.954z" />
<glyph unicode="&#xe905;" glyph-name="Save-smart-pls" d="M832 960h-64v-416h-512v416h-256v-1024h1024v832l-192 192zM896 0h-768v448h768v-448zM192 384h640v-64h-640v64zM192 256h640v-64h-640v64zM192 128h640v-64h-640v64zM576 896h128v-288h-128v288z" />
<glyph unicode="&#xe906;" glyph-name="Paid-smart-pls" d="M512 960c-282.781 0-512-229.228-512-512s229.219-512 512-512c282.772 0 512 229.228 512 512s-229.228 512-512 512zM512-1.379c-247.79 0-449.379 201.589-449.379 449.379s201.589 449.379 449.379 449.379c247.786 0 449.379-201.589 449.379-449.379s-201.594-449.379-449.379-449.379zM578.775 727.552h-225.808l0.291-281.788h-71.546v-67.074h71.546v-58.131l-71.564-0.112 0.018-62.491h71.546l-0.291-107.359h67.817l-0.452 107.359h299.598v62.603h-299.598v58.131h156.507c58.694 0 118.216 18.347 147.845 48.253 29.633 29.902 53.391 71.765 53.391 125.652 0 53.861-23.758 95.755-53.391 125.639-29.629 29.897-87.214 49.317-145.909 49.317zM684.426 473.801c-20.203-18.056-50.543-28.037-94.172-28.037h-169.921v214.638h169.921c43.63 0 73.969-10.991 94.172-29.048 20.212-18.052 30.3-44.314 30.3-78.772 0-34.481-10.092-60.742-30.3-78.781z" />
<glyph unicode="&#xe907;" glyph-name="attach-1" d="M395.636 765.44v-593.92c0 0-8.657-124.649 118.272-124.649 114.455 0 114.455 124.649 114.455 124.649v624.64c0 0 0 163.84-162.909 163.84s-162.909-163.84-162.909-163.84v-624.64c0 0 0-235.52 209.455-235.52s209.455 235.52 209.455 235.52v624.64c0 25.6-46.545 25.6-46.545 0v-624.64c0 0 16.943-188.975-162.909-188.975-162.909 0-162.909 188.975-162.909 188.975v624.64c0 0 0 117.295 116.364 117.295s116.364-117.295 116.364-117.295v-624.64c0 0 0-73.45-67.91-73.45s-71.727 73.45-71.727 73.45v593.92c0 25.6-46.545 25.6-46.545 0z" />
<glyph unicode="&#xe908;" glyph-name="attach-2" d="M713.776 663.767c-17.694 0-31.965-13.699-31.965-31.405v-464.047c0-47.381-17.121-86.189-50.232-119.3s-72.491-50.232-120.431-50.232c-46.809 0-86.762 16.549-119.871 49.659-33.109 33.108-49.659 73.062-49.659 119.871v612.463c0 31.392 11.556 58.645 33.682 81.051 22.406 22.686 49.646 34.815 82.195 34.815 32.538 0 59.79-12.129 82.182-34.815 22.126-22.406 33.683-49.659 33.683-81.051v-521.146c0-32.525-25.11-57.647-57.647-57.647-31.394 0-57.087 26.254-57.087 57.647v271.138c0 17.694-13.7 31.392-31.392 31.392s-31.392-13.699-31.392-31.392v-271.138c0-33.669 11.422-62.212 34.815-85.618 23.405-23.405 51.376-34.815 85.058-34.815 33.669 0 61.931 11.702 85.616 34.815 23.125 22.564 34.816 50.803 34.816 85.618v521.146c0 49.086-17.84 91.183-52.508 126.143-34.962 35.253-77.059 53.080-126.145 53.080-49.098 0-91.194-17.827-126.155-53.080-34.667-34.961-52.507-77.057-52.507-126.143v-612.461c0-64.503 22.832-119.3 67.924-164.391s99.888-67.925 164.391-67.925 120.431 21.686 166.096 67.353c45.664 45.664 67.924 101.593 67.924 164.964v464.045c0 17.707-13.7 31.405-31.392 31.405z" />
<glyph unicode="&#xe909;" glyph-name="attach-3" d="M849.954 701.065l-146.675 146.682c-6.936 6.923-16.318 10.812-26.116 10.812h-185.66c-2.927 56.429-49.753 101.436-106.892 101.441-57.142 0-103.967-45.007-106.892-101.441h-41.97c-39.992 0-72.523-32.538-72.523-72.528v-777.503c0-39.997 32.533-72.528 72.523-72.528h552.501c39.992 0 72.523 32.533 72.523 72.528v666.419c0.002 9.801-3.886 19.195-10.819 26.118zM782.018 16.751h-540.035v761.056h35.59v-184.93c0-59.020 48.019-107.036 107.039-107.041 13.393 0 24.252 10.859 24.247 24.25 0.002 13.395-10.852 24.25-24.25 24.245-32.274 0.005-58.532 26.265-58.534 58.534l-0.005 260.091c0.002 32.279 26.26 58.539 58.539 58.539 32.274 0 58.534-26.26 58.537-58.534v-223.697c0-9.449-7.69-17.137-17.14-17.137-9.452-0.005-17.145 7.688-17.142 17.142l-0.005 185.643c0 13.39-10.854 24.25-24.247 24.245-13.393 0-24.25-10.854-24.252-24.25l0.002-185.638c0.002-36.2 29.449-65.644 65.644-65.649 36.193 0 65.644 29.452 65.647 65.649l-0.002 148.536h134.204v-108.559c0-26.295 21.313-47.603 47.595-47.603h108.569v-604.892z" />
<glyph unicode="&#xe90a;" glyph-name="mastercard-smart-pls" d="M272.879 492.002c-19.182 0-33.886-6.164-33.886-6.164l-4.061-24.113c0 0 12.129 4.931 30.495 4.931 10.425 0 18.040-1.16 18.040-9.627 0-5.149-0.925-7.053-0.925-7.053s-8.213 0.671-12.020 0.671c-24.204 0-49.623-10.298-49.623-41.464 0-24.548 16.662-30.151 27.014-30.151 19.744 0 28.265 12.8 28.7 12.836l-0.925-10.697h24.639l10.987 77.054c-0.018 32.725-28.537 33.777-38.436 33.777zM259.064 402.493c-8.684 0-10.951 6.618-10.951 10.57 0 7.651 4.152 16.861 24.657 16.861 4.786-0.018 5.294-0.508 6.092-0.653 0.544-4.714-2.937-26.778-19.798-26.778zM346.47 457.047c0-13.978 33.342-7.107 33.342-41.881 0-37.185-36.025-35.554-42.316-35.554-23.479 0-30.731 3.227-31.402 3.408l3.735 24.494c0.036 0.181 11.785-4.279 24.857-4.279 7.542 0 17.333 0.743 17.333 9.736 0 13.525-35.028 10.262-35.028 42.316 0 28.265 20.995 36.533 41.7 36.533 15.991 0 25.818-2.194 25.818-2.194l-3.535-24.693c0 0-15.175 1.251-19.109 1.251-9.972-0.018-15.393-2.194-15.393-9.138zM412.882 414.477c-0.616-3.825 0.453-9.029 10.189-9.029 2.484 0 5.294 0.834 7.216 0.834l-3.499-23.787c-2.81-0.78-10.769-3.608-20.977-3.68-13.036-0.127-22.3 7.198-22.3 23.714 0 11.096 15.9 102.527 16.517 103.125h27.975l-2.846-16.317h13.96l-3.572-26.325h-14.812l-7.85-48.535zM520.829 426.026c0 0 3.68 18.13 3.68 25.509 0 18.439-9.174 40.92-39.887 40.92-28.138-0.018-48.97-30.332-48.97-64.598 0-39.542 26.090-48.934 48.335-48.934 20.524 0 29.552 4.605 29.552 4.605l4.931 26.978c0 0-15.61-6.89-29.716-6.89-30.042 0-24.784 22.409-24.784 22.409h56.857zM484.714 467.381c15.792 0 12.873-17.75 12.873-19.164h-31.057c0 1.813 2.937 19.164 18.185 19.164zM230.926 514.303l-22.065-133.258h-28.646l15.937 100.46-35.952-100.46h-19.273l-2.502 100.46-17.024-100.46h-26.996l22.373 133.258h40.829l1.432-81.768 27.576 81.768h44.31zM584.884 531.853h-145.296c1.432 2.72 6.509 13.67 14.16 28.156h119.787c4.297-9.101 8.068-18.493 11.35-28.156zM558.395 587.622h-89.074c5.711 9.428 12.020 19.073 18.729 28.138h49.931c7.397-8.92 14.232-18.312 20.415-28.138zM511.909 253.081c-9.736 8.793-18.547 18.529-26.869 28.718h54.264c-8.177-10.026-17.115-19.418-26.688-28.138h-0.054c0-0.018 0.018-0.018 0.018-0.018-0.218-0.181-0.453-0.363-0.671-0.562zM558.722 308.886h-93.244c-5.675 9.065-10.969 18.366-15.52 28.138h124.066c-4.551-9.718-9.645-19.109-15.302-28.138zM591.973 490.334c-3.717-7.578-6.998-14.522-10.407-32.453-19.418 6.871-20.941-30.731-29.081-77.054h-28.718l17.459 108.456h26.053l-2.52-15.719c0 0 9.283 17.097 21.811 17.097 3.662 0.036 5.403-0.326 5.403-0.326zM643.771 406.155c9.428 0 23.134 6.871 23.134 6.871l-5.004-30.531c0 0-15.048-3.825-24.476-3.825-33.396 0-50.348 23.044-50.348 57.944 0 52.632 31.42 80.662 63.71 80.662 14.577 0 31.51-6.853 31.51-6.853l-4.569-29.643c0 0-11.44 7.995-25.673 7.995-19.037 0-36.116-18.167-36.116-51.2 0-16.263 7.959-31.42 27.83-31.42zM916.922 396.474c-1.36-0.725-2.411-1.777-3.173-3.155-0.761-1.36-1.142-2.774-1.142-4.242s0.381-2.865 1.142-4.206c0.743-1.342 1.795-2.411 3.137-3.173 1.36-0.743 2.756-1.124 4.206-1.124 1.487 0 2.901 0.381 4.224 1.124 1.342 0.761 2.393 1.831 3.137 3.173 0.78 1.342 1.124 2.738 1.124 4.206 0 1.487-0.363 2.901-1.124 4.242-0.743 1.378-1.831 2.429-3.191 3.155-1.342 0.743-2.72 1.106-4.17 1.106-1.396 0-2.792-0.363-4.17-1.106zM927.239 392.648c0.635-1.142 0.979-2.321 0.979-3.535s-0.308-2.411-0.943-3.517c-0.616-1.124-1.487-1.976-2.629-2.647-1.124-0.616-2.284-0.943-3.499-0.943-1.233 0-2.411 0.326-3.517 0.943-1.142 0.635-1.994 1.505-2.647 2.647s-0.943 2.303-0.943 3.517 0.308 2.393 0.979 3.535c0.635 1.124 1.487 1.994 2.647 2.629s2.303 0.907 3.481 0.907 2.339-0.308 3.445-0.907c1.16-0.635 2.012-1.487 2.647-2.629zM813.634 424.848c0-22.935 11.404-45.398 34.683-45.398 16.771 0 26.053 11.694 26.053 11.694l-1.215-9.99h27.214l21.394 133.058-28.066-0.054-6.037-37.439c0 0-10.516 14.559-27.014 14.559-25.654-0.018-47.012-30.93-47.012-66.429zM880.68 441.147c0-14.776-7.307-34.52-22.463-34.52-10.080 0-14.794 8.449-14.794 21.72 0 21.702 9.736 36.007 22.046 36.007 10.044-0.018 15.211-6.926 15.211-23.207zM926.205 301.018c-0.199 0.181-0.453 0.381-0.78 0.471 0.78 0.054 1.432 0.344 1.904 0.834 0.453 0.49 0.707 1.070 0.707 1.741 0 0.471-0.145 0.925-0.417 1.342s-0.671 0.725-1.16 0.888c-0.453 0.181-1.233 0.272-2.303 0.272h-3.155v-9.156h1.487v3.898h0.852c0.508 0 0.925-0.109 1.16-0.326 0.381-0.308 0.925-1.015 1.559-2.121l0.798-1.45h1.831l-1.124 1.795c-0.544 0.834-0.997 1.432-1.36 1.813zM924.265 302.541h-1.813v2.756h1.704c0.707 0 1.178-0.054 1.45-0.163 0.29-0.109 0.471-0.272 0.635-0.471 0.145-0.218 0.218-0.453 0.218-0.707 0-0.417-0.145-0.78-0.453-1.033s-0.907-0.381-1.741-0.381zM997.639 779.803h-971.277c-14.577 0-26.361-11.803-26.361-26.361v-610.901c0-14.559 11.785-26.361 26.361-26.361h971.277c14.577 0 26.361 11.803 26.361 26.361v610.901c0 14.559-11.785 26.361-26.361 26.361zM932.061 297.899c-0.761-1.378-1.795-2.429-3.137-3.173s-2.756-1.124-4.206-1.124c-1.487 0-2.901 0.381-4.242 1.124-1.324 0.743-2.375 1.795-3.155 3.173-0.743 1.324-1.124 2.738-1.124 4.206s0.381 2.865 1.142 4.242c0.743 1.378 1.831 2.411 3.173 3.155 1.36 0.707 2.738 1.088 4.188 1.088 1.432 0 2.81-0.381 4.152-1.088 1.36-0.743 2.429-1.777 3.173-3.155 0.761-1.378 1.124-2.792 1.124-4.242s-0.326-2.901-1.088-4.206zM951.062 447.982c0.036-145.133-117.557-262.835-262.708-262.871-67.88-0.018-129.777 25.709-176.408 67.971-46.631-42.189-108.401-67.898-176.172-67.898-145.061 0-262.799 117.72-262.799 262.799 0 144.499 116.814 261.874 261.113 262.817 0.562 0 1.124 0 1.686 0 67.771 0 129.559-25.709 176.19-67.898 46.613 42.207 108.437 67.934 176.263 67.952 145.151 0.054 262.835-117.593 262.871-262.744-0.036-0.036-0.036-0.073-0.036-0.127zM917.394 393.537v-9.138h1.487v3.88h0.852c0.526 0 0.943-0.109 1.197-0.308 0.381-0.326 0.888-1.015 1.559-2.158l0.78-1.432h1.831l-1.124 1.795c-0.526 0.852-0.997 1.45-1.342 1.813-0.218 0.199-0.453 0.363-0.78 0.471 0.78 0.054 1.414 0.344 1.886 0.834 0.453 0.471 0.725 1.088 0.725 1.741 0 0.453-0.145 0.925-0.435 1.342-0.29 0.399-0.671 0.707-1.124 0.888s-1.251 0.272-2.321 0.272h-3.191zM922.67 391.669c0.163-0.236 0.236-0.435 0.236-0.743 0-0.399-0.163-0.743-0.435-0.997-0.344-0.272-0.907-0.381-1.759-0.381h-1.795v2.756h1.668c0.725 0 1.197-0.054 1.487-0.145 0.236-0.127 0.453-0.254 0.598-0.49zM726.463 492.002c-19.218 0-33.904-6.164-33.904-6.164l-4.079-24.113c0 0 12.147 4.931 30.495 4.931 10.425 0 18.058-1.16 18.058-9.627 0-5.149-0.961-7.053-0.961-7.053s-8.195 0.671-12.039 0.671c-24.186 0-49.586-10.298-49.586-41.464 0-24.548 16.68-30.151 27.014-30.151 19.726 0 28.247 12.8 28.7 12.836l-0.925-10.697h24.621l10.987 77.054c0.054 32.725-28.483 33.777-38.382 33.777zM712.684 402.493c-8.703 0-10.951 6.618-10.951 10.57 0 7.651 4.152 16.861 24.657 16.861 4.768-0.018 5.276-0.508 6.092-0.653 0.526-4.714-2.973-26.778-19.798-26.778zM816.48 457.899c-19.418 6.871-20.904-30.713-29.081-77.054h-28.718l17.459 108.456h26.071l-2.502-15.719c0 0 9.301 17.097 21.829 17.097 3.644 0 5.385-0.363 5.385-0.363-3.717-7.56-7.016-14.504-10.443-32.417z" />
<glyph unicode="&#xe90b;" glyph-name="attach-4" d="M628.959 725.121v86.409h-63.178c18.454 15.446 30.395 38.335 30.395 64.233 0.031 46.399-37.746 84.237-84.206 84.237-46.43 0-84.206-37.839-84.206-84.237 0-25.898 11.972-48.787 30.395-64.233h-63.147v-86.409h-199.676v-789.090h633.301v789.090h-199.676zM511.969 919.99c24.378 0 44.228-19.85 44.228-44.228 0-24.409-19.85-44.259-44.228-44.259s-44.259 19.85-44.259 44.259c0.062 24.378 19.881 44.228 44.259 44.228zM788.625-24.021h-553.312v709.133h159.667v-51.64h233.948v51.64h159.667v-709.133zM308.323 509.72h425.002v-29.992h-425.002v29.992zM370.85 575.566h289.124v-29.992h-289.124v29.992zM308.323 440.991h425.002v-29.992h-425.002v29.992zM308.323 369.748h425.002v-29.992h-425.002v29.992zM308.323 301.019h425.002v-29.992h-425.002v29.992zM308.323 229.777h425.002v-29.992h-425.002v29.992zM308.323 161.016h425.002v-30.023h-425.002v30.023zM548.288 87.696h184.975v-30.023h-184.975v30.023z" />
<glyph unicode="&#xe90c;" glyph-name="visa-smart-pls" d="M980.124 757.312h-936.248c-24.231 0-43.876-19.645-43.876-43.876v-530.872c0-24.231 19.645-43.876 43.876-43.876h936.248c24.231 0 43.876 19.645 43.876 43.876v530.872c0 24.231-19.645 43.876-43.876 43.876zM951.602 211.084h-879.204v473.83h879.204v-473.83zM662.133 338.531c1.263-1.938 3.415-3.103 5.731-3.103h49.072c2.841 0 5.387 1.758 6.397 4.414 6.032 15.91 9.901 26.048 11.178 29.322 3.258 0 18.329-0.018 34.488-0.043h0.912c18.571-0.023 38.3-0.048 43.021-0.048v0c1.393-5.962 4.847-21.751 6.272-28.26 0.686-3.144 3.468-5.38 6.682-5.38h42.793c2.072 0 4.035 0.939 5.332 2.556 1.295 1.616 1.79 3.734 1.347 5.754l-46.539 210.827c-0.693 3.135-3.468 5.367-6.68 5.367h-41.804c-16.72 0-26.313-5.574-32.074-18.635l-86.656-196.266c-0.935-2.122-0.734-4.564 0.527-6.504zM784.69 499.374l4.138-19.405 14.173-64.829h-50.87l32.559 84.234zM495.568 345.746c16.147-5.663 38.696-9.185 60.313-9.418 0.025 0 0.048 0 0.073 0 61.982 0.014 102.317 29.062 102.76 74.008 0.237 24.712-15.527 43.402-49.42 58.735-20.748 10.079-33.458 16.772-33.337 27.022 0 9.215 11.622 18.541 33.952 18.543 0.538 0.009 1.176 0.014 1.801 0.014 18.543 0 31.641-4.204 39.877-7.366 1.915-0.734 4.053-0.572 5.838 0.442 1.783 1.014 3.012 2.774 3.358 4.797l5.535 32.548c0.57 3.358-1.416 6.623-4.66 7.66-10.177 3.255-26.632 7.136-47.243 7.136-58.421 0-99.45-29.391-99.776-71.445-0.369-31.141 29.334-48.515 51.723-58.877 22.964-10.592 30.679-17.369 30.574-26.858-0.162-14.527-18.409-21.14-35.297-21.14-24.035 0-36.989 3.625-55.314 11.246-1.92 0.8-4.104 0.679-5.927-0.328-1.822-1.001-3.087-2.784-3.44-4.835l-5.866-34.271c-0.565-3.292 1.327-6.509 4.475-7.612zM153.003 547.297c39.178-14.1 71.224-36.474 92.676-64.704 1.327-1.746 3.363-2.702 5.449-2.702 0.96 0 1.929 0.201 2.843 0.618 2.909 1.331 4.509 4.505 3.848 7.635l-11.401 53.905c-0.025 0.116-0.052 0.23-0.082 0.344-4.099 15.395-17.078 17.684-26.484 18.065-0.089 0.002-0.178 0.005-0.267 0.005l-64.255 0.105c-0.005 0-0.007 0-0.011 0-3.322 0-6.162-2.387-6.737-5.658s1.29-6.486 4.42-7.612zM390.188 337.95c1.299-1.541 3.212-2.428 5.227-2.428h47.341c3.333 0 6.183 2.403 6.741 5.69l35.974 210.961c0.34 1.986-0.214 4.021-1.514 5.56s-3.21 2.428-5.225 2.428h-47.375c-3.335 0-6.183-2.405-6.741-5.69l-35.943-210.961c-0.337-1.988 0.217-4.026 1.514-5.56zM201.040 511.58c-2.35 1.806-5.59 1.892-8.029 0.221-2.442-1.671-3.534-4.724-2.702-7.564l47.893-163.634c0.853-2.916 3.527-4.92 6.563-4.92 0.002 0 0.007 0 0.007 0l55.154 0.080c2.729 0 5.196 1.63 6.274 4.135l90.531 210.537c0.907 2.113 0.695 4.544-0.572 6.463-1.265 1.922-3.411 3.078-5.711 3.078l-49.806-0.025c-2.811 0-5.339-1.726-6.365-4.345l-58.264-148.84-6.267 22.684c-0.082 0.301-0.187 0.597-0.312 0.885-9.197 21.345-33.911 54.746-68.395 81.246z" />
<glyph unicode="&#xe90d;" glyph-name="qiwi-smart-pls" d="M957.13 51.588h-890.228c-37.485 0-66.87 29.386-66.87 66.87v650.55c0 37.485 29.386 66.87 66.87 66.87h890.228c37.485 0 66.87-29.386 66.87-66.87v-650.55c0-37.485-29.386-66.87-66.87-66.87zM66.87 804.848c-20.449 0-35.84-15.422-35.84-35.84v-650.55c0-20.449 15.422-35.84 35.84-35.84h890.228c20.449 0 35.84 15.422 35.84 35.84v650.55c0 20.449-15.422 35.84-35.84 35.84h-890.228zM940.001 325.523h-210.572c-66.126 0-119.932 53.031-119.932 118.225 0 64.078 54.924 118.225 119.932 118.225h210.572c8.564 0 15.515-6.951 15.515-15.515s-6.951-15.515-15.515-15.515h-210.572c-48.19 0-88.902-39.936-88.902-87.195 0-48.066 39.874-87.195 88.902-87.195h210.572c8.564 0 15.515-6.951 15.515-15.515s-6.951-15.515-15.515-15.515zM695.172 421.469c-11.978 12.009-11.978 32.52 0 44.528 11.978 11.978 32.52 11.978 44.528 0 11.978-12.009 11.978-32.52 0-44.528-11.978-11.978-32.551-11.978-44.528 0z" />
</font></defs></svg>