<svg xmlns="http://www.w3.org/2000/svg" width="150" height="68" viewBox="0 0 150 68">
    <path fill="#BBC1C7" fill-rule="nonzero" d="M0 66.085V61.88l11.984-14.05a125.204 125.204 0 0 0 4.942-6.074 80.452 80.452 0 0 0 3.781-5.4c1.084-1.703 1.998-3.322 2.742-4.856a34.9 34.9 0 0 0 1.813-4.448c.464-1.43.8-2.829 1.006-4.193.206-1.365.31-2.725.31-4.083 0-1.917-.233-3.643-.697-5.177-.464-1.534-1.175-2.833-2.134-3.895-.958-1.062-2.17-1.877-3.637-2.445-1.467-.568-3.202-.852-5.207-.852-.885 0-1.81.052-2.775.155-.966.103-1.968.262-3.007.476-1.04.214-2.12.494-3.24.84-1.12.347-2.284.764-3.493 1.251l-.862-4.315c1.194-.487 2.37-.91 3.526-1.272a34.989 34.989 0 0 1 3.483-.896 37.82 37.82 0 0 1 3.516-.542 34.282 34.282 0 0 1 3.626-.189c2.8 0 5.24.399 7.319 1.195 2.078.797 3.803 1.918 5.174 3.364 1.37 1.445 2.391 3.182 3.062 5.21.67 2.029 1.006 4.275 1.006 6.738a25.51 25.51 0 0 1-.475 4.88 31.474 31.474 0 0 1-1.393 4.923 41.543 41.543 0 0 1-2.267 5.023 61.437 61.437 0 0 1-3.095 5.177 91.224 91.224 0 0 1-3.87 5.377 138.95 138.95 0 0 1-4.599 5.62L6.125 61.572h29.452v4.514H0zm63.144.957c-2.364 0-4.473-.358-6.326-1.074a14.64 14.64 0 0 1-4.882-3.078c-1.4-1.336-2.59-2.967-3.568-4.894-.978-1.926-1.773-4.096-2.386-6.51-.613-2.414-1.058-5.05-1.335-7.906a94.238 94.238 0 0 1-.416-9.09c0-3.248.171-6.308.514-9.179.343-2.871.865-5.514 1.565-7.928.7-2.413 1.584-4.576 2.65-6.488 1.064-1.912 2.32-3.532 3.764-4.86a15.383 15.383 0 0 1 4.926-3.057c1.838-.708 3.882-1.063 6.129-1.063 2.364 0 4.477.358 6.337 1.074a14.614 14.614 0 0 1 4.893 3.079c1.4 1.336 2.586 2.96 3.557 4.871.97 1.912 1.762 4.068 2.375 6.467s1.058 5.012 1.335 7.839c.278 2.827.416 5.827.416 9.001 0 3.278-.171 6.367-.514 9.268-.343 2.9-.861 5.565-1.554 7.994-.694 2.428-1.573 4.606-2.638 6.533-1.065 1.926-2.32 3.557-3.765 4.893a15.101 15.101 0 0 1-4.937 3.056c-1.846.702-3.892 1.052-6.14 1.052zm.415-4.788c1.597 0 3.033-.274 4.31-.823a10.058 10.058 0 0 0 3.395-2.4c.987-1.052 1.84-2.357 2.558-3.913.718-1.556 1.305-3.354 1.763-5.393.457-2.038.794-4.3 1.012-6.784.217-2.485.326-5.196.326-8.133 0-2.967-.098-5.722-.294-8.265-.196-2.543-.515-4.855-.957-6.938-.443-2.082-1.012-3.928-1.709-5.535-.696-1.608-1.549-2.956-2.557-4.045a10.114 10.114 0 0 0-3.504-2.477c-1.328-.562-2.833-.844-4.517-.844-1.596 0-3.032.27-4.31.811a9.968 9.968 0 0 0-3.405 2.4c-.994 1.06-1.847 2.365-2.558 3.914-.71 1.549-1.295 3.335-1.752 5.36-.457 2.024-.798 4.27-1.023 6.74-.225 2.47-.337 5.145-.337 8.024 0 3.01.098 5.802.294 8.374.196 2.572.515 4.903.957 6.993.443 2.09 1.016 3.938 1.72 5.546s1.556 2.96 2.557 4.055a9.944 9.944 0 0 0 3.494 2.489c1.327.562 2.84.844 4.537.844zm38.14-27.775c-2.28 0-4.203-.385-5.769-1.156a9.673 9.673 0 0 1-3.79-3.272c-.962-1.41-1.655-3.108-2.08-5.092-.424-1.985-.637-4.199-.637-6.642 0-2.559.272-4.856.816-6.892.544-2.036 1.35-3.755 2.415-5.158a10.618 10.618 0 0 1 3.98-3.228c1.588-.75 3.426-1.124 5.513-1.124 2.22 0 4.11.375 5.668 1.124a9.722 9.722 0 0 1 3.813 3.228c.984 1.403 1.696 3.1 2.135 5.093.44 1.992.66 4.238.66 6.739 0 1.716-.12 3.308-.358 4.777-.238 1.468-.596 2.813-1.073 4.035-.477 1.221-1.07 2.3-1.778 3.238a10.378 10.378 0 0 1-2.482 2.367 11.023 11.023 0 0 1-3.186 1.461c-1.178.335-2.46.502-3.847.502zm35.577 31.606c-2.28 0-4.204-.386-5.769-1.156a9.673 9.673 0 0 1-3.79-3.272c-.962-1.41-1.655-3.112-2.08-5.104-.425-1.992-.637-4.202-.637-6.63 0-2.574.272-4.875.816-6.903.544-2.029 1.35-3.748 2.415-5.159a10.48 10.48 0 0 1 3.98-3.228c1.588-.741 3.433-1.112 5.535-1.112 2.221 0 4.107.375 5.657 1.123a9.742 9.742 0 0 1 3.802 3.228c.984 1.404 1.696 3.101 2.135 5.093.44 1.992.66 4.231.66 6.718 0 1.716-.12 3.311-.358 4.787s-.596 2.821-1.073 4.035a13.76 13.76 0 0 1-1.778 3.24 10.286 10.286 0 0 1-2.482 2.377 11.023 11.023 0 0 1-3.186 1.46c-1.178.335-2.46.503-3.847.503zM102.48 30.648c1.314 0 2.423-.296 3.327-.888.905-.592 1.638-1.428 2.2-2.51.561-1.081.97-2.39 1.225-3.923.256-1.535.383-3.237.383-5.108 0-2.353-.171-4.325-.514-5.918-.343-1.593-.832-2.876-1.466-3.847-.635-.972-1.401-1.666-2.298-2.083-.898-.416-1.908-.625-3.032-.625-1.313 0-2.422.296-3.326.888-.905.592-1.638 1.429-2.2 2.51-.562 1.082-.967 2.39-1.215 3.924-.248 1.534-.372 3.237-.372 5.107 0 2.222.157 4.125.47 5.71.315 1.586.781 2.88 1.402 3.88.62 1.001 1.382 1.732 2.287 2.192.904.46 1.948.69 3.13.69zm34.638 31.606c1.313 0 2.422-.296 3.326-.887.905-.592 1.638-1.431 2.2-2.52.562-1.087.967-2.394 1.215-3.92.248-1.525.372-3.222.372-5.091 0-2.351-.172-4.322-.515-5.914-.342-1.591-.831-2.872-1.466-3.843-.635-.971-1.4-1.668-2.298-2.092-.897-.423-1.908-.635-3.031-.635-1.313 0-2.422.296-3.327.887-.905.591-1.638 1.431-2.2 2.519-.561 1.087-.966 2.394-1.214 3.92-.248 1.526-.372 3.223-.372 5.092 0 2.234.157 4.143.47 5.727.314 1.584.78 2.876 1.401 3.877.62 1 1.382 1.73 2.287 2.19.905.46 1.955.69 3.152.69zm-40.003 3.678L137.581 0l3.765 2.134L100.881 68l-3.766-2.068z"/>
</svg>
