<svg xmlns="http://www.w3.org/2000/svg" width="27" height="40" viewBox="0 0 27 40">
    <path fill="#BBC1C7" fill-rule="nonzero" d="M26.413 32.41a.587.587 0 0 0-.587.585v5.509a.324.324 0 0 1-.323.323h-3.155V27.29a.587.587 0 0 0-1.173 0v11.54h-6.352l1.842-2.024a1.048 1.048 0 0 0 .25-.861l-1.754-10.35.473-.71c.261.186.462.364.84.364.384 0 .743-.214.92-.568l1.85-3.703 4.216 1.63c.152.066 2.366 1.061 2.366 3.69v3.964a.587.587 0 0 0 1.174 0v-3.963c0-3.464-2.97-4.724-3.097-4.776a.154.154 0 0 1-.01-.005l-7.016-2.713V17.16a5.49 5.49 0 0 0 2.081-3.612 2.54 2.54 0 0 0 1.492-.608 2.481 2.481 0 0 0 .26-3.51v-2.17C20.709 3.259 17.447 0 13.436 0c-4.01 0-7.272 3.258-7.272 7.262v2.227a2.35 2.35 0 0 0-.605 1.568c0 .726.316 1.413.866 1.885.42.361.935.568 1.49.607a5.432 5.432 0 0 0 2.2 3.699v1.556l-7.007 2.712-.01.005C2.97 21.574 0 22.834 0 26.298v12.206C0 39.329.672 40 1.497 40h5.591a.587.587 0 1 0 0-1.172H5.825V27.29a.587.587 0 0 0-1.173 0v11.54H1.497a.324.324 0 0 1-.323-.324V26.298c0-2.639 2.228-3.632 2.365-3.69l4.212-1.63L9.6 24.68c.177.354.537.568.92.568.376 0 .575-.175.84-.364l.473.71-1.754 10.35a1.051 1.051 0 0 0 .25.86l1.844 2.024H9.826a.587.587 0 1 0 0 1.172h15.676c.825 0 1.497-.671 1.497-1.495v-5.509a.586.586 0 0 0-.586-.587zm-8.268-11.858l-1.725 3.453c-.043-.03-.957-.68-2.075-1.471l2.131-2.627 1.67.645zm-3.468 3.653l-.447.673h-1.463l-.448-.673 1.179-.835 1.18.835zm-3.388-5.211v-1.097c.713.287 1.475.42 2.22.42.768 0 1.523-.164 2.194-.457v1.138l-2.205 2.718-2.209-2.722zm8.851-7.936c0 .383-.166.747-.457.996a1.37 1.37 0 0 1-.677.312V9.75c.674.11 1.134.668 1.134 1.308zM7.867 12.366a1.324 1.324 0 0 1-1.134-1.308c0-.627.52-1.136 1.134-1.278v2.586zm.032-3.78a2.904 2.904 0 0 0-.561.126v-1.45c0-3.358 2.736-6.09 6.098-6.09 3.363 0 6.099 2.732 6.099 6.09v1.41a2.65 2.65 0 0 0-.53-.102c0-.566.006-.457-1.846-2.445a1.045 1.045 0 0 0-1.333-.162C13.78 7.296 11.287 7.966 8.986 7.8a1.044 1.044 0 0 0-1.087.785zm1.142 4.24V8.98c2.533.148 5.189-.603 7.334-1.975.85.91 1.31 1.388 1.457 1.57v4.253a4.33 4.33 0 0 1-4.325 4.32c-2.674-.002-4.466-2.074-4.466-4.32zm1.535 11.179L8.85 20.552l1.665-.644 2.132 2.627-2.072 1.47zm.673 12.065l1.698-10.02h1.101l1.699 10.02-2.249 2.47-2.25-2.47z"/>
</svg>
