<?xml version="1.0" encoding="utf-8"?>
<!-- Generator: Adobe Illustrator 21.0.0, SVG Export Plug-In . SVG Version: 6.00 Build 0)  -->
<svg version="1.1" id="Слой_1" xmlns="http://www.w3.org/2000/svg" xmlns:xlink="http://www.w3.org/1999/xlink" x="0px" y="0px"
	 viewBox="0 0 22 11" style="enable-background:new 0 0 22 11;" xml:space="preserve">
<style type="text/css">
	.st0{fill:#E30611;}
</style>
<title>1С</title>
<desc>Created with Sketch.</desc>
<g id="Page-1">
	<g id="GUI" transform="translate(-408.000000, -2472.000000)">
		<path id="_x31_С" class="st0" d="M419.4,2481.5c-0.4,0-0.9-0.1-1.3-0.2c-0.1,0-0.4-0.1-0.5-0.2c-1.3-0.6-2.3-2-2.3-3.7
			c0-2.2,1.8-4,3.9-4c2.1,0,3.9,1.8,3.9,4h1.4c0-3-2.4-5.4-5.3-5.4c-3,0-5.4,2.5-5.4,5.5c0,2.1,1.1,3.9,2.8,4.8
			c0.3,0.2,0.7,0.3,0.9,0.4c0.5,0.1,1.1,0.2,1.6,0.3c0.2,0,0.8,0,1,0l0,0h9.8v-1.4h-9.8C420.1,2481.5,419.5,2481.5,419.4,2481.5z
			 M420.2,2479.3L420.2,2479.3c-0.1,0-0.6,0-0.7,0c-0.2,0-0.4,0-0.6-0.1c-0.2,0-0.3-0.1-0.4-0.2c-0.5-0.3-0.9-0.9-0.9-1.5
			c0-1,0.8-1.7,1.7-1.7c0.9,0,1.7,0.7,1.7,1.7h1.4c0-1.7-1.4-3.1-3.1-3.1c-1.7,0-3.1,1.4-3.1,3.1c0,1.2,0.7,2.3,1.7,2.8
			c0.2,0.1,0.4,0.2,0.5,0.2c0.3,0.1,0.7,0.1,1,0.1c0.1,0,0.7,0,0.8,0v0h9.8v-1.4L420.2,2479.3L420.2,2479.3z M413.1,2483h-1.4v-9.5
			h-2.1v-1.5h3.5L413.1,2483L413.1,2483z M408,2474.2v1.4h1.6v7.4h1.4v-8.8H408z"/>
	</g>
</g>
</svg>
