<?xml version="1.0" encoding="utf-8"?>
<!-- Generator: Adobe Illustrator 21.0.0, SVG Export Plug-In . SVG Version: 6.00 Build 0)  -->
<svg version="1.1" id="Слой_1" xmlns="http://www.w3.org/2000/svg" xmlns:xlink="http://www.w3.org/1999/xlink" x="0px" y="0px"
	 viewBox="0 0 16 14" style="enable-background:new 0 0 16 14;" xml:space="preserve">
<style type="text/css">
	.st0{fill:#E30611;}
</style>
<title>Календарь</title>
<desc>Created with Sketch.</desc>
<g id="Page-1">
	<g id="GUI" transform="translate(-248.000000, -2682.000000)">
		<path id="Календарь" class="st0" d="M259,2682.9h5v9.1l-4.1,4H248v-13.1h5v-0.9h1.1v0.9h3.8v-0.9h1.1V2682.9z M253,2684
			h-3.8v1.8h13.7v-1.8H259v0.7h-1.1v-0.7h-3.8v0.9H253V2684z M249.1,2686.9v8h10v-3.6h3.8v-4.4H249.1z M262.1,2692.4h-1.8v1.8
			L262.1,2692.4z M251.7,2691.6h1.9v1.8h-1.9V2691.6z M255.1,2691.6h1.9v1.8h-1.9V2691.6z M255.1,2688.4h1.9v1.8h-1.9V2688.4z
			 M258.4,2688.4h1.9v1.8h-1.9V2688.4z M251.7,2688.4h1.9v1.8h-1.9V2688.4z"/>
	</g>
</g>
</svg>
