<?xml version="1.0" encoding="UTF-8"?>
<svg width="13px" height="13px" viewBox="0 0 13 13" version="1.1" xmlns="http://www.w3.org/2000/svg" xmlns:xlink="http://www.w3.org/1999/xlink">
    <!-- Generator: Sketch 56 (81588) - https://sketch.com -->
    <title>Отмена</title>
    <desc>Created with Sketch.</desc>
    <g id="Page-1" stroke="none" stroke-width="1" fill="none" fill-rule="evenodd">
        <g id="GUI" transform="translate(-91.000000, -2902.000000)" fill="#001424" fill-rule="nonzero">
            <polygon id="Отмена" points="104 2902.90325 103.096934 2902 97.5 2907.59695 91.9030661 2902 91 2902.90325 96.5969339 2908.4998 91 2914.09635 91.9030661 2915 97.5 2909.40305 103.096934 2915 104 2914.09635 98.4030661 2908.4998"></polygon>
        </g>
    </g>
</svg>