<?xml version="1.0" encoding="utf-8"?>
<!-- Generator: Adobe Illustrator 21.0.0, SVG Export Plug-In . SVG Version: 6.00 Build 0)  -->
<svg version="1.1" id="Слой_1" xmlns="http://www.w3.org/2000/svg" xmlns:xlink="http://www.w3.org/1999/xlink" x="0px" y="0px"
	 viewBox="0 0 16 11" style="enable-background:new 0 0 16 11;" xml:space="preserve">
<style type="text/css">
	.st0{fill:#E30611;}
</style>
<title>Сохранть</title>
<desc>Created with Sketch.</desc>
<g id="Page-1">
	<g id="GUI" transform="translate(-94.000000, -3166.000000)">
		<polygon id="Сохранть" class="st0" points="110,3167.1 108.9,3166 99.7,3174.9 95.1,3170.5 94,3171.6 99.7,3177 		"/>
	</g>
</g>
</svg>
