<?xml version="1.0" encoding="UTF-8"?>
<svg width="12px" height="16px" viewBox="0 0 12 16" version="1.1" xmlns="http://www.w3.org/2000/svg" xmlns:xlink="http://www.w3.org/1999/xlink">
    <!-- Generator: Sketch 56 (81588) - https://sketch.com -->
    <title>выгрузить в exel</title>
    <desc>Created with Sketch.</desc>
    <g id="Page-1" stroke="none" stroke-width="1" fill="none" fill-rule="evenodd">
        <g id="GUI" transform="translate(-96.000000, -2623.000000)" fill="#000000" fill-rule="nonzero">
            <path d="M104.044,2623 L108,2626.86809 L108,2639 L96,2639 L96,2623 L104.044,2623 Z M104.363636,2624.8208 L104.363636,2626.55556 L106.137818,2626.55556 L104.363636,2624.8208 Z M97.0909091,2637.93333 L106.909091,2637.93333 L106.909091,2627.62222 L103.272727,2627.62222 L103.272727,2624.06667 L97.0909091,2624.06667 L97.0909091,2637.93333 Z M103.549091,2629.96142 L104.410182,2630.61636 L102.690909,2632.77778 L104.410182,2634.9392 L103.549091,2635.59413 L102,2633.6464 L100.450909,2635.59413 L99.5894545,2634.9392 L101.309091,2632.77778 L99.5894545,2630.61636 L100.450909,2629.96142 L102,2631.90916 L103.549091,2629.96142 Z" id="выгрузить-в-exel"></path>
        </g>
    </g>
</svg>