<?xml version="1.0" encoding="utf-8"?>
<!-- Generator: Adobe Illustrator 21.0.0, SVG Export Plug-In . SVG Version: 6.00 Build 0)  -->
<svg version="1.1" id="Слой_1" xmlns="http://www.w3.org/2000/svg" xmlns:xlink="http://www.w3.org/1999/xlink" x="0px" y="0px"
	 viewBox="0 0 22 21" style="enable-background:new 0 0 22 21;" xml:space="preserve">
<style type="text/css">
	.st0{fill:#E30611;}
</style>
<title>Выгрузка</title>
<desc>Created with Sketch.</desc>
<g id="Page-1">
	<g id="GUI" transform="translate(-408.000000, -2532.000000)">
		<path id="Выгрузка" class="st0" d="M429.4,2542.2c0.4,0,0.6,0.3,0.6,0.6v5.9c0,2.3-1.8,4.2-4.1,4.2h-13.8
			c-2.3,0-4.1-1.9-4.1-4.2v-6c0-0.4,0.3-0.6,0.6-0.6c0.4,0,0.6,0.3,0.6,0.6v6c0,1.6,1.3,2.9,2.8,2.9h13.8c1.6,0,2.8-1.3,2.8-2.9
			v-5.9C428.7,2542.5,429,2542.2,429.4,2542.2z M418.6,2547.8l-4-4.1c-0.2-0.3-0.2-0.7,0-0.9c0.2-0.3,0.6-0.3,0.9,0l2.9,3v-13.2
			c0-0.4,0.3-0.6,0.6-0.6s0.6,0.3,0.6,0.6v13.2l2.9-3c0.2-0.3,0.6-0.3,0.9,0c0.2,0.3,0.2,0.7,0,0.9l-4,4.1c-0.1,0.1-0.3,0.2-0.4,0.2
			S418.7,2548,418.6,2547.8z"/>
	</g>
</g>
</svg>
