<svg xmlns="http://www.w3.org/2000/svg" width="32" height="32" viewBox="0 0 32 32">
  <g fill="none" fill-rule="evenodd">
    <path fill="#E30613" d="M32,1.77419854 C32,0.796902586 31.2031221,0 30.2288298,0 L1.78009044,0 C0.799851329,0 0,0.796902586 0,1.77419854 L0,30.2258015 C0,31.2080533 0.799851329,32 1.78009044,32 L30.2288298,32 C31.2031221,32 32,31.2080533 32,30.2258015 L32,1.77419854 Z"/>
    <path fill="#FFFFFF" d="M16,28 C22.2165981,28 25,23.2461832 25,18.5333969 C25,15.3129771 23.858605,11.605916 21.9532762,8.61259542 C20.1000111,5.71946565 17.8732896,4 16,4 C14.1217043,4 11.8949828,5.71946565 10.0577372,8.61259542 C8.14239626,11.605916 7,15.3129771 7,18.5333969 C7,23.2461832 9.77939704,28 16,28"/>
  </g>
</svg>
