<?xml version="1.0" encoding="UTF-8"?>
<svg width="15px" height="19px" viewBox="0 0 15 19" version="1.1" xmlns="http://www.w3.org/2000/svg" xmlns:xlink="http://www.w3.org/1999/xlink">
    <!-- Generator: Sketch 56 (81588) - https://sketch.com -->
    <title>bell</title>
    <desc>Created with Sketch.</desc>
    <g id="Page-1" stroke="none" stroke-width="1" fill="none" fill-rule="evenodd">
        <g id="GUI" transform="translate(-93.000000, -2409.000000)" fill="#9198A0">
            <path d="M102.562509,2411.27696 C102.847245,2413.26756 104.081418,2414.94609 105.783997,2415.82451 C105.814882,2416.06281 105.839192,2416.30209 105.867817,2416.54065 C105.899842,2416.7909 105.899767,2416.79067 105.933892,2417.04084 C106.044969,2417.80565 106.175695,2418.56961 106.386147,2419.31275 C106.526549,2419.80868 106.701751,2420.30367 106.967554,2420.74361 C107.071655,2420.9159 107.191206,2421.07725 107.324633,2421.22633 C107.434434,2421.34893 107.553535,2421.46214 107.664911,2421.58319 C107.694087,2421.61611 107.722287,2421.64942 107.749812,2421.68382 C107.833888,2421.79578 107.900039,2421.91613 107.941364,2422.05186 C107.97384,2422.15854 107.99484,2422.2702 107.99919,2422.38216 C108.00174,2422.44917 107.99829,2422.51641 107.98854,2422.58272 C107.927264,2422.99929 107.625986,2423.32089 107.305357,2423.55321 C107.248582,2423.59436 107.190306,2423.63342 107.130981,2423.67069 C107.05208,2423.72015 106.971304,2423.76643 106.889253,2423.81006 C106.783652,2423.8662 106.675801,2423.91807 106.566599,2423.96636 C106.429198,2424.02724 106.289471,2424.0826 106.148395,2424.13377 C105.951668,2424.20504 105.752165,2424.26817 105.551088,2424.32508 C104.887706,2424.51306 104.207823,2424.63745 103.525991,2424.72768 C103.214983,2424.76881 102.903067,2424.80259 102.590579,2424.82965 C102.941357,2425.66964 102.787278,2426.6675 102.123542,2427.34091 C101.244852,2428.2324 99.8056864,2428.21766 98.9090745,2427.30798 C98.2425881,2426.63179 98.0634988,2425.65143 98.3763803,2424.82657 C98.241383,2424.81467 98.106492,2424.80154 97.9717301,2424.78715 C97.2146718,2424.7064 96.4591136,2424.58729 95.7196805,2424.39877 C95.5327034,2424.3511 95.3467764,2424.29876 95.1626494,2424.24037 C94.9917225,2424.18625 94.8222956,2424.12701 94.6553438,2424.06093 C94.5393175,2424.01505 94.4244163,2423.9659 94.311315,2423.91255 C94.2231891,2423.87101 94.1361131,2423.82699 94.0506122,2423.77986 C93.9861115,2423.7443 93.9225108,2423.70703 93.8601101,2423.66774 C93.8010094,2423.63055 93.7430338,2423.59157 93.6864832,2423.55042 C93.3881299,2423.33324 93.1066518,2423.03982 93.0240759,2422.65951 C93.0129008,2422.60788 93.0055507,2422.55546 93.0021007,2422.50274 C92.9908506,2422.32936 93.0263259,2422.15776 93.0717764,2421.99184 C93.1102519,2421.85106 93.1623774,2421.71239 93.2431533,2421.59142 C93.2886038,2421.5234 93.3431294,2421.46439 93.4018551,2421.40864 C93.4928311,2421.3268 93.5898071,2421.25265 93.6809331,2421.17089 C93.7559339,2421.10046 93.8263597,2421.026 93.8895854,2420.94385 C94.0505372,2420.73475 94.1688135,2420.49304 94.2680396,2420.2473 C94.3807658,2419.96831 94.4701668,2419.67955 94.5491426,2419.38861 C94.7720451,2418.56712 94.9182217,2417.72327 95.0457981,2416.88105 C95.1031737,2416.50198 95.1503492,2416.12129 95.2076499,2415.74222 C95.225275,2415.63096 95.2441753,2415.52 95.2643505,2415.4092 C95.4650527,2414.35439 95.8196566,2413.2967 96.5152892,2412.47746 C96.6267404,2412.34616 96.7461417,2412.22208 96.8728931,2412.10655 C97.0528201,2411.94248 97.2474472,2411.79589 97.4531745,2411.66855 C97.776953,2411.46814 98.1272068,2411.31611 98.4887108,2411.20578 C98.6574728,2411.15427 98.8280983,2411.11209 99.0000658,2411.07771 C99.0000658,2410.96494 99.0000658,2410.79001 99.0000658,2410.55291 C99.0000658,2409.69526 99.671646,2409 100.500082,2409 C101.328518,2409 102.000099,2409.69526 102.000099,2410.55291 C102.000099,2410.78858 102.000099,2410.97399 102.000099,2411.10915 C102.012356,2411.11207 102.024607,2411.11503 102.03685,2411.11804 C102.21464,2411.16173 102.390259,2411.21464 102.562509,2411.27696 Z" id="bell"></path>
        </g>
    </g>
</svg>