<?xml version="1.0" encoding="utf-8"?>
<!-- Generator: Adobe Illustrator 21.0.0, SVG Export Plug-In . SVG Version: 6.00 Build 0)  -->
<svg version="1.1" id="Слой_1" xmlns="http://www.w3.org/2000/svg" xmlns:xlink="http://www.w3.org/1999/xlink" x="0px" y="0px"
	 viewBox="0 0 20 22" style="enable-background:new 0 0 20 22;" xml:space="preserve">
<style type="text/css">
	.st0{fill:#BBC1C7;}
</style>
<title>Продажи</title>
<desc>Created with Sketch.</desc>
<g id="Page-1">
	<g id="GUI" transform="translate(-409.000000, -2329.000000)">
		<path id="Продажи" class="st0" d="M424,2338.5c2.8,0.6,5,3.1,5,6.2c0,3.5-2.8,6.3-6.3,6.3c-2.3,0-4.3-1.2-5.4-3.1h-5.8
			c-1.4,0-2.5-1.1-2.5-2.5v-14c0-1.4,1.1-2.5,2.5-2.5h7.4c0.1,0,0.2,0.1,0.3,0.1l4.7,4.9c0.1,0.1,0.1,0.2,0.1,0.3V2338.5z
			 M419.3,2330.6v2.2c0,0.6,0.5,1.1,1.1,1.1h2L419.3,2330.6z M411.5,2347L411.5,2347l5.4,0c-0.3-0.7-0.4-1.5-0.4-2.3
			c0-0.5,0.1-1,0.2-1.5h-3.9c-0.3,0-0.5-0.2-0.5-0.5c0-0.3,0.2-0.5,0.5-0.5h4.2c0.2-0.5,0.5-1,0.8-1.4h-5c-0.3,0-0.5-0.2-0.5-0.5
			c0-0.3,0.2-0.5,0.5-0.5h5.8c1.1-1,2.6-1.6,4.2-1.6c0.1,0,0.2,0,0.4,0v-3.6h-2.7c-1.1,0-2-0.9-2-2v-2.9h-6.9
			c-0.9,0-1.5,0.7-1.5,1.6v14C409.9,2346.3,410.6,2347,411.5,2347z M422.7,2350.1c3,0,5.4-2.4,5.4-5.4c0-3-2.4-5.4-5.4-5.4
			c-3,0-5.4,2.4-5.4,5.4C417.3,2347.7,419.7,2350.1,422.7,2350.1z M412.7,2338.6c-0.3,0-0.5-0.2-0.5-0.5c0-0.3,0.2-0.5,0.5-0.5h4.6
			c0.3,0,0.5,0.2,0.5,0.5s-0.2,0.5-0.5,0.5H412.7z M423,2341.3l2.7,2.9c0.2,0.2,0.2,0.5,0,0.6c-0.1,0.1-0.2,0.1-0.3,0.1
			c-0.1,0-0.2-0.1-0.3-0.1l-1.9-2v5c0,0.3-0.2,0.5-0.5,0.5s-0.5-0.2-0.5-0.5v-5l-1.9,2c-0.2,0.2-0.5,0.2-0.7,0
			c-0.2-0.2-0.2-0.5,0-0.6l2.7-2.9c0.1-0.1,0.2-0.1,0.3-0.1C422.8,2341.2,422.9,2341.2,423,2341.3z"/>
	</g>
</g>
</svg>
