<?xml version="1.0" encoding="utf-8"?>
<!-- Generator: Adobe Illustrator 21.0.0, SVG Export Plug-In . SVG Version: 6.00 Build 0)  -->
<svg version="1.1" id="Слой_1" xmlns="http://www.w3.org/2000/svg" xmlns:xlink="http://www.w3.org/1999/xlink" x="0px" y="0px"
	 viewBox="0 0 16 16" style="enable-background:new 0 0 16 16;" xml:space="preserve">
<style type="text/css">
	.st0{fill:#E30611;}
</style>
<title>Отправить</title>
<desc>Created with Sketch.</desc>
<g id="Page-1">
	<g id="GUI" transform="translate(-94.000000, -3032.000000)">
		<path id="Отправить" class="st0" d="M106.7,3032h-9.3v2.8L94,3037v11h16v-11l-3.3-2.1V3032z M98.7,3033.3h6.7v6.4l-1.5,1
			c-0.5-0.5-1.1-0.7-1.8-0.7c-0.7,0-1.3,0.3-1.8,0.7l-1.5-1V3033.3z M103.3,3042.7c0,0.1,0,0.3-0.1,0.4l0,0
			c-0.2,0.5-0.7,0.9-1.3,0.9s-1.1-0.4-1.3-0.9c0-0.1-0.1-0.3-0.1-0.4c0-0.3,0.1-0.5,0.2-0.7l0,0c0.2-0.4,0.7-0.6,1.1-0.6
			s0.9,0.2,1.1,0.6l0,0C103.3,3042.2,103.3,3042.4,103.3,3042.7z M97.3,3036.4v2.5l-1.9-1.2L97.3,3036.4z M95.3,3039.2l4.1,2.6
			c-0.1,0.3-0.1,0.5-0.1,0.8c0,0.1,0,0.2,0,0.3l-4,2.5V3039.2z M95.9,3046.7l3.9-2.4c0.5,0.7,1.3,1.1,2.2,1.1s1.7-0.4,2.2-1.1
			l3.9,2.4H95.9z M108.7,3045.5l-4-2.5c0-0.1,0-0.2,0-0.3c0-0.3,0-0.6-0.1-0.8l4.1-2.6V3045.5z M108.6,3037.7l-1.9,1.2v-2.5
			L108.6,3037.7z"/>
	</g>
</g>
</svg>
