<?xml version="1.0" encoding="UTF-8"?>
<svg width="16px" height="16px" viewBox="0 0 16 16" version="1.1" xmlns="http://www.w3.org/2000/svg" xmlns:xlink="http://www.w3.org/1999/xlink">
    <!-- Generator: Sketch 56 (81588) - https://sketch.com -->
    <title>Отправить</title>
    <desc>Created with Sketch.</desc>
    <g id="Page-1" stroke="none" stroke-width="1" fill="none" fill-rule="evenodd">
        <g id="GUI" transform="translate(-94.000000, -3032.000000)" fill="#001424" fill-rule="nonzero">
            <path d="M106.666667,3032 L97.3333333,3032 L97.3333333,3034.84667 L94,3036.96708 L94,3048 L110,3048 L110,3036.96708 L106.666667,3034.84667 L106.666667,3032 Z M98.6666667,3033.33333 L105.333333,3033.33333 L105.333333,3039.755 L103.820833,3040.71708 C103.33375,3040.26042 102.688333,3040 102,3040 C101.310833,3040 100.665,3040.26125 100.179167,3040.71708 L98.6666667,3039.755 L98.6666667,3033.33333 Z M103.333333,3042.66667 C103.333333,3042.80958 103.310833,3042.94958 103.265417,3043.08333 L103.263333,3043.08917 C103.084583,3043.63375 102.576667,3044 102,3044 C101.423333,3044 100.915417,3043.63375 100.734583,3043.08333 C100.689167,3042.94958 100.666667,3042.80958 100.666667,3042.66667 C100.666667,3042.40792 100.735833,3042.16875 100.875417,3041.9525 L100.8775,3041.94917 C101.123333,3041.56375 101.5425,3041.33333 102.000417,3041.33333 C102.458333,3041.33333 102.877083,3041.56333 103.125833,3041.95292 L103.128333,3041.95708 C103.264167,3042.16917 103.333333,3042.40792 103.333333,3042.66667 Z M97.3333333,3036.42667 L97.3333333,3038.90667 L95.3841667,3037.66667 L97.3333333,3036.42667 Z M95.3333333,3039.21417 L99.4670833,3041.84458 C99.3816667,3042.10833 99.3333333,3042.38417 99.3333333,3042.66667 C99.3333333,3042.76208 99.3458333,3042.85583 99.35625,3042.94958 L95.3333333,3045.46417 L95.3333333,3039.21417 Z M95.9241667,3046.66667 L99.8354167,3044.22208 C100.325833,3044.90667 101.122083,3045.33333 102,3045.33333 C102.877917,3045.33333 103.674167,3044.90667 104.164583,3044.22208 L108.075833,3046.66667 L95.9241667,3046.66667 Z M108.666667,3045.46417 L104.64375,3042.95 C104.654167,3042.85583 104.666667,3042.76208 104.666667,3042.66708 C104.666667,3042.38417 104.618333,3042.1075 104.532917,3041.845 L108.666667,3039.21417 L108.666667,3045.46417 Z M108.615833,3037.66667 L106.666667,3038.90667 L106.666667,3036.42667 L108.615833,3037.66667 Z" id="Отправить"></path>
        </g>
    </g>
</svg>