<svg xmlns="http://www.w3.org/2000/svg" width="32" height="40" viewBox="0 0 32 40">
    <path fill="#BBC1C7" fill-rule="nonzero" d="M.978 0L26.47.003l.03.002-.006-.001.015.002a.585.585 0 0 1 .158.046l.011.006.012.006c.03.014.058.032.085.052l.072.062 4.987 5.13a.58.58 0 0 1 .06.073l.019.029.015.027.015.028a.599.599 0 0 1 .05.162l.002.015.004.044v33.336a.98.98 0 0 1-.863.971l-.114.007H27.5a.586.586 0 0 1-.095-1.167l.095-.007h3.325V6.304h-4.4a.587.587 0 0 1-.58-.49l-.008-.096V1.174H1.174v4.384a.587.587 0 0 1-1.166.095L0 5.558V.978A.98.98 0 0 1 .864.008L.978 0zm-.39 9.277c.29 0 .532.212.578.491l.008.095v28.963h22.22a.587.587 0 0 1 .095 1.166l-.095.008H.978a.98.98 0 0 1-.971-.864L0 39.022V9.863c0-.325.264-.586.587-.586zM12.34 31.155h11.786a.587.587 0 0 1 .095 1.167l-.095.008H12.34a.587.587 0 0 1-.095-1.168l.095-.007h11.786zM8.401 27.24c.54 0 .978.439.978.978v3.131c0 .54-.438.978-.978.978h-3.13a.979.979 0 0 1-.977-.978v-3.131c0-.54.438-.978.977-.978zm-.195 1.174H5.467v2.74h2.739v-2.74zm13.73.783a.586.586 0 0 1 .094 1.167l-.095.008H12.34a.587.587 0 0 1-.095-1.168l.095-.007h9.596zm5.184-1.957a.587.587 0 0 1 .094 1.167l-.095.008H12.34a.587.587 0 0 1-.095-1.168l.095-.007h14.78zm-2.994-4.07a.587.587 0 0 1 .095 1.167l-.095.007H12.34a.587.587 0 0 1-.095-1.167l.095-.008h11.786zM9.461 19.375a.59.59 0 0 1 .169.733l-.056.09L6.6 24.111a.589.589 0 0 1-.768.15l-.086-.063-1.252-1.096a.587.587 0 0 1 .687-.946l.085.063.779.682 2.592-3.414a.586.586 0 0 1 .823-.112zm12.475 1.837a.586.586 0 0 1 .094 1.168l-.095.007H12.34a.587.587 0 0 1-.095-1.167l.095-.008h9.596zm5.184-1.957a.587.587 0 0 1 .094 1.167l-.095.007H12.34a.587.587 0 0 1-.095-1.166l.095-.008h14.78zM9.46 11.391a.59.59 0 0 1 .17.733l-.056.09L6.6 16.128a.589.589 0 0 1-.768.15l-.086-.063-1.252-1.096a.587.587 0 0 1 .687-.946l.085.062.779.682 2.592-3.413a.586.586 0 0 1 .823-.113zm14.666 3.795a.586.586 0 0 1 .095 1.166l-.095.007H12.34a.587.587 0 0 1-.095-1.165l.095-.008h11.786zm-2.19-1.957a.586.586 0 0 1 .094 1.166l-.095.007H12.34a.587.587 0 0 1-.095-1.165l.095-.008h9.596zm5.184-1.957a.586.586 0 0 1 .094 1.166l-.095.007H12.34a.587.587 0 0 1-.095-1.165l.095-.008h14.78zm-8.404-8.155c.5 0 .914.379.97.864l.007.114v3.246a.98.98 0 0 1-.863.971l-.114.007H4.577a.98.98 0 0 1-.972-.865L3.6 7.34V4.095c0-.5.378-.915.864-.971l.114-.007h14.139zm-.195 1.174H4.773v2.854h13.748V4.29zm8.491-2.258v3.098h3.012l-1.575-1.62-1.437-1.478zm-.526-2.03l.008.001-.019-.001h.011zM26.426 0l.049.003h-.005L26.426 0z"/>
</svg>
