<svg xmlns="http://www.w3.org/2000/svg" width="36" height="40" viewBox="0 0 36 40">
    <path fill="#BBC1C7" fill-rule="nonzero" d="M30.976 0c.296 0 .54.213.586.491l.008.096v10.956l.547-.542a1.249 1.249 0 0 1 1.636-.087l.099.087 1.79 1.771c.446.442.475 1.141.088 1.618l-.089.098-1.819 1.8.924.912c.205.205.228.521.068.75l-.068.08-3.177 3.144v11.351c0 .123-.041.245-.114.345l-.06.07-6.963 6.888a.603.603 0 0 1-.326.165l-.093.007H.593a.592.592 0 0 1-.585-.492L0 39.413V10.254a.59.59 0 0 1 .594-.586c.294 0 .539.212.585.491l.008.095v28.572H23.42v-6.302a.59.59 0 0 1 .498-.58l.096-.007h6.369v-9.59c-.103.101-.2.204-.343.252a.603.603 0 0 1-.609-.142.584.584 0 0 1-.069-.749l.069-.081.952-.941v-.997l-8.17 8.082c-.05.05-.11.091-.174.12l-.101.035-3.421.846-1.226 1.213a.604.604 0 0 1-.84 0 .584.584 0 0 1-.068-.749l.068-.081 1.227-1.213.855-3.385a.59.59 0 0 1 .088-.191l.068-.081 11.698-11.573-.004-.035-.001-.035V1.174H1.186v6.34a.59.59 0 0 1-.593.587.591.591 0 0 1-.585-.492L0 7.514V.587a.59.59 0 0 1 .498-.58L.594 0h30.382zm-1.432 33.11h-4.937v4.885l4.937-4.885zM12.62 35.068a.59.59 0 0 1 .593.588.589.589 0 0 1-.497.58l-.096.007h-2.532a.59.59 0 0 1-.593-.587c0-.293.215-.535.497-.58l.096-.008h2.532zm2.531 0h6.33a.59.59 0 0 1 .594.588.59.59 0 0 1-.497.58l-.097.007h-6.33a.59.59 0 0 1-.593-.587c0-.293.215-.535.497-.58l.096-.008h6.33zm6.33-3.131a.59.59 0 0 1 .594.587.59.59 0 0 1-.497.58l-.097.008H10.088a.59.59 0 0 1-.593-.588c0-.292.215-.534.497-.58l.096-.007h11.393zm-6.962-3.131a.59.59 0 0 1 .593.587.589.589 0 0 1-.497.58l-.096.008h-4.431a.59.59 0 0 1-.593-.588c0-.292.215-.534.497-.58l.096-.007h4.43zm4.912-2.958l-.402 1.587 1.605-.396-1.203-1.191zM30.298 14.46L19.948 24.7l1.846 1.826 10.35-10.24-1.846-1.826zM15.785 3.13c4.864 0 8.822 3.916 8.822 8.728 0 4.813-3.958 8.728-8.822 8.728-4.865 0-8.822-3.915-8.822-8.728 0-4.812 3.957-8.728 8.822-8.728zm17.199 13.986l-1.415 1.399v.996l1.919-1.897-.504-.498zm-17.2-12.812c-4.209 0-7.635 3.39-7.635 7.554 0 4.165 3.426 7.554 7.636 7.554s7.635-3.39 7.635-7.554c0-4.165-3.426-7.554-7.635-7.554zm1.425 2.336c1.669 0 3.03 1.31 3.03 2.978 0 1.67-1.38 3.016-3.049 3.016h-2.684v1.005h3.01c.288 0 .537.247.537.532 0 .284-.23.53-.537.53h-3.01v1.766c0 .284-.25.53-.537.53a.534.534 0 0 1-.537-.53v-1.764h-.9a.546.546 0 0 1-.538-.532c0-.284.23-.53.537-.53h.901v-1.006h-.9a.534.534 0 0 1-.538-.532c0-.284.23-.53.537-.53h.901V7.172c0-.285.23-.532.537-.532zm15.776 5.178l-.019.004-.01.007-1.818 1.8 1.847 1.826 1.817-1.798a.043.043 0 0 0 .013-.03l-.005-.018-.007-.009-1.79-1.77a.04.04 0 0 0-.028-.012zM17.228 7.723h-2.703v3.85h2.684c1.074 0 1.956-.854 1.975-1.915 0-1.063-.882-1.935-1.956-1.935z"/>
</svg>
