<?xml version="1.0" standalone="no"?>
<!DOCTYPE svg PUBLIC "-//W3C//DTD SVG 1.1//EN" "http://www.w3.org/Graphics/SVG/1.1/DTD/svg11.dtd">
<svg xmlns="http://www.w3.org/2000/svg"><defs><font id="flaticon" horiz-adv-x="512"><font-face units-per-em="512" ascent="448" descent="-64" x-height="240" cap-height="480"/><missing-glyph horiz-adv-x="512"/><glyph unicode="&#xE000;" glyph-name="trolley" horiz-adv-x="512" d="M288.17003343869 78.191928908433c-8.0560670606019 0 -15.830699464065 -1.8117356053319 -23.108423801017 -5.3853694287939c-25.991663231185 -12.761302734643 -36.756538866749 -44.289313361733 -23.9937703266 -70.280976592918 c8.8974394210068 -18.121753469836 26.972287114653 -29.3806055609 47.172552791901 -29.3806055609c8.0560670606019 0 15.830699464065 1.8117356053319 23.108423801017 5.3853694287939c25.991663231185 12.761302734643 36.756538866749 44.289313361733 23.9937703266 70.280976592918 C326.44514680958 66.934542622876 308.37029911594 78.191928908433 288.17003343869 78.191928908433zM306.18185149558 -10.943703907288c-5.6565434473913 -2.777701433741 -11.692730520819 -4.1848747194357 -17.941459392607 -4.1848747194357 c-15.692913746507 0 -29.735330493335 8.7449956483899 -36.646603453804 22.821125921854c-9.9117768311117 20.187073427695 -1.550822225276 44.676286015299 18.636251202419 54.588062846411c5.6565434473913 2.777701433741 11.692730520819 4.1848747194357 17.941459392607 4.1848747194357 c15.692913746507 0 29.735330493335 -8.7449956483899 36.64806925931 -22.821125921854C334.7284137236 23.457285511429 326.36892492327 -1.0319270761761 306.18185149558 -10.943703907288zM510.0724657597 134.60052219321c-1.4262287572718 2.906692318263 -4.9412303604965 4.1086528331272 -7.8464568732536 2.6794924648436l-39.864046539325 -19.571435115203l-78.876460079703 160.65081764463 c-0.68453117127021 1.3969126471531 -1.8967523246759 2.4625532499656 -3.3684210526316 2.9653245385003c-1.4716687279557 0.49983967752279 -3.0825889789749 0.39869909761349 -4.4780358206221 -0.28583207365673l-33.845449131968 -16.61783702075L259.47102743805 432.09307864963 c-4.1233108881865 8.39906554899 -12.501855160093 13.617333150108 -21.865420731987 13.617333150108c-3.7363382346205 0 -7.3407539737071 -0.839906554899 -10.715038248362 -2.4962667766021l-66.101965095506 -32.454399706839c-12.04892125876 -5.9159910219413 -17.038523200953 -20.530071916083 -11.122532179011 -32.578993174843 l19.569969309697 -39.859649122807l-22.566075763822 -11.080023819339L104.40492877101 413.32783656269c-0.68453117127021 1.3969126471531 -1.8967523246759 2.4625532499656 -3.3684210526316 2.9653245385003L9.0850625257661 447.68485181622C6.0200632128624 448.72850533645 2.6882872978792 447.09413219733 1.6417021666438 444.03059868994 C0.59511703540836 440.96559937703 2.2309559800284 437.63382346205 5.2959552929321 436.58723833081l89.654527964821 -30.607484769365l148.57551188677 -302.61408089414c-40.589620264761 -23.307773349824 -56.710549219001 -74.605102835418 -35.793504649352 -117.20873986533 c15.190142457973 -30.938756813705 46.049745774358 -50.158398607485 80.535751912418 -50.158398607485c13.747789840136 0 27.020658696349 3.0943154230223 39.44775777564 9.194997938711c42.603637029912 20.918510375155 61.219366955247 71.364206861802 43.355595254455 114.62745636938 l112.25578306079 55.115752828547l8.8226833402043 -17.970775502725c1.0187348266227 -2.0755805963996 3.101644450552 -3.2804727222757 5.2681049883194 -3.2804727222757c0.8677568595117 0 1.7487059685768 0.19348632678302 2.5798176904402 0.60098025743209 c2.906692318263 1.4276945627777 4.1057212221153 4.9412303604965 2.6794924648436 7.8479226787596l-8.8241491457102 17.972241308231l13.539645458293 6.6474279694013C510.30113141862 128.18029407723 511.50016032248 131.69382987495 510.0724657597 134.60052219321zM451.83601300902 112.54014932894 l-85.916723924694 -42.182950849709c-15.36750492419 26.831569786084 -43.060968347762 43.6634144107 -74.097934130365 44.900554257707l-44.133937978105 89.88905684577l127.85781686592 62.780449819065L451.83601300902 112.54014932894zM165.95703357611 400.2352617837 l66.101965095506 32.454399706839c1.7516375795887 0.85896202647611 3.61760798864 1.2957720672438 5.5466080344464 1.2957720672438c4.8562136411525 0 9.2008611607347 -2.7044111584444 11.338005588383 -7.0593193165682l82.324034629655 -167.67495762906l-88.751591773167 -43.575466080344 l-82.324034629655 167.67349182355C157.12702120837 389.59497961614 159.71270212084 397.16879666529 165.95703357611 400.2352617837zM174.40447070679 327.79515368055l104.55444093262 -212.94929229078 c-8.5603041546425 -0.8765516925473 -16.894874261371 -2.9814483990655 -24.911364573313 -6.3029636755073L151.83839494297 316.71659566671L174.40447070679 327.79515368055zM322.54756996931 -44.279052723192c-10.80591818973 -5.3047501259677 -22.338875910403 -7.9945032293528 -34.279327561724 -7.9945032293528 c-29.980120012826 0 -56.805826576886 16.705785351106 -70.009802574321 43.598918968439c-18.935275525629 38.569740277587 -2.9638587329944 85.35238880491 35.604415739087 104.28913013605c10.80591818973 5.3047501259677 22.338875910403 7.9945032293528 34.279327561724 7.9945032293528 c29.980120012826 0 56.805826576886 -16.705785351106 70.009802574321 -43.598918968439C377.08872703953 21.441802940772 361.11584444139 -25.342311392057 322.54756996931 -44.279052723192z"/><glyph unicode="&#xE001;" glyph-name="wallet31" horiz-adv-x="512" d="M425.96797065662 323.72981146711L404.60836360711 401.98798951197l-72.580942891388 -19.809589823886L301.79178657557 443.20894164537L60.626534060316 323.72981146711H0v-382.93875311247h479.07256422475V44.006362134162h32.927963890144v178.25462152109 h-32.92902011994V323.72981146711H425.96797065662zM379.41939543222 357.88775495469l9.3233404092478 -34.158471602478h-27.758247153646h-40.077055264336h-66.642818978304l58.704723946504 16.022477890346l35.303424701337 9.6354563139643L379.41939543222 357.88775495469zM443.15969493113 -23.297128581537H35.91181306383V172.29128012163v68.195476778417v5.4041997512084v36.855554386551v5.070959250572h18.57961022645h14.543228061055h53.652248717362h216.01219615343h40.078111494132h19.767340632046h18.611825235228h18.612881465024h7.390439882577 v-27.077507050128v-38.478451468098h-8.1102604885475h-18.612881465024h-46.39489378908H289.14713157281h-29.160920322728v-14.447111149619v-40.077583379234v-4.6252302766621v-18.612881465024v-18.612881465024v-81.878405670634h183.17453991084v-67.303490715699H443.15969493113zM476.08818693617 79.918175197992h-14.973113588025h-17.955906531915H295.89802431391V135.68605219673v18.612881465024v18.612881465024v12.616136798262v0.82121866638611h1.6577526648141h47.575758701002h68.194948663519h29.834266817675h17.955906531915h2.3474707215989h12.624058521732 V79.918175197992zM285.55542215153 395.08764025473l11.169630092647 -22.544168765717l-126.19569545099 -34.442597417601L285.55542215153 395.08764025473zM324.33965214557 149.84217203755L324.33965214557 143.4488130824L324.33965214557 114.67922589908L359.50365451384 114.67922589908L359.50365451384 149.84217203755L347.76260410155 149.84217203755Z"/></font></defs></svg>
