<?xml version="1.0" encoding="UTF-8"?>
<svg width="40px" height="40px" viewBox="0 0 40 40" version="1.1" xmlns="http://www.w3.org/2000/svg" xmlns:xlink="http://www.w3.org/1999/xlink">
    <!-- Generator: Sketch 63 (92445) - https://sketch.com -->
    <title>уменьшение</title>
    <desc>Created with Sketch.</desc>
    <g id="Page-1" stroke="none" stroke-width="1" fill="none" fill-rule="evenodd">
        <g id="Автосбор-долгов" transform="translate(-712.000000, -614.000000)" fill="#BBC1C7" fill-rule="nonzero">
            <path d="M737.810434,614 C739.077056,614 740.267928,614.494961 741.163633,615.393479 C742.059441,616.292101 742.552691,617.486852 742.552691,618.757702 L742.552691,618.757702 L742.552691,620.418359 C742.552691,620.846629 742.206715,621.193835 741.779733,621.193835 C741.35275,621.193835 741.006774,620.846629 741.006774,620.418359 L741.006774,620.418359 L741.006774,618.757599 C741.006774,617.90106 740.674298,617.095805 740.070566,616.490106 C739.466834,615.884511 738.66409,615.550953 737.810434,615.550953 L737.810434,615.550953 L735.882778,615.550953 C735.322641,615.550953 734.866801,616.008277 734.866801,616.570342 L734.866801,616.570342 L734.866801,622.810652 C734.866801,623.435376 734.624195,624.022877 734.183918,624.464691 L734.183918,624.464691 L727.083621,631.588113 C726.938511,631.733593 726.741973,631.815276 726.536985,631.815276 L726.536985,631.815276 L724.012914,631.815276 C724.014356,631.854981 724.015902,631.894685 724.015902,631.9347 L724.015902,631.9347 L724.015902,635.897901 C724.015902,636.326171 723.669926,636.673377 723.242944,636.673377 C722.815961,636.673377 722.469985,636.326171 722.469985,635.897901 L722.469985,635.897901 L722.469985,631.9347 C722.469985,631.091395 721.786071,630.405254 720.945504,630.405254 L720.945504,630.405254 L715.070502,630.405254 C714.229832,630.405254 713.545918,631.091292 713.545918,631.9347 L713.545918,631.9347 L713.545918,649.870227 C713.545918,650.713635 714.229832,651.399776 715.070502,651.399776 L715.070502,651.399776 L720.945401,651.399776 C721.785968,651.399776 722.469882,650.713635 722.469882,649.870227 L722.469882,649.870227 L722.469882,639.202774 C722.469882,638.774504 722.815858,638.427298 723.24284,638.427298 C723.669823,638.427298 724.015799,638.774504 724.015799,639.202774 L724.015799,639.202774 L724.015799,649.870227 C724.015799,649.910345 724.014356,649.950049 724.012811,649.989753 L724.012811,649.989753 L728.57873,649.989753 C729.143196,649.989753 729.673858,650.210195 730.073014,650.610651 C731.25461,651.796303 732.825778,652.449151 734.497018,652.449151 L734.497018,652.449151 L740.776741,652.449151 C741.203724,652.449151 741.549803,652.796254 741.549803,653.224524 C741.549803,653.652793 741.203827,654 740.776844,654 L740.776844,654 L734.497121,654 C732.413018,654 730.453619,653.18575 728.979947,651.707278 C728.872866,651.599746 728.730436,651.540603 728.578833,651.540603 L728.578833,651.540603 L723.52327,651.540603 C722.975603,652.38825 722.02507,652.950625 720.945504,652.950625 L720.945504,652.950625 L715.070502,652.950625 C713.377413,652.950625 712,651.568727 712,649.870123 L712,649.870123 L712,631.9347 C712,630.2362 713.377413,628.854301 715.070502,628.854301 L715.070502,628.854301 L720.94571,628.854301 C722.025379,628.854301 722.975912,629.416676 723.523476,630.264324 L723.523476,630.264324 L726.21698,630.264324 L733.090748,623.368064 C733.239156,623.219173 733.320884,623.021168 733.320884,622.810652 L733.320884,622.810652 L733.320884,616.570342 C733.320884,615.153082 734.470119,614 735.882778,614 L735.882778,614 Z M741.779526,622.947653 C742.206509,622.947653 742.552485,623.294859 742.552485,623.723129 L742.552485,623.723129 L742.552485,625.429901 C742.552485,626.022158 742.388515,626.601594 742.077992,627.10555 L742.077992,627.10555 L741.745207,627.645695 L747.804998,627.645695 C750.118103,627.645695 752,629.533722 752,631.85436 C752,633.409966 751.153868,634.770048 749.899716,635.498479 C750.818713,636.273852 751.401008,637.434585 751.401008,638.720841 C751.401008,640.203552 750.632172,641.508524 749.473971,642.258358 C750.241261,642.922682 750.728431,643.904332 750.728431,644.998581 C750.728431,646.472193 749.845712,647.742113 748.583419,648.306453 C749.088831,648.90936 749.393995,649.686284 749.393995,650.533828 C749.393995,652.445015 747.844161,653.999897 745.939282,653.999897 L745.939282,653.999897 L744.070679,653.999897 C743.643697,653.999897 743.297721,653.65269 743.297721,653.22442 C743.297721,652.796151 743.643697,652.448944 744.070679,652.448944 L744.070679,652.448944 L745.939282,652.448944 C746.991742,652.448944 747.848078,651.589716 747.848078,650.533828 C747.848078,649.477939 746.991845,648.618815 745.939282,648.618815 L745.939282,648.618815 L745.748206,648.618815 C745.321224,648.618815 744.975247,648.271608 744.975247,647.843338 C744.975247,647.415069 745.321224,647.067862 745.748206,647.067862 L745.748206,647.067862 L747.120156,647.067862 C748.257437,647.067862 749.18272,646.139565 749.18272,644.998581 C749.18272,643.8577 748.257437,642.929403 747.120156,642.929403 L747.120156,642.929403 L746.841788,642.929403 C746.414806,642.929403 746.068829,642.582197 746.068829,642.153927 C746.068829,641.725657 746.414806,641.378451 746.841788,641.378451 L746.841788,641.378451 L747.206006,641.378451 C748.666692,641.378451 749.854988,640.186182 749.854988,638.720738 C749.854988,637.322296 748.766868,636.157323 747.377706,636.068506 C747.32092,636.064887 747.263102,636.063026 747.206006,636.063026 C746.779024,636.063026 746.433048,635.715819 746.433048,635.287549 C746.433048,634.859279 746.779024,634.512073 747.206006,634.512073 C747.265473,634.512073 747.325351,634.515278 747.385127,634.51776 C747.414808,634.514348 747.444799,634.512073 747.475305,634.512073 L747.475305,634.512073 L747.804998,634.512073 C749.265684,634.512073 750.454082,633.319804 750.454082,631.85436 C750.454082,630.388917 749.265684,629.196648 747.804998,629.196648 L747.804998,629.196648 L739.099421,629.196648 C738.672438,629.196648 738.326462,628.849441 738.326462,628.421172 C738.326462,627.992902 738.672438,627.645695 739.099421,627.645695 L739.099421,627.645695 L739.927723,627.645695 L740.762931,626.290059 C740.922367,626.03136 741.006568,625.733888 741.006568,625.429901 L741.006568,625.429901 L741.006568,623.723129 C741.006568,623.294859 741.352544,622.947653 741.779526,622.947653 Z M718.007951,644.623457 C719.411438,644.623457 720.553253,645.769094 720.553253,647.177049 C720.553253,648.585004 719.411438,649.730537 718.007951,649.730537 C716.604567,649.730537 715.462752,648.585107 715.462752,647.177049 C715.462752,645.769094 716.604567,644.623561 718.007951,644.623457 Z M718.007951,646.174513 C717.456986,646.174513 717.00867,646.624393 717.00867,647.177152 C717.00867,647.729912 717.456986,648.179688 718.007951,648.179688 C718.558916,648.179688 719.007335,647.730015 719.007335,647.177152 C719.007335,646.624289 718.559019,646.174513 718.007951,646.174513 Z M718.007951,632.499143 C718.434934,632.499143 718.78091,632.84635 718.78091,633.274619 L718.78091,633.274619 L718.78091,641.942687 C718.78091,642.37106 718.434934,642.718163 718.007951,642.718163 C717.580969,642.718163 717.234992,642.370957 717.234992,641.942687 L717.234992,641.942687 L717.234992,633.274619 C717.234992,632.84635 717.580969,632.499143 718.007951,632.499143 Z" id="уменьшение"></path>
        </g>
    </g>
</svg>