<?xml version="1.0" encoding="UTF-8"?>
<svg width="40px" height="40px" viewBox="0 0 40 40" version="1.1" xmlns="http://www.w3.org/2000/svg" xmlns:xlink="http://www.w3.org/1999/xlink">
    <!-- Generator: Sketch 63 (92445) - https://sketch.com -->
    <title>Письма 2</title>
    <desc>Created with Sketch.</desc>
    <g id="Page-1" stroke="none" stroke-width="1" fill="none" fill-rule="evenodd">
        <g id="Автосбор-долгов" transform="translate(-710.000000, -795.000000)" fill="#BBC1C7" fill-rule="nonzero">
            <path d="M740,795 C740.176797,795 740.346338,795.0703 740.471333,795.195333 L740.471333,795.195333 L749.804667,804.528667 C749.9297,804.653662 750,804.823203 750,805 L750,805 L750,828.333333 C749.997796,830.173369 748.506702,831.664463 746.666667,831.666667 L746.666667,831.666667 L744.666667,831.666667 C744.664463,833.506702 743.173369,834.997796 741.333333,835 L741.333333,835 L713.333333,835 C711.493298,834.997796 710.002204,833.506702 710,831.666667 L710,831.666667 L710,807.666667 C710.002204,805.826631 711.493298,804.335537 713.333333,804.333333 L713.333333,804.333333 L722.666667,804.333333 C724.506702,804.335537 725.997796,805.826631 726,807.666667 L726,807.666667 L726,809 C726,810.104569 726.895431,811 728,811 L728,811 L741.333333,811 C743.173369,811.002204 744.664463,812.493298 744.666667,814.333333 L744.666667,814.333333 L744.666667,830.333333 L746.666667,830.333333 C747.771236,830.333333 748.666667,829.437903 748.666667,828.333333 L748.666667,828.333333 L748.666667,805.666667 L742.666667,805.666667 C740.826631,805.664463 739.335537,804.173369 739.333333,802.333333 L739.333333,802.333333 L739.333333,796.333333 L726.666667,796.333333 C725.562097,796.333333 724.666667,797.228764 724.666667,798.333333 L724.666667,798.333333 L724.666667,802.333333 C724.666667,802.701523 724.36819,803 724,803 C723.63181,803 723.333333,802.701523 723.333333,802.333333 L723.333333,802.333333 L723.333333,798.333333 C723.335537,796.493298 724.826631,795.002204 726.666667,795 L726.666667,795 Z M722.666667,805.666667 L713.333333,805.666667 C712.228764,805.666667 711.333333,806.562097 711.333333,807.666667 L711.333333,807.666667 L711.333333,831.666667 C711.333333,832.771236 712.228764,833.666667 713.333333,833.666667 L713.333333,833.666667 L741.333333,833.666667 C742.437903,833.666667 743.333333,832.771236 743.333333,831.666667 L743.333333,831.666667 L743.333333,814.333333 C743.333333,813.228764 742.437903,812.333333 741.333333,812.333333 L741.333333,812.333333 L728,812.333333 C726.159965,812.331129 724.668871,810.840035 724.666667,809 L724.666667,809 L724.666667,807.666667 C724.666667,806.562097 723.771236,805.666667 722.666667,805.666667 L722.666667,805.666667 Z M713.333333,811.666667 C713.701523,811.666667 714,811.965144 714,812.333333 L714,812.333333 L714,821.666667 C714,822.034856 713.701523,822.333333 713.333333,822.333333 C712.965144,822.333333 712.666667,822.034856 712.666667,821.666667 L712.666667,821.666667 L712.666667,812.333333 C712.666667,811.965144 712.965144,811.666667 713.333333,811.666667 Z M729.333333,808.333333 C729.701523,808.333333 730,808.63181 730,809 C730,809.36819 729.701523,809.666667 729.333333,809.666667 L729.333333,809.666667 L728,809.666667 C727.63181,809.666667 727.333333,809.36819 727.333333,809 C727.333333,808.63181 727.63181,808.333333 728,808.333333 L728,808.333333 Z M737.333333,808.333333 C737.701523,808.333333 738,808.63181 738,809 C738,809.36819 737.701523,809.666667 737.333333,809.666667 L737.333333,809.666667 L732.666667,809.666667 C732.298477,809.666667 732,809.36819 732,809 C732,808.63181 732.298477,808.333333 732.666667,808.333333 L732.666667,808.333333 Z M713.333333,807 C713.701523,807 714,807.298477 714,807.666667 L714,807.666667 L714,809 C714,809.36819 713.701523,809.666667 713.333333,809.666667 C712.965144,809.666667 712.666667,809.36819 712.666667,809 L712.666667,809 L712.666667,807.666667 C712.666667,807.298477 712.965144,807 713.333333,807 Z M729.333333,805.666667 C729.701523,805.666667 730,805.965144 730,806.333333 C730,806.701523 729.701523,807 729.333333,807 L729.333333,807 L728,807 C727.63181,807 727.333333,806.701523 727.333333,806.333333 C727.333333,805.965144 727.63181,805.666667 728,805.666667 L728,805.666667 Z M737.333333,805.666667 C737.701523,805.666667 738,805.965144 738,806.333333 C738,806.701523 737.701523,807 737.333333,807 L737.333333,807 L732.666667,807 C732.298477,807 732,806.701523 732,806.333333 C732,805.965144 732.298477,805.666667 732.666667,805.666667 L732.666667,805.666667 Z M740.666667,797.276 L740.666667,802.333333 C740.666667,803.437903 741.562097,804.333333 742.666667,804.333333 L742.666667,804.333333 L747.724,804.333333 L740.666667,797.276 Z M729.333333,803 C729.701523,803 730,803.298477 730,803.666667 C730,804.034856 729.701523,804.333333 729.333333,804.333333 L729.333333,804.333333 L728,804.333333 C727.63181,804.333333 727.333333,804.034856 727.333333,803.666667 C727.333333,803.298477 727.63181,803 728,803 L728,803 Z M737.333333,803 C737.701523,803 738,803.298477 738,803.666667 C738,804.034856 737.701523,804.333333 737.333333,804.333333 L737.333333,804.333333 L732.666667,804.333333 C732.298477,804.333333 732,804.034856 732,803.666667 C732,803.298477 732.298477,803 732.666667,803 L732.666667,803 Z" id="Письма-2"></path>
        </g>
    </g>
</svg>