<?xml version="1.0" encoding="UTF-8"?>
<svg width="15px" height="15px" viewBox="0 0 15 15" version="1.1" xmlns="http://www.w3.org/2000/svg" xmlns:xlink="http://www.w3.org/1999/xlink">
    <title>Красная</title>
    <g id="КУБ-24" stroke="none" stroke-width="1" fill="none" fill-rule="evenodd">
        <g id="Карточка-Товара-3---1440" transform="translate(-822.000000, -418.000000)" fill="#26CD58" fill-rule="nonzero">
            <path d="M822.331593,432.670676 C822.770625,433.109775 823.482318,433.109775 823.921349,432.670676 L834.758629,421.831719 L834.758629,431.852426 C834.758629,432.157484 834.883407,432.439432 835.086748,432.642804 C835.290088,432.846177 835.571993,432.970973 835.877004,432.970973 C836.496269,432.970973 837,432.467165 837,431.847804 L836.995379,419.12317 C836.995379,418.531541 836.468541,418.004622 835.872383,418 L823.149717,418.004622 C822.530451,418.004622 822.026721,418.508431 822.026721,419.127792 C822.026721,419.747153 822.530451,420.250961 823.149717,420.250961 L833.168874,420.241717 L822.326972,431.085296 C821.887941,431.524395 821.892562,432.231576 822.331593,432.670676 Z" id="Красная" transform="translate(829.500000, 425.500000) scale(1, -1) translate(-829.500000, -425.500000) "></path>
        </g>
    </g>
</svg>