<?xml version="1.0" encoding="UTF-8"?>
<svg width="38px" height="40px" viewBox="0 0 38 40" version="1.1" xmlns="http://www.w3.org/2000/svg" xmlns:xlink="http://www.w3.org/1999/xlink">
    <!-- Generator: Sketch 63 (92445) - https://sketch.com -->
    <title>уведом</title>
    <desc>Created with Sketch.</desc>
    <g id="КУБ-24" stroke="none" stroke-width="1" fill="none" fill-rule="evenodd">
        <g id="Прайс-лист" transform="translate(-395.000000, -598.000000)" fill="#BBC1C7" fill-rule="nonzero">
            <path d="M421.134732,598 C421.996799,598 422.698299,598.710545 422.698377,599.583825 L422.698377,599.583825 L422.698377,608.010137 C423.024139,607.824043 423.399722,607.717325 423.799599,607.717325 C425.040335,607.717325 426.049628,608.739823 426.049628,609.996695 C426.049628,610.530835 425.866849,611.022162 425.561987,611.411146 C425.800447,611.496849 426.033124,611.599348 426.257394,611.719036 C426.540508,611.870129 426.649096,612.22505 426.499865,612.511769 C426.350711,612.798487 426.000347,612.90833 425.71731,612.757393 C425.118922,612.437941 424.473721,612.276066 423.799522,612.276066 C421.488875,612.276066 419.65515,614.210515 419.65515,616.474026 L419.65515,616.474026 L419.65515,620.519565 C419.65515,621.096439 419.477384,621.631907 419.174527,622.073078 L419.174527,622.073078 L428.424517,622.073078 C428.121583,621.631985 427.943894,621.096361 427.943894,620.519565 L427.943894,620.519565 L427.943894,616.474261 C427.943894,615.763403 427.761964,615.058795 427.417923,614.436765 C427.26152,614.153953 427.361007,613.796297 427.640111,613.637938 C427.919369,613.479657 428.272356,613.580282 428.428682,613.863016 C428.869433,614.660046 429.102495,615.562934 429.102495,616.474183 L429.102495,616.474183 L429.102495,620.519487 C429.102495,621.376126 429.790421,622.073 430.635985,622.073 C430.956041,622.073 431.215324,622.335734 431.215324,622.659874 C431.215324,622.984092 430.955963,623.246748 430.635985,623.246748 L430.635985,623.246748 L428.677245,623.246748 L428.677245,636.092738 C428.677245,637.144455 427.832607,638 426.79447,638 L426.79447,638 L425.151236,638 C424.83118,638 424.571897,637.737266 424.571897,637.413126 C424.571897,637.088986 424.831257,636.826252 425.151236,636.826252 L425.151236,636.826252 L426.79447,636.826252 C427.19373,636.826252 427.518644,636.497112 427.518644,636.09266 L427.518644,636.09266 L427.518644,623.246669 L426.049474,623.246669 L426.049474,623.818075 C426.049474,625.074947 425.04018,626.097367 423.799445,626.097367 C422.558709,626.097367 421.549416,625.074947 421.549416,623.818075 L421.549416,623.818075 L421.549416,623.447528 L412.974164,630.029234 C412.302742,630.544624 411.366946,630.538843 410.703081,630.029312 C410.021941,629.506423 396.740254,619.312302 396.158678,618.865975 L396.158678,618.865975 L396.158678,621.845188 C396.158678,622.169406 395.899317,622.432062 395.579339,622.432062 C395.259361,622.432062 395,622.169328 395,621.845188 L395,621.845188 L395,617.69043 L395,617.69043 L395.009187,617.595928 C395.032554,617.444001 395.097829,617.31797 395.229515,617.217384 L395.229515,617.217384 L400.9791,612.804424 L400.9791,607.411544 C400.9791,606.608421 401.298384,605.881313 401.821502,605.351392 L401.821502,605.351392 L408.182894,598.907264 C408.737709,598.345468 409.500443,598 410.345159,598 L410.345159,598 Z M395.579339,623.99698 C395.899317,623.99698 396.158678,624.259714 396.158678,624.583854 L396.158678,624.583854 L396.158678,636.09266 C396.158678,636.497112 396.483592,636.826252 396.882852,636.826252 L396.882852,636.826252 L422.447808,636.826252 C422.767709,636.826252 423.027147,637.088986 423.027147,637.413048 C423.027147,637.737266 422.767786,637.999922 422.447808,637.999922 L422.447808,637.999922 L396.882852,637.999922 C395.844715,637.999922 395,637.144377 395,636.09266 L395,636.09266 L395,624.583854 C395,624.259636 395.259361,623.99698 395.579339,623.99698 Z M421.134578,599.17367 L410.345004,599.17367 C410.192303,599.17367 410.042456,599.192029 409.897698,599.227341 L409.897698,599.227341 L409.897698,605.450923 C409.897698,606.324202 409.196352,607.034748 408.334207,607.034748 L408.334207,607.034748 L402.179193,607.034748 C402.152586,607.15717 402.137624,607.283029 402.137624,607.411544 L402.137624,607.411544 L402.137624,621.982531 L411.402807,629.093846 C411.660548,629.291501 412.019011,629.289939 412.274515,629.093767 L412.274515,629.093767 L419.892454,623.246669 L419.892454,623.246669 L416.96275,623.246669 C416.642695,623.246669 416.383411,622.983936 416.383411,622.659796 C416.383411,622.335577 416.642772,622.072922 416.96275,622.072922 C417.808391,622.072922 418.496317,621.376048 418.496317,620.519409 L418.496317,620.519409 L418.496317,616.47387 C418.496317,614.340827 419.736899,612.479425 421.539467,611.615598 L421.539467,611.615598 L421.539467,599.583825 C421.539467,599.357654 421.357922,599.17367 421.134578,599.17367 L421.134578,599.17367 Z M424.89095,623.246748 L422.708094,623.246748 L422.708094,623.818153 C422.708094,624.427761 423.19774,624.923776 423.799522,624.923776 C424.401303,624.923776 424.89095,624.427761 424.89095,623.818153 L424.89095,623.818153 L424.89095,623.246748 Z M413.812864,622.025812 C414.132765,622.025812 414.392203,622.288468 414.392203,622.612686 C414.392203,622.936904 414.132842,623.19956 413.812864,623.19956 L413.812864,623.19956 L406.720433,623.19956 C406.400455,623.19956 406.141094,622.936826 406.141094,622.612686 C406.141094,622.288468 406.400532,622.025812 406.720433,622.025812 L406.720433,622.025812 Z M400.979023,618.271992 L397.303243,618.271992 L400.979023,621.093314 L400.979023,618.271992 Z M413.812864,619.44363 C414.132765,619.44363 414.392126,619.706286 414.392126,620.030504 C414.392126,620.354722 414.132765,620.617378 413.812787,620.617378 L413.812787,620.617378 L405.365789,620.617378 C405.04581,620.617378 404.78645,620.354644 404.78645,620.030504 C404.78645,619.706286 405.045887,619.44363 405.365789,619.44363 L405.365789,619.44363 Z M416.355493,616.861526 C416.675471,616.861526 416.934832,617.124181 416.934832,617.4484 C416.934832,617.77254 416.675394,618.035273 416.355416,618.035273 L416.355416,618.035273 L405.365789,618.035273 C405.04581,618.035273 404.78645,617.77254 404.78645,617.4484 C404.78645,617.124181 405.045887,616.861526 405.365789,616.861526 L405.365789,616.861526 Z M400.979023,614.276999 L397.303243,617.098322 L400.979023,617.098322 L400.979023,614.276999 Z M416.355416,614.279421 C416.675394,614.279421 416.934755,614.542077 416.934755,614.866295 C416.934755,615.190513 416.675394,615.453169 416.355416,615.453169 L416.355416,615.453169 L405.365789,615.453169 C405.04581,615.453169 404.78645,615.190357 404.78645,614.866295 C404.78645,614.542077 405.045887,614.279421 405.365789,614.279421 L405.365789,614.279421 Z M416.355416,611.697239 C416.675394,611.697239 416.934755,611.959895 416.934755,612.284113 C416.934755,612.608331 416.675394,612.870987 416.355416,612.870987 L416.355416,612.870987 L405.365789,612.870987 C405.04581,612.870987 404.78645,612.608175 404.78645,612.284113 C404.78645,611.959895 405.045887,611.697239 405.365789,611.697239 L405.365789,611.697239 Z M432.420661,611.064584 C432.740639,611.064584 433,611.32724 433,611.651458 C433,611.975676 432.740562,612.238332 432.420661,612.238332 L432.420661,612.238332 L430.471253,612.238332 C430.151197,612.238332 429.891914,611.975598 429.891914,611.651458 C429.891914,611.32724 430.151274,611.064584 430.471253,611.064584 L430.471253,611.064584 Z M423.799522,608.890916 C423.19774,608.890916 422.708094,609.386853 422.708094,609.996617 C422.708094,610.606225 423.19774,611.10224 423.799522,611.10224 C424.401303,611.10224 424.89095,610.606225 424.89095,609.996617 C424.89095,609.386931 424.401303,608.890916 423.799522,608.890916 Z M416.355416,609.115135 C416.675394,609.115135 416.934755,609.37779 416.934755,609.702008 C416.934755,610.026227 416.675394,610.288882 416.355416,610.288882 L416.355416,610.288882 L405.365789,610.288882 C405.04581,610.288882 404.78645,610.02607 404.78645,609.702008 C404.78645,609.37779 405.045887,609.115135 405.365789,609.115135 L405.365789,609.115135 Z M431.207149,607.650216 C431.484094,607.488341 431.838468,607.584122 431.998496,607.864981 C432.158447,608.145683 432.06351,608.504589 431.786488,608.66662 L431.786488,608.66662 L430.098215,609.654118 C430.007057,609.707555 429.907338,609.732868 429.809085,609.732868 C429.608877,609.732868 429.414221,609.627634 429.306868,609.439353 C429.146763,609.15865 429.241777,608.799745 429.518876,608.637714 L429.518876,608.637714 Z M428.470944,605.308111 C428.630741,605.027408 428.984961,604.931315 429.262291,605.093346 C429.539313,605.255376 429.63425,605.614282 429.474299,605.894985 L429.474299,605.894985 L428.499557,607.605216 C428.39228,607.793496 428.197548,607.898731 427.997339,607.898731 C427.899086,607.898731 427.799522,607.87334 427.70821,607.819981 C427.431188,607.65795 427.336251,607.299044 427.496202,607.018342 L427.496202,607.018342 Z M408.739251,600.003668 L402.95712,605.861 L408.334362,605.861 C408.557552,605.861 408.739251,605.677094 408.739251,605.450845 L408.739251,605.450845 L408.739251,600.003668 Z" id="уведом"></path>
        </g>
    </g>
</svg>