<?xml version="1.0" encoding="UTF-8"?>
<svg width="40px" height="40px" viewBox="0 0 40 40" version="1.1" xmlns="http://www.w3.org/2000/svg" xmlns:xlink="http://www.w3.org/1999/xlink">
    <!-- Generator: Sketch 63 (92445) - https://sketch.com -->
    <title>Индивид</title>
    <desc>Created with Sketch.</desc>
    <g id="КУБ-24" stroke="none" stroke-width="1" fill="none" fill-rule="evenodd">
        <g id="Прайс-лист" transform="translate(-712.000000, -837.000000)" fill="#BBC1C7" fill-rule="nonzero">
            <path d="M742,837 C742.012667,837 742.023333,837.006667 742.036,837.008667 C742.099042,837.012077 742.161251,837.024653 742.220667,837.046 C742.240376,837.051786 742.25974,837.058686 742.278667,837.066667 C742.350765,837.098381 742.416673,837.14262 742.473333,837.197333 L742.473333,837.197333 L751.806667,846.530667 C751.859542,846.586099 751.902601,846.650124 751.934,846.72 C751.942427,846.740489 751.94977,846.761407 751.956,846.782667 C751.975949,846.839423 751.988061,846.898636 751.992,846.958667 L751.992,846.958667 L752,847 L752,870.333333 C751.997796,872.173369 750.506702,873.664463 748.666667,873.666667 L748.666667,873.666667 L746.666667,873.666667 C746.664463,875.506702 745.173369,876.997796 743.333333,877 L743.333333,877 L715.333333,877 C713.493298,876.997796 712.002204,875.506702 712,873.666667 L712,873.666667 L712,849.666667 C712.002204,847.826631 713.493298,846.335537 715.333333,846.333333 L715.333333,846.333333 L724.666667,846.333333 C726.506702,846.335537 727.997796,847.826631 728,849.666667 L728,849.666667 L728,851 C728,852.104569 728.895431,853 730,853 L730,853 L743.333333,853 C745.173369,853.002204 746.664463,854.493298 746.666667,856.333333 L746.666667,856.333333 L746.666667,872.333333 L748.666667,872.333333 C749.771236,872.333333 750.666667,871.437903 750.666667,870.333333 L750.666667,870.333333 L750.666667,847.666667 L744.666667,847.666667 C742.826631,847.664463 741.335537,846.173369 741.333333,844.333333 L741.333333,844.333333 L741.333333,838.333333 L728.666667,838.333333 C727.562097,838.333333 726.666667,839.228764 726.666667,840.333333 L726.666667,840.333333 L726.666667,844.333333 C726.666667,844.701523 726.36819,845 726,845 C725.63181,845 725.333333,844.701523 725.333333,844.333333 L725.333333,844.333333 L725.333333,840.333333 C725.335537,838.493298 726.826631,837.002204 728.666667,837 L728.666667,837 Z M724.666667,847.666667 L715.333333,847.666667 C714.228764,847.666667 713.333333,848.562097 713.333333,849.666667 L713.333333,849.666667 L713.333333,873.666667 C713.333333,874.771236 714.228764,875.666667 715.333333,875.666667 L715.333333,875.666667 L743.333333,875.666667 C744.437903,875.666667 745.333333,874.771236 745.333333,873.666667 L745.333333,873.666667 L745.333333,856.333333 C745.333333,855.228764 744.437903,854.333333 743.333333,854.333333 L743.333333,854.333333 L730,854.333333 C728.159965,854.331129 726.668871,852.840035 726.666667,851 L726.666667,851 L726.666667,849.666667 C726.666667,848.562097 725.771236,847.666667 724.666667,847.666667 L724.666667,847.666667 Z M729.334667,856.333158 C729.81396,856.333158 730.249452,856.612015 730.45,857.047333 L730.45,857.047333 L732.25,860.876667 L736.28,861.491333 C736.739899,861.561874 737.121219,861.884707 737.266667,862.326667 C737.419044,862.777625 737.305732,863.275941 736.973333,863.616667 L736.973333,863.616667 L734.008,866.649333 L734.726667,870.867333 C734.808525,871.344567 734.608164,871.826265 734.212,872.104667 C733.831002,872.376894 733.327315,872.405439 732.918,872.178 L732.918,872.178 L729.333333,870.2 L725.749333,872.180667 C725.339736,872.407893 724.835981,872.37936 724.454667,872.107333 C724.058503,871.828932 723.858142,871.347234 723.94,870.87 L723.94,870.87 L724.641333,866.596 L721.696,863.619333 C721.363602,863.278608 721.25029,862.780292 721.402667,862.329333 C721.547283,861.886335 721.928768,861.562331 722.389333,861.491333 L722.389333,861.491333 L726.419333,860.876667 L728.219333,857.047333 C728.419881,856.612015 728.855374,856.333158 729.334667,856.333158 Z M729.333333,857.808667 L727.607333,861.486 C727.433209,861.861134 727.082826,862.124171 726.674,862.186667 L726.674,862.186667 L722.744667,862.786667 L725.611333,865.72 C725.892016,866.00921 726.019125,866.414276 725.954,866.812 L725.954,866.812 L725.283333,870.914667 L728.743333,869.006 C729.110212,868.801984 729.556455,868.801984 729.923333,869.006 L729.923333,869.006 L733.383333,870.914 L732.712667,866.810667 C732.64764,866.413797 732.774226,866.009562 733.054,865.720667 L733.054,865.720667 L735.928667,862.786667 L732,862.186667 C731.591174,862.124171 731.240791,861.861134 731.066667,861.486 L731.066667,861.486 L729.333333,857.808667 Z M715.333333,853.666667 C715.701523,853.666667 716,853.965144 716,854.333333 L716,854.333333 L716,863.666667 C716,864.034856 715.701523,864.333333 715.333333,864.333333 C714.965144,864.333333 714.666667,864.034856 714.666667,863.666667 L714.666667,863.666667 L714.666667,854.333333 C714.666667,853.965144 714.965144,853.666667 715.333333,853.666667 Z M731.333333,850.333333 C731.701523,850.333333 732,850.63181 732,851 C732,851.36819 731.701523,851.666667 731.333333,851.666667 L731.333333,851.666667 L730,851.666667 C729.63181,851.666667 729.333333,851.36819 729.333333,851 C729.333333,850.63181 729.63181,850.333333 730,850.333333 L730,850.333333 Z M739.333333,850.333333 C739.701523,850.333333 740,850.63181 740,851 C740,851.36819 739.701523,851.666667 739.333333,851.666667 L739.333333,851.666667 L734.666667,851.666667 C734.298477,851.666667 734,851.36819 734,851 C734,850.63181 734.298477,850.333333 734.666667,850.333333 L734.666667,850.333333 Z M715.333333,849 C715.701523,849 716,849.298477 716,849.666667 L716,849.666667 L716,851 C716,851.36819 715.701523,851.666667 715.333333,851.666667 C714.965144,851.666667 714.666667,851.36819 714.666667,851 L714.666667,851 L714.666667,849.666667 C714.666667,849.298477 714.965144,849 715.333333,849 Z M731.333333,847.666667 C731.701523,847.666667 732,847.965144 732,848.333333 C732,848.701523 731.701523,849 731.333333,849 L731.333333,849 L730,849 C729.63181,849 729.333333,848.701523 729.333333,848.333333 C729.333333,847.965144 729.63181,847.666667 730,847.666667 L730,847.666667 Z M739.333333,847.666667 C739.701523,847.666667 740,847.965144 740,848.333333 C740,848.701523 739.701523,849 739.333333,849 L739.333333,849 L734.666667,849 C734.298477,849 734,848.701523 734,848.333333 C734,847.965144 734.298477,847.666667 734.666667,847.666667 L734.666667,847.666667 Z M742.666667,839.276 L742.666667,844.333333 C742.666667,845.437903 743.562097,846.333333 744.666667,846.333333 L744.666667,846.333333 L749.724,846.333333 L742.666667,839.276 Z M731.333333,845 C731.701523,845 732,845.298477 732,845.666667 C732,846.034856 731.701523,846.333333 731.333333,846.333333 L731.333333,846.333333 L730,846.333333 C729.63181,846.333333 729.333333,846.034856 729.333333,845.666667 C729.333333,845.298477 729.63181,845 730,845 L730,845 Z M739.333333,845 C739.701523,845 740,845.298477 740,845.666667 C740,846.034856 739.701523,846.333333 739.333333,846.333333 L739.333333,846.333333 L734.666667,846.333333 C734.298477,846.333333 734,846.034856 734,845.666667 C734,845.298477 734.298477,845 734.666667,845 L734.666667,845 Z" id="Индивид"></path>
        </g>
    </g>
</svg>