<?xml version="1.0" encoding="UTF-8"?>
<svg width="15px" height="15px" viewBox="0 0 15 15" version="1.1" xmlns="http://www.w3.org/2000/svg" xmlns:xlink="http://www.w3.org/1999/xlink">
    <title>Зеленая</title>
    <g id="КУБ-24" stroke="none" stroke-width="1" fill="none" fill-rule="evenodd">
        <g id="Карточка-Товара-3---1440" transform="translate(-502.000000, -418.000000)" fill="#26CD58" fill-rule="nonzero">
            <path d="M502.331593,432.670676 C502.770625,433.109775 503.482318,433.109775 503.921349,432.670676 L514.758629,421.831719 L514.758629,431.852426 C514.758629,432.157484 514.883407,432.439432 515.086748,432.642804 C515.290088,432.846177 515.571993,432.970973 515.877004,432.970973 C516.496269,432.970973 517,432.467165 517,431.847804 L516.995379,419.12317 C516.995379,418.531541 516.468541,418.004622 515.872383,418 L503.149717,418.004622 C502.530451,418.004622 502.026721,418.508431 502.026721,419.127792 C502.026721,419.747153 502.530451,420.250961 503.149717,420.250961 L513.168874,420.241717 L502.326972,431.085296 C501.887941,431.524395 501.892562,432.231576 502.331593,432.670676 Z" id="Зеленая"></path>
        </g>
    </g>
</svg>