<?xml version="1.0" encoding="UTF-8"?>
<svg width="33px" height="33px" viewBox="0 0 33 33" version="1.1" xmlns="http://www.w3.org/2000/svg" xmlns:xlink="http://www.w3.org/1999/xlink">
    <title>Количество продано</title>
    <g id="КУБ-24" stroke="none" stroke-width="1" fill="none" fill-rule="evenodd">
        <g id="Карточка-Товара-3---1440" transform="translate(-380.000000, -516.000000)" fill="#9198A0" fill-rule="nonzero">
            <path d="M412.158371,538.753113 L407.662637,538.753113 L407.662637,531.357504 C407.662637,531.090475 407.446268,530.874105 407.179238,530.874105 C406.912209,530.874105 406.69584,531.090475 406.69584,531.357504 L406.69584,538.753113 C405.70584,538.753113 399.354436,538.753113 398.296115,538.753113 L398.296115,536.658387 C398.296115,536.391357 398.079746,536.174988 397.812717,536.174988 L392.958687,536.174988 C392.958687,535.580602 392.958687,525.637676 392.958687,524.651479 L398.44874,524.651479 L398.44874,526.640115 C398.44874,527.065764 398.794982,527.412006 399.220631,527.412006 L400.433896,527.412006 C400.859545,527.412006 401.205852,527.065764 401.205852,526.640115 L401.205852,524.651479 L406.695904,524.651479 L406.695904,529.424812 C406.695904,529.691842 406.912273,529.908211 407.179303,529.908211 C407.446332,529.908211 407.662701,529.691842 407.662701,529.424812 L407.662701,524.526375 C407.662701,524.062312 407.285135,523.684682 406.821008,523.684682 C404.44823,523.684682 398.854988,523.684682 396.64676,523.684682 L396.64676,516.854068 C396.64676,516.390006 396.269193,516.012375 395.805066,516.012375 L386.926648,516.012375 C386.462521,516.012375 386.084955,516.389941 386.084955,516.854068 L386.084955,519.910178 C386.084955,520.177207 386.301389,520.393576 386.568354,520.393576 C386.835318,520.393576 387.051752,520.177207 387.051752,519.910178 L387.051752,516.979172 L389.98727,516.979172 L389.98727,518.967809 C389.98727,519.393457 390.333512,519.739699 390.75916,519.739699 L391.97249,519.739699 C392.398139,519.739699 392.744381,519.393457 392.744381,518.967809 L392.744381,516.979172 L395.679898,516.979172 L395.679898,523.684682 L392.475354,523.684682 C392.208389,523.684682 391.991955,523.901051 391.991955,524.16808 L391.991955,528.1964 L387.051816,528.1964 L387.051816,521.842869 C387.051816,521.57584 386.835383,521.359471 386.568418,521.359471 C386.301453,521.359471 386.08502,521.57584 386.08502,521.842869 L386.08502,528.196465 L383.238641,528.196465 C382.774514,528.196465 382.396947,528.573967 382.396947,529.038094 L382.396947,536.174988 L380.841629,536.174988 C380.377566,536.174988 380,536.552555 380,537.016682 L380,548.504162 C380,548.771191 380.216434,548.987561 380.483398,548.987561 L385.602008,548.987561 C385.868973,548.987561 386.085406,548.771191 386.085406,548.504162 C386.085406,548.237133 385.868973,548.020764 385.602008,548.020764 L380.966797,548.020764 L380.966797,537.141785 L387.769502,537.141785 L387.769502,539.130357 C387.769502,539.556006 388.115809,539.902312 388.541393,539.902312 L389.754658,539.902312 C390.180307,539.902312 390.526549,539.556006 390.526549,539.130357 L390.526549,537.141785 L397.329254,537.141785 L397.329254,548.020764 L387.534699,548.020764 C387.267734,548.020764 387.051301,548.237133 387.051301,548.504162 C387.051301,548.771191 387.267734,548.987561 387.534699,548.987561 L412.516537,548.987561 C412.783566,548.987561 412.999936,548.771191 412.999936,548.504162 L412.999936,539.594807 C412.999936,539.130744 412.622434,538.753113 412.158371,538.753113 Z M391.77752,518.772838 L390.954066,518.772838 L390.954066,516.979236 L391.77752,516.979236 L391.77752,518.772838 Z M400.23899,524.651479 L400.23899,526.445145 L399.415537,526.445145 L399.415537,524.651479 L400.23899,524.651479 Z M387.266059,529.163262 L388.089576,529.163262 L388.089576,530.956863 L387.266059,530.956863 L387.266059,529.163262 Z M383.363744,529.163262 L386.299262,529.163262 L386.299262,531.151834 C386.299262,531.577482 386.645568,531.923725 387.071152,531.923725 L388.284482,531.923725 C388.710131,531.923725 389.056373,531.577482 389.056373,531.151834 L389.056373,529.163262 L391.991891,529.163262 L391.991891,536.174988 C390.12333,536.174988 384.925508,536.174988 383.363744,536.174988 L383.363744,529.163262 Z M389.559752,538.935451 L388.736299,538.935451 L388.736299,537.141785 L389.559752,537.141785 L389.559752,538.935451 Z M405.576418,539.71991 L405.576418,541.513576 L404.7529,541.513576 L404.7529,539.71991 L405.576418,539.71991 Z M412.033268,548.020764 L398.296115,548.020764 L398.296115,539.71991 L403.786104,539.71991 L403.786104,541.708482 C403.786104,542.134131 404.13241,542.480437 404.558059,542.480437 L405.771324,542.480437 C406.196973,542.480437 406.543279,542.134131 406.543279,541.708482 L406.543279,539.71991 L412.033268,539.71991 L412.033268,548.020764 L412.033268,548.020764 Z" id="Количество-продано"></path>
        </g>
    </g>
</svg>