<?xml version="1.0" encoding="UTF-8"?>
<svg width="33px" height="33px" viewBox="0 0 33 33" version="1.1" xmlns="http://www.w3.org/2000/svg" xmlns:xlink="http://www.w3.org/1999/xlink">
    <title>Оборот</title>
    <g id="КУБ-24" stroke="none" stroke-width="1" fill="none" fill-rule="evenodd">
        <g id="Карточка-Товара-3---1440" transform="translate(-380.000000, -422.000000)" fill="#9198A0" fill-rule="nonzero">
            <path d="M409.955428,428.947043 C411.87207,431.641645 413,434.942431 413,438.499549 C412.999549,447.612869 405.613479,454.999355 396.500194,455 C392.613318,455.000435 389.038026,453.650188 386.218617,451.399684 L385.908483,451.145946 L385.866395,453.588277 C385.860272,453.951537 385.560629,454.241061 385.197371,454.234938 C384.866727,454.228903 384.59702,453.981088 384.555572,453.662819 L384.550152,453.565397 L384.627026,449.101936 L388.998688,448.197333 C389.354533,448.123598 389.702387,448.35215 389.776121,448.708383 C389.843153,449.031881 389.660361,449.348773 389.35893,449.459114 L389.265072,449.48582 L386.627071,450.031547 C389.283442,452.306622 392.727752,453.683282 396.500194,453.683733 C400.695641,453.683282 404.487354,451.985515 407.236731,449.236514 C409.985721,446.486676 411.68348,442.694884 411.683932,438.499549 C411.683545,435.22145 410.646494,432.191239 408.882412,429.709526 C408.672231,429.413428 408.741131,429.002344 409.03768,428.791775 C409.333777,428.581592 409.744859,428.65088 409.955428,428.947043 Z M396.499807,422 C400.406457,421.999565 403.999526,423.360233 406.825526,425.631013 L407.125356,425.877773 L407.17015,423.245562 C407.175822,422.881851 407.475916,422.592327 407.839174,422.59845 C408.169818,422.604016 408.439153,422.852162 408.480861,423.170058 L408.486379,423.267347 L408.410357,427.73171 L404.038695,428.636313 C403.68285,428.710048 403.334996,428.481496 403.261262,428.125262 C403.194231,427.801765 403.377022,427.484447 403.678453,427.374415 L403.772311,427.347826 L406.223398,426.840707 C403.58849,424.640591 400.202123,423.316589 396.500322,423.316138 C392.304875,423.316654 388.513162,425.01442 385.763785,427.762905 C383.014795,430.512744 381.317035,434.304536 381.316584,438.499484 C381.316584,441.635012 382.26469,444.542246 383.890069,446.960859 C384.092709,447.262308 384.012852,447.671651 383.711018,447.874292 C383.409571,448.076934 383.000744,447.997076 382.797588,447.695241 C381.031444,445.068766 379.999549,441.901656 380,438.499484 C380.000451,429.387066 387.386586,422.000516 396.499807,422 Z M397.339732,432.054598 C400.045536,432.054598 401.398438,433.152693 401.398438,435.396625 C401.398438,437.73958 399.96036,439.162709 397.481173,439.214614 L397.339732,439.216084 L395.333706,439.216084 L395.333706,440.170949 L398.832589,440.170949 C399.205804,440.170949 399.532366,440.505152 399.532366,440.887098 C399.532366,441.246576 399.243093,441.563763 398.89791,441.599835 L398.832589,441.603246 L395.333706,441.603246 L395.333706,444.229125 C395.333706,444.61107 395.007143,444.945273 394.633929,444.945273 C394.282668,444.945273 393.972732,444.649232 393.937485,444.295973 L393.934152,444.229125 L393.934152,441.603246 L392.301339,441.603246 C391.928125,441.603246 391.601563,441.269044 391.601563,440.887098 C391.601563,440.527619 391.890836,440.210432 392.236019,440.17436 L392.301339,440.170949 L393.934152,440.170949 L393.934152,439.216084 L392.301339,439.216084 C391.928125,439.216084 391.601563,438.881881 391.601563,438.499936 C391.601563,438.140457 391.890836,437.82327 392.236019,437.787198 L392.301339,437.783787 L393.934152,437.783787 L393.934152,432.770747 C393.934152,432.411268 394.223425,432.094081 394.568609,432.058009 L394.633929,432.054598 L397.339732,432.054598 Z M397.326289,433.537026 L395.275391,433.537026 L395.275391,437.790948 L397.326289,437.790948 C399.138711,437.790948 400.044922,437.034695 400.044922,435.427658 L400.042605,435.264227 C400.015691,434.394532 399.72071,433.571306 397.469549,433.538068 L397.326289,433.537026 Z" id="Оборот"></path>
        </g>
    </g>
</svg>