<?xml version="1.0" encoding="UTF-8"?>
<svg width="33px" height="33px" viewBox="0 0 33 33" version="1.1" xmlns="http://www.w3.org/2000/svg" xmlns:xlink="http://www.w3.org/1999/xlink">
    <title>% Маржи</title>
    <g id="КУБ-24" stroke="none" stroke-width="1" fill="none" fill-rule="evenodd">
        <g id="Карточка-Товара-3---1440" transform="translate(-704.000000, -516.000000)" fill="#9198A0" fill-rule="nonzero">
            <path d="M718.566406,519.867188 C718.889961,519.867188 719.157905,520.105717 719.203948,520.416487 L719.210938,520.511719 L719.210938,533.789062 L732.488281,533.789062 C732.844191,533.789062 733.132812,534.077684 733.132812,534.433594 C733.132812,542.278119 726.381283,549 718.566406,549 C715.831531,549 713.133137,548.177449 710.76268,546.621422 C710.465164,546.426064 710.382277,546.026455 710.577635,545.728875 C710.772992,545.431359 711.172473,545.348344 711.470182,545.54383 C713.629812,546.961541 716.083607,547.710938 718.566406,547.710938 C720.124883,547.710938 721.658867,547.420125 723.135359,546.847072 C723.12943,546.83315 717.990711,534.726984 717.973953,534.687539 C717.950277,534.632238 717.934852,534.575219 717.927313,534.517664 L717.921875,534.43108 L717.921875,521.173459 C711.12091,521.53575 705.289062,527.576426 705.289062,534.433594 C705.289062,536.975689 706.071717,539.479564 707.552398,541.674387 C707.751494,541.969453 707.673635,542.370094 707.378568,542.569189 C707.083502,542.768221 706.682861,542.690361 706.483766,542.395295 C704.858838,539.986682 704,537.233566 704,534.433594 C704,526.564125 710.77383,519.867188 718.566406,519.867188 Z M728.725057,542.811855 L722.823277,542.811855 L724.313498,546.323133 C726.003137,545.474027 727.503734,544.278809 728.725057,542.811855 Z M708.833984,543.650391 C709.189949,543.650391 709.478516,543.938957 709.478516,544.294922 C709.478516,544.650887 709.189949,544.939453 708.833984,544.939453 C708.47802,544.939453 708.189453,544.650887 708.189453,544.294922 C708.189453,543.938957 708.47802,543.650391 708.833984,543.650391 Z M731.00167,538.944668 L721.181785,538.944668 L722.276135,541.523438 L729.680123,541.523438 C730.216824,540.705463 730.659166,539.842113 731.00167,538.944668 Z M731.826992,535.07748 L719.540229,535.07748 L720.634578,537.65625 L731.41823,537.65625 C731.644203,536.808498 731.781617,535.945342 731.826992,535.07748 Z M722.433594,516 C730.282631,516 737,522.750498 737,530.566406 C737,530.889961 736.76147,531.157905 736.450701,531.203948 L736.355469,531.210938 L722.433594,531.210938 C722.110039,531.210938 721.842095,530.972408 721.796052,530.661638 L721.789062,530.566406 L721.789062,516.644531 C721.789062,516.288621 722.077684,516 722.433594,516 Z M723.078125,517.306271 L723.078125,529.921875 L735.693729,529.921875 C735.342846,523.335088 729.664912,517.657154 723.078125,517.306271 Z M729.697674,521 L730.285412,521.408315 L726.27907,528 L725.689218,527.593941 L729.697674,521 Z M729.718816,524.460522 C729.93728,524.460522 730.12685,524.49624 730.287526,524.567676 C730.448203,524.639113 730.581395,524.745515 730.687104,524.886884 C730.792812,525.028252 730.871388,525.203835 730.922833,525.413632 C730.974278,525.623429 731,525.866688 731,526.14341 C731,526.332904 730.985553,526.506982 730.95666,526.665646 C730.927766,526.82431 730.885835,526.96643 730.830867,527.092008 C730.775899,527.217585 730.709302,527.326995 730.631078,527.420238 C730.552854,527.513482 730.464412,527.591309 730.365751,527.653722 C730.267089,527.716135 730.158562,527.762756 730.040169,527.793587 C729.921776,527.824417 729.796335,527.839832 729.663848,527.839832 C729.443975,527.839832 729.2537,527.803362 729.093023,527.730422 C728.932347,527.657482 728.799507,527.549952 728.694503,527.407831 C728.5895,527.265711 728.511628,527.090128 728.460888,526.881083 C728.410148,526.672038 728.384778,526.43141 728.384778,526.159201 C728.384778,525.880975 728.415786,525.636212 728.477801,525.424911 C728.539817,525.21361 728.628259,525.036524 728.743129,524.893651 C728.857999,524.750779 728.997886,524.642872 729.162791,524.569932 C729.327696,524.496992 729.513037,524.460522 729.718816,524.460522 Z M729.69556,525.121495 C729.606765,525.121495 729.531008,525.142926 729.468288,525.185788 C729.405567,525.22865 729.354123,525.292942 729.313953,525.378666 C729.273784,525.464389 729.244538,525.571544 729.226216,525.700129 C729.207893,525.828714 729.198732,525.97873 729.198732,526.150177 C729.198732,526.342679 729.209302,526.504727 729.230444,526.63632 C729.251586,526.767913 729.282946,526.873939 729.324524,526.954399 C729.366103,527.034859 729.417195,527.092384 729.477801,527.126974 C729.538407,527.161564 729.609584,527.178859 729.691332,527.178859 C729.778717,527.178859 729.853418,527.157428 729.915433,527.114567 C729.977449,527.071705 730.028541,527.007412 730.06871,526.921689 C730.108879,526.835965 730.138478,526.728811 730.157505,526.600226 C730.176533,526.47164 730.186047,526.322376 730.186047,526.152433 C730.186047,525.952412 730.174771,525.786228 730.15222,525.653883 C730.129669,525.521538 730.097604,525.415888 730.056025,525.336932 C730.014447,525.257976 729.963354,525.202331 729.902748,525.169997 C729.842142,525.137662 729.77308,525.121495 729.69556,525.121495 Z M726.334038,521.162423 C726.552502,521.162423 726.742424,521.198142 726.903805,521.269578 C727.065187,521.341014 727.198732,521.447416 727.30444,521.588785 C727.410148,521.730154 727.488724,521.905736 727.540169,522.115533 C727.591614,522.32533 727.617336,522.56859 727.617336,522.845311 C727.617336,523.036309 727.602537,523.210764 727.572939,523.368675 C727.54334,523.526587 727.501409,523.668332 727.447146,523.793909 C727.392882,523.919487 727.326638,524.029273 727.248414,524.123268 C727.17019,524.217263 727.081395,524.295091 726.98203,524.356752 C726.882664,524.418412 726.773784,524.464658 726.655391,524.495488 C726.536998,524.526319 726.411557,524.541734 726.27907,524.541734 C726.059197,524.541734 725.869274,524.505264 725.709302,524.432324 C725.549331,524.359383 725.416843,524.251853 725.311839,524.109733 C725.206836,523.967612 725.128612,523.792029 725.077167,523.582984 C725.025722,523.373939 725,523.133312 725,522.861102 C725,522.584381 725.031008,522.339994 725.093023,522.127941 C725.155039,521.915888 725.243481,521.738425 725.358351,521.595553 C725.473221,521.45268 725.612755,521.344774 725.776956,521.271834 C725.941156,521.198894 726.12685,521.162423 726.334038,521.162423 Z M726.310782,521.823397 C726.221987,521.823397 726.14623,521.844828 726.08351,521.887689 C726.020789,521.930551 725.969345,521.994844 725.929175,522.080567 C725.889006,522.166291 725.860113,522.273821 725.842495,522.403158 C725.824877,522.532495 725.816068,522.682888 725.816068,522.854335 C725.816068,523.045332 725.826638,523.206628 725.84778,523.338221 C725.868922,523.469814 725.89993,523.575841 725.940803,523.6563 C725.981677,523.73676 726.03277,523.794285 726.09408,523.828875 C726.155391,523.863465 726.226216,523.880761 726.306554,523.880761 C726.393939,523.880761 726.46864,523.85933 726.530655,523.816468 C726.592671,523.773606 726.643763,523.709314 726.683932,523.62359 C726.724101,523.537867 726.7537,523.430712 726.772727,523.302127 C726.791755,523.173542 726.801268,523.024278 726.801268,522.854335 C726.801268,522.654313 726.790345,522.48813 726.768499,522.355785 C726.746653,522.22344 726.714588,522.117789 726.672304,522.038833 C726.630021,521.959878 726.578576,521.904232 726.51797,521.871898 C726.457364,521.839564 726.388302,521.823397 726.310782,521.823397 Z" id="%-Маржи"></path>
        </g>
    </g>
</svg>