<svg xmlns="http://www.w3.org/2000/svg" width="37" height="40" viewBox="0 0 37 40">
    <path fill="#BBC1C7" fill-rule="nonzero" d="M36.408 4.405a.59.59 0 0 1 .584.49l.008.096v34.423a.588.588 0 0 1-.496.578l-.096.008H5.168a.59.59 0 0 1-.585-.49l-.007-.096V37.48a.59.59 0 0 1 .591-.585.59.59 0 0 1 .584.49l.008.095v1.348h30.058V4.991a.59.59 0 0 1 .591-.586zm0-4.405c.327 0 .592.263.592.586v1.902a.589.589 0 0 1-.592.586.59.59 0 0 1-.591-.586V1.17H8.23c.062.1.114.202.162.296.056.111.121.239.17.287.049.049.178.113.29.169.265.131.593.294.79.634.197.336.178.697.161.987-.007.127-.015.272.004.342.016.061.096.182.16.28.165.245.369.552.369.951 0 .4-.205.706-.368.952-.064.097-.144.217-.161.279-.02.07-.011.215-.004.342.017.29.036.65-.16.987-.198.34-.526.503-.79.634-.113.056-.241.12-.29.169-.05.048-.114.176-.17.287-.102.2-.222.435-.425.623v4.283c0 .257-.14.498-.368.629a.76.76 0 0 1-.75.003l-1.09-.616V34.99a.589.589 0 0 1-.593.586.59.59 0 0 1-.591-.586V13.688l-1.09.616a.762.762 0 0 1-.75-.003.73.73 0 0 1-.368-.63v-4.28c-.204-.189-.324-.424-.425-.623a1.418 1.418 0 0 0-.17-.288 1.439 1.439 0 0 0-.29-.168C1.218 8.18.89 8.017.691 7.677c-.196-.336-.176-.697-.16-.986.008-.128.016-.272-.003-.343a1.438 1.438 0 0 0-.161-.278C.204 5.823 0 5.516 0 5.117c0-.399.204-.706.366-.95.064-.097.144-.219.161-.28.02-.07.011-.214.004-.342-.017-.29-.037-.65.16-.986.198-.34.526-.504.79-.635.113-.056.241-.12.29-.169.049-.048.114-.175.17-.287.133-.261.298-.586.641-.783.34-.194.704-.174.997-.158.128.007.274.015.345-.004a1.46 1.46 0 0 0 .282-.159C4.454.202 4.764 0 5.167 0zm-7.362 31.526a.59.59 0 0 1 .592.586.588.588 0 0 1-.496.578l-.096.008H11.69a.59.59 0 0 1-.592-.586c0-.291.215-.533.496-.579l.096-.007h17.356zM11.69 27.694h4.424c.327 0 .592.262.592.586a.588.588 0 0 1-.496.578l-.096.008H11.69a.59.59 0 0 1-.592-.586c0-.291.215-.533.496-.579l.096-.007h4.424zm17.356-2.605a.59.59 0 0 1 .592.586.588.588 0 0 1-.496.578l-.096.008H11.69a.59.59 0 0 1-.592-.586c0-.291.215-.533.496-.578l.096-.008h17.356zm0-2.604a.59.59 0 0 1 .592.586.588.588 0 0 1-.496.578l-.096.008H11.69a.59.59 0 0 1-.592-.586c0-.291.215-.533.496-.578l.096-.008h17.356zm0-2.604a.59.59 0 0 1 .592.586.588.588 0 0 1-.496.578l-.096.008H11.69a.59.59 0 0 1-.592-.586c0-.29.215-.533.496-.578l.096-.008h17.356zm0-3.832a.59.59 0 0 1 .592.586.588.588 0 0 1-.496.578l-.096.008H11.69a.59.59 0 0 1-.592-.586c0-.29.215-.533.496-.578l.096-.008h17.356zm-12.932-3.832c.327 0 .592.263.592.586a.588.588 0 0 1-.496.578l-.096.008H11.69a.59.59 0 0 1-.592-.586c0-.291.215-.533.496-.578l.096-.008h4.424zM6.757 9.71c-.129-.007-.275-.015-.346.004a1.46 1.46 0 0 0-.281.159c-.249.162-.558.364-.962.364-.404 0-.713-.202-.962-.364-.097-.063-.22-.143-.281-.16-.071-.019-.217-.01-.346-.003l-.029.001v3.21l1.244-.703a.758.758 0 0 1 .446-.093c.103.01.205.04.297.09l1.25.706V9.71l-.03-.001zm22.29-.097a.59.59 0 0 1 .59.586.588.588 0 0 1-.495.579l-.096.007H11.69a.59.59 0 0 1-.592-.586c0-.29.215-.532.496-.578l.096-.008h17.356zm-23.88-8.44c-.055.005-.214.108-.31.171-.177.116-.38.247-.626.312-.254.068-.5.054-.717.042-.113-.006-.282-.016-.339.003-.045.04-.126.198-.175.294-.096.19-.206.408-.39.59-.184.182-.403.29-.596.386-.097.048-.257.128-.297.174-.018.056-.009.223-.003.335.013.216.026.46-.042.71-.066.245-.198.445-.316.62-.062.094-.167.253-.172.309.005.054.11.212.172.306.118.176.25.376.316.62.068.252.054.496.042.71-.006.112-.015.28.003.336.04.045.2.125.296.173.194.096.412.205.596.387.184.182.293.398.39.59.049.096.129.255.176.294.056.018.225.009.338.003.087-.005.18-.01.274-.01.141 0 .29.011.442.052.247.066.448.197.627.313.094.062.255.166.311.17.055-.004.214-.108.31-.17.177-.116.38-.247.626-.313.254-.067.5-.053.717-.042.113.007.282.016.339-.003.045-.039.127-.197.175-.293.097-.191.207-.407.391-.59.184-.181.402-.29.596-.386.097-.048.257-.127.296-.174.02-.056.01-.223.003-.335-.012-.215-.026-.458.042-.71.066-.244.2-.444.316-.62.062-.094.166-.25.173-.308-.007-.058-.11-.214-.173-.308-.117-.176-.25-.376-.316-.62-.068-.252-.054-.495-.042-.71.007-.112.016-.28-.003-.335-.04-.047-.2-.126-.296-.174-.192-.096-.411-.205-.595-.387-.184-.182-.294-.399-.39-.59-.049-.096-.13-.255-.176-.294-.057-.019-.225-.01-.338-.003-.217.012-.463.026-.717-.042-.247-.064-.45-.196-.627-.312-.094-.063-.255-.166-.311-.171zm23.88 5.837a.59.59 0 0 1 .59.586.588.588 0 0 1-.495.578l-.096.007H11.69a.59.59 0 0 1-.592-.585c0-.292.215-.533.496-.579l.096-.007h17.356zm0-2.604c.326 0 .59.261.59.586a.588.588 0 0 1-.495.578l-.096.008H11.69a.59.59 0 0 1-.592-.586c0-.291.215-.533.496-.579l.096-.007h17.356z"/>
</svg>
