<svg width="36" height="36" viewBox="0 0 36 36" fill="none" xmlns="http://www.w3.org/2000/svg">
<path d="M8.30249 25.5172H9.19993C9.26724 25.7337 9.25709 25.9502 9.24622 26.1822C9.23886 26.3393 9.23117 26.5036 9.24701 26.6797C8.85238 26.6899 8.45765 26.6633 8.06796 26.6002C8.11318 26.4734 8.09854 26.3265 8.08384 26.1789C8.05883 25.928 8.03365 25.6753 8.30249 25.5172Z" fill="white"/>
<path d="M5.97752 27.8422H6.87496C6.94226 28.0587 6.93212 28.2753 6.92125 28.5072C6.91389 28.6644 6.90619 28.8286 6.92204 29.0047C6.5274 29.0149 6.13267 28.9883 5.74299 28.9252C5.78821 28.7984 5.77357 28.6515 5.75886 28.5039C5.73385 28.253 5.70867 28.0003 5.97752 27.8422Z" fill="white"/>
<path d="M5.90486 30.1672H6.77673C6.82519 30.1067 6.98256 30.264 6.92204 30.3852C6.92204 30.6516 6.92204 30.918 6.94761 31.2826C6.79907 31.3496 6.57382 31.3399 6.32376 31.3291C6.15233 31.3217 5.96924 31.3137 5.79123 31.3297C5.78791 31.2429 5.77917 31.1561 5.77044 31.0693C5.74017 30.7686 5.7099 30.4679 5.90486 30.1672Z" fill="white"/>
<path d="M5.95775 25.5171H6.85519C6.92249 25.7337 6.91234 25.9502 6.90148 26.1822C6.89412 26.3393 6.88642 26.5036 6.90227 26.6797C6.50763 26.6899 6.1129 26.6633 5.72322 26.6002C5.76844 26.4734 5.7538 26.3265 5.73909 26.1789C5.71408 25.928 5.6889 25.6753 5.95775 25.5171Z" fill="white"/>
<path d="M10.6275 30.1672H11.5249C11.5922 30.3837 11.5821 30.6003 11.5712 30.8322C11.5638 30.9894 11.5561 31.1536 11.572 31.3297C11.1774 31.34 10.7826 31.3133 10.3929 31.2502C10.4382 31.1234 10.4235 30.9765 10.4088 30.8289C10.3838 30.578 10.3586 30.3253 10.6275 30.1672Z" fill="white"/>
<path d="M12.9524 30.1672H13.8499C13.9172 30.3837 13.907 30.6003 13.8962 30.8322C13.8888 30.9894 13.8811 31.1536 13.897 31.3297C13.5023 31.34 13.1076 31.3133 12.7179 31.2502C12.7631 31.1234 12.7485 30.9765 12.7338 30.8289C12.7088 30.578 12.6836 30.3253 12.9524 30.1672Z" fill="white"/>
<path fill-rule="evenodd" clip-rule="evenodd" d="M31.8528 17.9046C31.8876 17.8813 31.8877 17.9525 31.8879 18.0315C31.8881 18.1444 31.8884 18.2733 31.9899 18.165C32.0953 18.1829 32.1301 18.2471 32.161 18.3039C32.1877 18.3531 32.2114 18.3968 32.2753 18.4003C32.4113 18.4793 32.5036 18.5766 32.5908 18.6686C32.6509 18.732 32.7087 18.7929 32.7766 18.8435C32.9199 18.9825 33.0516 19.1205 33.1797 19.2547C33.3592 19.4428 33.5321 19.624 33.7195 19.7897C34.331 20.5637 34.7381 21.1859 35.178 22.2077C36.244 24.8392 36.271 27.3579 35.2718 29.8767C34.6153 31.3495 34.025 32.1825 33.1271 33.0714C31.8908 34.2616 30.994 34.9841 28.2981 35.7932C27.0233 36.0557 25.7639 36.0426 24.5045 35.8825C23.0578 35.6518 21.3072 34.8175 20.7759 34.4022C19.7132 33.6751 18.8655 32.8759 18.1639 31.9306C18.163 31.9281 18.1618 31.925 18.1605 31.9212C18.1384 31.8606 18.064 31.6558 17.8929 31.8384C16.9165 33.1386 15.7811 34.2071 14.3118 34.9417C12.1858 36.0226 9.95243 36.2132 7.7987 35.7943C6.09486 35.3767 4.89829 34.7168 4.22609 34.2287C3.04907 33.3382 2.07701 32.3725 1.37073 31.1417C1.03695 30.5959 0.398596 29.2325 0.22633 28.2127C-0.031088 26.8976 -0.0637829 25.6625 0.139798 24.4273C0.384065 22.9498 1.21437 21.2679 1.61892 20.7227C2.3011 19.7269 3.14072 18.8488 4.1049 18.1226C4.3549 18.1425 4.11274 17.7429 4.08848 17.8882C2.82006 16.88 1.76314 15.7331 1.03361 14.2587C-0.0444565 12.0935 -0.211346 9.88474 0.221172 7.71892C0.66408 5.99753 1.29124 4.86554 1.8071 4.17784C2.69836 3.00806 3.66758 2.03977 4.90222 1.33696C5.46065 0.969749 6.85752 0.390166 7.85544 0.194791C9.10552 -0.0478837 10.3891 -0.0633891 11.6446 0.149018C13.1429 0.439645 14.7792 1.2162 15.3146 1.64829C16.3108 2.33046 17.186 3.17429 17.9041 4.14493C17.9687 4.15612 18.0348 4.1559 18.0993 4.14427C18.8044 3.19237 19.6583 2.36033 20.6281 1.68019C21.2801 1.21046 22.6055 0.525743 24.214 0.17205C25.4492 -0.056238 26.6843 -0.0550755 28.0097 0.162023C28.9789 0.34243 30.4082 0.895349 31.0126 1.28094C32.2531 1.97794 33.2358 2.93294 34.1303 4.08259C34.6757 4.82151 35.233 5.76096 35.7333 7.49833C36.2063 9.67803 36.0945 11.8577 35.0006 14.1724C34.2653 15.7476 33.2218 16.805 31.9811 17.818L31.9157 17.8156L31.8528 17.9046ZM31.7702 18.0214C31.8093 17.9515 31.8354 17.9162 31.8528 17.9046L31.7702 18.0214ZM25.7398 30.1672H27.7997C27.867 30.3837 27.8569 30.6003 27.846 30.8322C27.8387 30.9893 27.831 31.1536 27.8468 31.3297C27.0961 31.3297 26.3452 31.3297 25.5053 31.2502C25.5505 31.1234 25.5359 30.9765 25.5211 30.8289C25.4961 30.578 25.471 30.3253 25.7398 30.1672ZM22.2523 27.8422H31.2872C31.3545 28.0587 31.3443 28.2753 31.3335 28.5072C31.3261 28.6643 31.3184 28.8286 31.3343 29.0047C28.2586 29.0047 25.1828 29.0047 22.0178 28.9252C22.063 28.7984 22.0484 28.6515 22.0337 28.5039C22.0087 28.253 21.9835 28.0003 22.2523 27.8422ZM23.1242 22.0296H31.3181C31.3418 22.9297 31.3377 23.8298 31.3336 24.7449C31.3308 25.3807 31.3279 26.0244 31.3343 26.6797C28.2586 26.6797 25.1828 26.6797 22.0344 26.607C22.0344 25.7109 22.0344 24.8148 22.0489 23.8849C21.8936 22.9383 22.3078 22.6418 22.7436 22.3299C22.8734 22.237 23.0051 22.1428 23.1242 22.0296ZM5.61424 33.6547H14.0423C14.1502 33.6057 14.115 33.6998 14.0976 33.7464C14.0935 33.7573 14.0904 33.7656 14.0903 33.7689C12.8595 34.438 11.2059 34.9437 9.7556 34.8084C9.02905 34.8706 8.30249 34.7484 7.48941 34.5251C6.86217 34.3632 5.85168 33.9412 5.61424 33.6547ZM5.32362 18.622C7.43063 19.6778 9.53764 19.9298 11.7307 19.5381C11.866 19.6439 11.9303 19.8756 12.0039 20.1408C12.0711 20.3832 12.1461 20.6535 12.2902 20.8808C10.2758 20.8628 8.24298 20.8632 6.18102 20.8636H6.17928C5.11523 20.8638 4.04342 20.864 2.96239 20.8617C3.59536 19.9183 4.40031 19.2937 5.32362 18.622ZM3.36192 31.911L3.2998 31.9004C2.87407 31.3696 2.48922 30.8071 2.14858 30.2181C1.77585 29.5368 1.36201 28.3915 1.26458 27.5678C1.01005 25.658 1.2231 23.6963 2.2111 21.9446C2.2118 21.9471 2.21834 21.9451 2.23035 21.9414C2.23954 21.9386 2.25194 21.9348 2.26737 21.9313C2.30625 22.0576 2.28873 22.2273 2.26953 22.4134C2.24855 22.6167 2.22554 22.8396 2.27194 23.0467V24.2093C2.21142 24.2577 2.36879 24.4151 2.48991 24.3546H3.42005C3.44331 25.553 3.43894 26.7514 3.43458 27.9498C3.42977 29.2701 3.42496 30.5905 3.4571 31.9109L3.36192 31.911ZM2.21862 21.9313C2.21307 21.9387 2.2111 21.9446 2.2111 21.9446L2.21862 21.9313ZM3.65254 22.0296H11.5249C11.5922 22.2462 11.5821 22.4627 11.5712 22.6947C11.5638 22.8518 11.5561 23.016 11.572 23.1921C8.88374 23.1921 6.19549 23.1921 3.41801 23.1126C3.46324 22.9859 3.44859 22.8389 3.43389 22.6914C3.40888 22.4404 3.3837 22.1877 3.65254 22.0296ZM4.74238 24.3546H10.2642C10.3127 24.2941 10.47 24.4515 10.4095 24.5726C10.4095 25.614 10.4095 26.6555 10.4531 27.8131C10.1424 27.8457 9.80253 27.8489 9.44354 27.8524C9.01722 27.8565 8.56384 27.8609 8.10066 27.9148C8.08522 28.5011 8.08155 29.0874 8.07788 29.6736C8.07199 30.6131 8.06611 31.5527 8.0118 32.4922H4.81496C4.79515 32.4856 4.77534 32.4871 4.75553 32.4886C4.70268 32.4926 4.64984 32.4966 4.59699 32.3469V28.3508C4.59699 27.6969 4.59699 27.0429 4.58246 26.3164C4.6154 26.0685 4.60832 25.8206 4.60125 25.5728C4.58966 25.1667 4.57807 24.7607 4.74238 24.3546ZM9.46498 29.0047H15.0387C15.069 29.6767 15.0639 30.3487 15.0587 31.0357C15.0551 31.5123 15.0514 31.9962 15.0595 32.4922C13.1462 32.4922 11.2329 32.4922 9.24701 32.4196C9.24701 31.8625 9.24701 31.3055 9.22456 30.6695C9.27864 30.4611 9.2639 30.2351 9.2492 30.0098C9.22558 29.6476 9.20207 29.2872 9.46498 29.0047ZM16.2219 31.911V27.9148C15.2391 27.8606 14.2837 27.8546 13.3389 27.8488C12.7472 27.8451 12.1595 27.8414 11.572 27.826V24.5726C11.5824 24.5553 11.5927 24.5373 11.6031 24.5193C11.6654 24.411 11.7277 24.3028 11.79 24.3546H12.6618C12.7345 23.507 12.7345 22.6593 12.7345 21.8117C12.7861 21.8129 12.8377 21.8099 12.8889 21.8026C13.4028 22.483 14.0439 23.0571 14.7767 23.4932C15.6275 24.0304 17.1026 24.4854 18.2932 24.2916C18.5626 24.6737 18.5548 25.2505 18.5471 25.8158C18.5441 26.037 18.5411 26.2564 18.5548 26.4617C18.5554 27.5757 18.3013 28.6899 17.7259 29.9067C17.3565 30.7037 16.8947 31.3047 16.381 31.9296L16.2219 31.911ZM26.1757 17.4181C25.9421 17.454 25.7084 17.4535 25.4645 17.4531C25.127 17.4524 24.7697 17.4518 24.3657 17.5473C24.4106 18.5334 24.2977 19.6288 23.7781 20.7218C23.6119 20.7772 23.7626 20.8326 23.8274 20.8564C23.8475 20.8639 23.8594 20.8682 23.8508 20.8686C24.6371 20.8748 25.4234 20.8726 26.2122 20.8704C28.0228 20.8653 29.8462 20.8601 31.7116 20.9574C32.1003 21.128 32.2946 21.3002 32.4968 21.739C32.4968 23.6523 32.4968 25.5656 32.5024 27.5709C32.4851 27.7805 32.4922 28.0277 32.4995 28.2841C32.5203 29.0121 32.5432 29.8145 32.0167 30.0413C31.4994 30.2075 30.9058 30.1861 30.2914 30.164C29.908 30.1502 29.5166 30.1361 29.1307 30.1672C28.9526 30.4096 28.9938 30.652 29.0388 30.916C29.0612 31.0476 29.0845 31.1847 29.082 31.3297H29.9538C29.9736 31.3363 29.9934 31.3348 30.0132 31.3333C30.0661 31.3293 30.1189 31.3253 30.1718 31.475V32.3469C30.1653 32.3599 30.1667 32.3809 30.1681 32.4033C30.1722 32.4643 30.1769 32.5364 30.0265 32.4922H23.3422C23.2937 32.5527 23.1363 32.3954 23.1969 32.2742C23.1886 31.9733 23.213 31.6724 23.2695 31.3768C23.4516 31.3202 23.6336 31.3184 23.8157 31.3165C23.9969 31.3147 24.1781 31.3129 24.3594 31.257V30.3852C24.3531 30.3663 24.3541 30.3475 24.3552 30.3291C24.3581 30.2764 24.3608 30.2269 24.1922 30.1899C23.8622 30.1374 23.4746 30.1527 23.0825 30.1681C22.3932 30.1953 21.6898 30.2231 21.2596 29.8842C20.8423 29.4329 20.8566 28.5717 20.8702 27.7501C20.8751 27.4538 20.8799 27.1625 20.8644 26.8976C20.8854 26.3904 20.8742 25.8831 20.863 25.3702C20.8512 24.8303 20.8392 24.2841 20.8644 23.7254C20.76 23.767 20.644 23.81 20.5241 23.8546C20.1753 23.984 19.7923 24.1262 19.5615 24.282C19.922 26.389 19.7202 28.4961 18.6915 30.6769C19.3559 31.7532 20.2454 32.6729 21.2989 33.373C21.8541 33.8499 23.5997 34.6567 25.1589 34.8052C26.4909 34.8567 27.823 34.8643 29.3039 34.2706C31.2567 33.4729 32.2577 32.486 33.377 30.9778C33.9364 30.3218 34.9203 28.0947 34.8083 26.389C34.9192 25.0812 34.6489 23.7734 34.023 22.3929C33.3936 21.0363 32.4438 20.0003 31.2284 19.0688C30.5274 18.3975 28.0826 17.299 26.1757 17.4181ZM26.1757 1.16011C27.3174 1.1421 28.4503 1.36233 29.5021 1.80676C31.0182 2.44156 31.8852 3.22356 32.8515 4.29649C33.5454 5.15202 33.9523 5.74272 34.5226 7.49847C34.8478 8.41332 34.8361 9.32812 34.8239 10.2833C34.8219 10.4407 34.8199 10.5993 34.8193 10.7591C34.6854 12.3538 33.8495 14.2085 33.2796 14.8924C32.576 15.8114 31.782 16.6401 30.7537 17.3071C30.681 17.3071 30.6084 17.3071 30.5023 17.2999C28.4757 16.2754 26.2918 16.0727 24.1904 16.3887C24.1375 16.2641 24.0796 16.0971 24.0171 15.9166C23.8976 15.5719 23.761 15.1777 23.6091 14.9337C23.5414 14.8345 23.4773 14.7318 23.4115 14.6263C23.2768 14.4104 23.135 14.1829 22.9407 13.9523C23.1184 13.8491 23.2805 13.7779 23.4287 13.7128C23.6627 13.6101 23.8623 13.5226 24.0339 13.3481C23.9737 12.6693 24.7933 12.6939 25.4999 12.7151C25.582 12.7176 25.6629 12.72 25.7404 12.7213C26.0266 12.7402 26.3129 12.736 26.6057 12.7317C27.081 12.7247 27.5736 12.7174 28.1117 12.8085C28.1105 14.2155 31.1444 14.2155 31.2166 12.7358C33.1382 12.9179 33.8861 11.9862 33.6399 10.0506C33.7427 9.25742 33.6438 8.36977 33.0786 8.14839C32.5982 7.99528 32.1179 7.9117 31.6223 7.82545C31.3183 7.77254 31.0085 7.71863 30.6894 7.64706C30.6625 7.50637 30.6366 7.36079 30.6104 7.2132C30.4298 6.19792 30.2325 5.08806 29.5765 4.82797C28.4855 4.52573 27.3643 4.56752 26.2465 4.60917C25.6397 4.63179 25.0339 4.65436 24.4345 4.62185C22.1658 4.40664 21.845 5.63795 21.5001 7.63071C21.2168 7.72617 20.8645 7.78639 20.5058 7.84771C19.7673 7.97396 19.0017 8.10485 18.7551 8.55752C18.4318 9.50104 18.508 10.6346 18.6201 11.6406C18.3158 11.634 18.0115 11.6544 17.7109 11.7017C17.4485 11.3392 17.4569 10.7773 17.4652 10.2247C17.4684 10.0102 17.4716 9.79695 17.4589 9.59738C17.3998 8.38736 17.8095 7.02141 18.3792 5.87736C19.0147 4.57534 19.9693 3.59252 21.159 2.69949C21.9013 2.06512 24.3507 0.996487 26.1757 1.16011ZM22.325 11.6397C22.4945 11.6397 22.6641 11.6397 22.9107 11.6353C22.9858 11.6539 23.0224 11.7109 23.0639 11.7754C23.0974 11.8276 23.1341 11.8848 23.1969 11.9303C23.1907 12.1012 23.2033 12.2722 23.2344 12.4404C22.6288 13.3187 21.5179 12.2078 22.325 11.6397ZM29.2999 11.6397C29.4694 11.6397 29.639 11.6397 29.8856 11.6353C29.9607 11.6539 29.9973 11.7109 30.0388 11.7754C30.0723 11.8276 30.109 11.8848 30.1718 11.9303C30.1657 12.1012 30.1782 12.2722 30.2093 12.4404C29.6037 13.3187 28.4928 12.2078 29.2999 11.6397ZM23.7781 5.75449C24.6742 5.75449 25.5703 5.75449 26.5535 5.74338C26.826 5.76907 27.1294 5.76193 27.4385 5.75466C28.0507 5.74025 28.6854 5.72532 29.1473 5.96382C29.3278 6.49986 29.4476 7.19068 29.5696 7.89411C29.608 8.11552 29.6466 8.33819 29.6874 8.55767C30.0811 8.67688 30.4982 8.76365 30.9262 8.85269C31.46 8.96373 32.0108 9.0783 32.5544 9.26374C32.5496 9.42549 32.5565 9.61166 32.5637 9.80759C32.5884 10.4727 32.6173 11.2504 32.2061 11.567C31.9042 11.5609 31.6023 11.579 31.3033 11.6209C31.263 11.5597 31.2255 11.5009 31.1895 11.4447C30.8605 10.9298 30.6638 10.622 29.7646 10.4642C28.7639 10.4642 28.394 10.8906 28.118 11.5476C27.5901 11.5689 27.0435 11.5715 26.483 11.5741C25.7831 11.5774 25.0615 11.5807 24.3283 11.6209C24.2881 11.5597 24.2506 11.5009 24.2146 11.4447C23.8856 10.9298 23.6888 10.622 22.7896 10.4642C21.789 10.4642 21.4191 10.8906 21.1154 11.5199C20.9672 11.5867 20.7429 11.5772 20.5031 11.5671C20.3375 11.5601 20.1647 11.5527 20.0045 11.57C19.6263 11.2165 19.6967 10.2987 19.7555 9.53121C19.7654 9.4023 19.7749 9.27762 19.782 9.16057C20.6297 8.97711 21.4773 8.81974 22.3976 8.66069C22.4181 8.59402 22.4582 8.58599 22.4943 8.57875C22.5434 8.56889 22.5853 8.5605 22.5605 8.40756C22.7059 8.11037 22.7607 7.70295 22.8153 7.29656C22.9206 6.51297 23.0254 5.73315 23.7781 5.75449ZM13.897 12.8749C13.897 11.7365 13.897 10.5983 13.8872 9.31722C14.6994 9.01555 15.2251 8.57459 14.9824 7.2999C14.5397 6.76527 14.0176 6.33488 13.4883 5.89856C13.1055 5.583 12.7189 5.26434 12.3559 4.90092C12.0987 4.75098 11.9028 4.5633 11.7051 4.37381C11.2822 3.96846 10.8506 3.55485 9.79077 3.48484C8.92139 3.56563 8.56795 3.89378 8.20972 4.22636C8.07765 4.34898 7.94494 4.47219 7.78548 4.58385C7.03495 5.21385 6.29996 5.85926 5.57341 6.59906C4.4742 6.63705 4.29002 9.25488 5.74924 9.31475C5.77047 9.93222 5.76588 10.5497 5.76126 11.172C5.75374 12.1849 5.74613 13.2106 5.84965 14.2695C6.02009 14.6582 6.19243 14.8524 6.6312 15.0546H12.153C12.2346 15.0233 12.2284 15.0504 12.2169 15.1007C12.2062 15.1474 12.1909 15.2142 12.2375 15.2726C11.7775 16.2604 11.5497 17.3405 11.5718 18.4299C9.77958 18.6697 7.98746 18.6454 6.12116 17.7444C5.08603 17.2503 4.15534 16.5622 3.37958 15.7173C3.34715 15.6765 3.3152 15.6364 3.28372 15.5968C2.66627 14.8216 2.22381 14.266 1.68445 12.9345C0.856907 10.584 0.974899 8.01238 2.14945 5.77782C2.76055 4.57186 3.65981 3.65471 4.74049 2.80281C5.38589 2.29421 6.39245 1.74202 8.02647 1.32882C10.0065 0.946426 12.2315 1.15488 14.0938 2.21523C15.3938 2.97435 16.512 4.00877 17.3699 5.24589C17.3258 5.3577 17.2813 5.4695 17.2367 5.58138C16.8466 6.56005 16.4541 7.54493 16.3739 8.58811C16.2699 8.93401 16.2845 9.27994 16.3001 9.64752C16.3086 9.84612 16.3173 10.051 16.3077 10.2657C16.253 10.522 16.3028 10.8122 16.3514 11.0954C16.3964 11.3573 16.4403 11.6133 16.3995 11.8309C15.2341 12.163 14.606 12.5451 14.1356 12.9455L13.897 12.8749ZM9.53858 4.64052C10.4294 4.63589 10.8097 5.0464 11.1947 5.46193C11.4139 5.69854 11.6347 5.93677 11.952 6.10092L11.9969 6.13862C12.6536 6.68954 13.3112 7.24116 13.897 7.93405C13.8905 7.9471 13.8918 7.96804 13.8933 7.99049C13.8973 8.05145 13.9021 8.1236 13.7517 8.07937H5.90486C5.8183 8.1187 5.82379 8.06599 5.8316 7.99101C5.8358 7.95063 5.84068 7.90379 5.83221 7.8614C5.83963 7.84652 5.8368 7.82139 5.83371 7.79399C5.82673 7.73208 5.81844 7.65852 5.92404 7.66522C6.42962 7.255 6.91683 6.83389 7.40733 6.40993C8.09172 5.81838 8.78252 5.22129 9.53858 4.64052ZM7.06735 9.24202H12.5892C12.6376 9.1815 12.795 9.33887 12.7345 9.45999C12.7345 10.8889 12.7345 12.3178 12.7601 13.845C12.6117 13.9119 12.3868 13.9023 12.1348 13.8915C11.9616 13.884 11.7755 13.8761 11.5928 13.8921C11.5713 13.4173 11.5676 12.9425 11.5638 12.4625C11.5585 11.7916 11.5532 11.1104 11.4993 10.4045H8.30249C8.2402 10.3526 8.17791 10.4609 8.11562 10.5692C8.10526 10.5872 8.09489 10.6052 8.08453 10.6225C8.08453 11.6639 8.08453 12.7054 8.1101 13.845C7.96161 13.9119 7.73644 13.9022 7.4859 13.8914C7.31404 13.884 7.13019 13.8761 6.95103 13.8921C6.91118 13.4718 6.91521 13.0516 6.91936 12.6186C6.92263 12.278 6.92597 11.9296 6.90809 11.567C6.93829 11.2774 6.9327 10.9877 6.92711 10.698C6.91774 10.2127 6.90837 9.72738 7.06735 9.24202ZM9.39233 11.567H10.2642C10.3127 11.5065 10.47 11.6639 10.4095 11.785C10.4095 12.4389 10.4095 13.0928 10.4351 13.845C10.2868 13.9118 10.0621 13.9023 9.80904 13.8915C9.63474 13.8841 9.44694 13.8761 9.2614 13.8921C9.26433 13.689 9.25908 13.4859 9.25383 13.2829C9.23903 12.711 9.22423 12.139 9.39233 11.567ZM17.9343 12.7651C19.5887 12.7389 21.1134 13.5743 21.6627 14.2898C22.3159 14.8662 22.8719 15.6543 23.1673 17.3239C23.3287 18.3893 23.1041 19.7691 22.4989 20.6776C22.1362 21.332 21.5937 21.8067 21.0385 22.2719C19.9174 23.166 17.5583 23.5927 15.8198 22.756C14.8099 22.3288 14.2266 21.6331 13.6324 20.842C12.5513 19.5747 12.4771 16.5962 13.5445 15.2111C13.9757 14.6026 14.5008 14.0664 15.1003 13.6228C15.5711 13.2994 16.9491 12.6541 17.8775 12.8182L17.9343 12.7651Z" fill="white"/>
</svg>
