<svg width="33" height="36" viewBox="0 0 33 36" fill="none" xmlns="http://www.w3.org/2000/svg">
<path fill-rule="evenodd" clip-rule="evenodd" d="M31.7135 20.8553H29.908C29.9237 20.7764 29.9322 20.6947 29.9322 20.6116V1.25753C29.9322 0.564305 29.3604 0 28.6572 0H7.04792C6.34541 0 5.77284 0.564305 5.77284 1.25753V15.1757H1.20797C0.542587 15.1757 0.00071393 15.7104 0.00071393 16.367V32.7902C0.000239912 32.7994 0 32.8085 0 32.8178V34.808C0.00071393 35.4653 0.542587 36 1.20797 36H31.7135C32.2725 36 32.7273 35.5512 32.7273 34.9996V21.8557C32.7273 21.3041 32.2725 20.8553 31.7135 20.8553ZM1.06947 34.808V33.0728C1.06994 33.0637 1.07018 33.0545 1.07018 33.0453V16.367C1.07018 16.2916 1.13229 16.2303 1.20868 16.2303H7.25924V23.431C7.25924 23.6748 7.39275 23.8995 7.60835 24.0178C7.71045 24.0735 7.82325 24.1017 7.93533 24.1017C8.05884 24.1017 8.18235 24.0686 8.29087 24.0016L10.5954 22.5891L12.9 24.0016C13.1078 24.1292 13.3691 24.1348 13.5825 24.0178C13.7974 23.8995 13.9316 23.6748 13.9316 23.431V16.2303H19.9822C20.0586 16.2303 20.1207 16.2916 20.1207 16.367V17.7175C20.1207 17.7267 20.1209 17.7359 20.1214 17.745V34.808C20.1214 34.8827 20.06 34.944 19.9843 34.9447H1.20797C1.13158 34.9447 1.06947 34.8834 1.06947 34.808ZM21.1909 17.4604C21.1909 17.4511 21.1906 17.442 21.1902 17.4329V16.367C21.1902 15.7097 20.6483 15.1757 19.9829 15.1757H6.84231V1.25753C6.84231 1.14552 6.9344 1.05464 7.04792 1.05464H14.103V9.39523C14.103 9.64673 14.2408 9.87922 14.4628 10.0004C14.6827 10.1216 14.9526 10.1145 15.1667 9.98348L17.8533 8.33706L20.5398 9.98348C20.6519 10.0518 20.7789 10.087 20.906 10.087C21.0224 10.087 21.1388 10.0582 21.2437 10.0004C21.4657 9.87851 21.6035 9.64673 21.6035 9.39523V1.05464H28.6586C28.7721 1.05464 28.8642 1.14552 28.8642 1.25753V20.6109C28.8642 20.7229 28.7721 20.8138 28.6586 20.8138H21.1909V17.4604ZM12.8628 16.2303V22.7371L10.8774 21.5204C10.791 21.4676 10.6932 21.4408 10.5954 21.4408C10.4976 21.4408 10.3998 21.4669 10.3134 21.5204L8.32724 22.7371V16.2303H12.8628ZM20.5339 8.73932L18.1344 7.26903C17.9617 7.16335 17.7432 7.16335 17.5704 7.26903L15.1709 8.73932V1.05463H20.5332L20.5339 8.73932ZM23.5601 21.91H26.4857V26.1236L25.3049 25.4001C25.1321 25.2944 24.9137 25.2944 24.7416 25.4001L23.5601 26.1229V21.91ZM21.1807 34.9454H31.6583V21.91H27.5546V26.8901C27.5546 27.1191 27.429 27.3297 27.2269 27.441C27.0263 27.5509 26.7807 27.5453 26.5851 27.4255L25.023 26.4688L23.461 27.4255C23.3596 27.4882 23.2432 27.5192 23.1268 27.5192C23.0212 27.5192 22.9148 27.4931 22.8191 27.441C22.6171 27.3297 22.4914 27.1191 22.4914 26.8901V21.91H21.1892V34.8087C21.1892 34.8552 21.1857 34.9003 21.1807 34.9454Z" fill="white"/>
<path d="M4.65204 31.5447C4.9476 31.5447 5.18677 31.3087 5.18677 31.017V28.5992L5.95782 29.3601C6.06205 29.4629 6.19912 29.5143 6.33548 29.5143C6.47256 29.5143 6.60892 29.4629 6.71315 29.3601C6.92162 29.1543 6.92162 28.8204 6.71315 28.6147L5.02971 26.9535C4.82124 26.7478 4.48284 26.7478 4.27437 26.9535L2.59092 28.6147C2.38245 28.8204 2.38245 29.1543 2.59092 29.3601C2.79939 29.5658 3.13779 29.5658 3.34697 29.3601L4.11802 28.5992V31.017C4.1173 31.3087 4.35647 31.5447 4.65204 31.5447Z" fill="white"/>
<path d="M2.96833 33.685H6.33451C6.62936 33.685 6.86924 33.449 6.86924 33.1573C6.86924 32.8664 6.63008 32.6296 6.33451 32.6296H2.96833C2.67347 32.6296 2.43359 32.8656 2.43359 33.1573C2.43431 33.449 2.67347 33.685 2.96833 33.685Z" fill="white"/>
</svg>
