<svg width="36" height="31" viewBox="0 0 36 31" fill="none" xmlns="http://www.w3.org/2000/svg">
<path fill-rule="evenodd" clip-rule="evenodd" d="M2.92072 13.4686C2.02543 12.7903 0.0254604 12.759 0.0730252 11.4673C0.923985 10.71 2.06835 10.3192 3.08016 9.62146C2.22505 9.23123 1.17637 8.85128 0.313101 8.40166C0.0738695 8.35818 -0.132432 7.71451 0.174558 7.40252C2.36535 6.12193 4.61342 4.89897 6.87838 3.62239C7.67347 3.15096 8.50445 2.71542 9.34014 2.22366C10.1249 1.82829 10.7003 1.39951 11.6938 0.994995C19.7072 4.14483 27.7442 7.57765 35.7486 10.8316C35.833 10.9567 35.8235 11.0109 35.9842 11.2499C35.9757 12.2199 35.1324 12.0987 34.6832 12.5701C34.1564 12.8641 33.6359 13.1645 33.0823 13.5022C32.9533 13.4436 33.0354 13.596 33.1166 13.6048C34.0759 14.2853 35.9593 14.3388 36 15.5475C35.169 16.356 34.0505 16.7437 33.1128 17.4084L33.0643 17.512C33.9177 18.0079 35.5622 18.3357 35.9742 18.932C35.941 20.046 35.0723 19.9392 34.6556 20.4285C34.0586 20.7643 33.4661 21.0395 32.9739 21.4152C34.0186 21.95 35.6445 22.2522 35.9573 22.8738C35.9343 23.864 35.2541 23.825 34.8328 24.1947C34.3385 24.492 33.8625 24.7431 33.416 25.0237C32.4405 25.5961 31.5092 26.1424 30.5746 26.6854C28.6512 27.8112 26.7891 28.9274 24.9042 30.0214C24.2882 30.6349 23.2809 29.8181 22.5415 29.6037C15.5613 26.6407 8.89221 23.7751 2.05787 20.8741C1.17834 20.3285 -0.148123 20.3956 0.104618 19.3391C0.972535 18.5203 2.11522 18.0915 3.04941 17.4543C2.10755 17.0012 0.883527 16.5386 0.127767 16.1646C-0.0826862 15.9411 -0.0066247 15.3554 0.164637 15.1987C0.990055 14.6676 1.86177 14.2496 2.66467 13.7626C2.80737 13.8137 2.96667 13.4935 3.05167 13.5352C3.03759 13.5726 2.96723 13.4319 2.92072 13.4686ZM24.1442 20.9481C21.3638 19.7644 18.551 18.5782 15.7731 17.3721C15.7731 16.6451 15.7731 15.918 15.7467 15.0854C16.0163 14.9988 16.4904 15.3576 16.8989 15.486C18.4 16.114 19.9011 16.7589 21.4767 17.476C22.5795 17.6549 23.7532 18.8492 24.8358 18.3431C27.0068 17.0663 29.1819 15.7936 31.3232 14.4556C32.0503 14.6699 32.7774 15.0418 33.5748 15.3315C33.7038 15.2729 33.6218 15.4253 33.5813 15.4787C30.4674 17.3139 27.3507 19.1459 24.1442 20.9478V20.9481ZM25.633 16.2604C25.0865 16.4819 24.7161 16.9711 23.9351 16.9514C21.4959 15.9001 19.0567 14.8855 16.5893 13.7554C19.4683 11.8498 22.3002 9.89707 25.2017 7.99983C27.9927 9.12794 30.7837 10.2836 33.6204 11.5306C33.0247 11.9652 32.4552 12.1977 31.8372 12.6088C29.7771 13.809 27.7328 15.0249 25.633 16.2604ZM18.9299 10.5372C18.156 11.0298 17.4154 11.5557 16.5969 12.0741C15.8857 12.6297 15.0062 13.0167 14.3659 13.7837V24.4787C14.4245 24.6077 14.2721 24.5256 14.1548 24.5194C13.0524 24.0681 11.9502 23.5657 10.7141 23.0715C10.6965 19.5299 10.7141 15.9883 10.6648 12.3101C11.4036 11.6509 12.2122 11.2695 13.0149 10.6739C15.3635 9.10564 17.7168 7.54212 20.0652 5.92281C21.1676 6.30361 22.2699 6.80114 23.4426 7.23999C23.4895 7.39246 23.6419 7.22824 23.5577 7.42539C22.0163 8.4405 20.4923 9.47307 18.9299 10.5375V10.5372ZM2.49088 7.67834C5.5548 5.95764 8.61886 4.23707 11.6921 2.48118C13.9203 3.37865 16.1484 4.30356 18.4991 5.32205C15.7081 7.1984 12.8998 9.05744 10.0738 11.0466C7.5642 10.046 5.05466 8.91165 2.49088 7.67834ZM9.27428 12.1909C9.33718 12.9489 9.27611 13.8309 9.22946 14.6108C7.0013 13.6642 4.77322 12.7242 2.4747 11.7432C2.34572 11.8018 2.42776 11.6494 2.47104 11.5988C3.21315 11.1682 3.98474 10.767 4.72628 10.3173C6.20389 10.9583 7.68149 11.5602 9.27428 12.1909ZM2.47899 15.4768C2.91172 15.2528 3.3265 15.0108 3.79377 14.7575C4.11493 14.5566 4.45135 14.3813 4.79995 14.2331C6.30641 14.8769 7.86816 15.5357 9.29975 16.2465V18.5364C7.02473 17.5906 4.74964 16.6015 2.47463 15.6434C2.4747 15.6433 2.4747 15.4724 2.47899 15.4766V15.4768ZM2.49538 19.3631C3.26979 18.9883 3.96595 18.5354 4.72628 18.1177C6.20389 18.7524 7.68149 19.3777 9.27168 20.0041C9.34063 20.6623 9.27393 21.456 9.29982 22.2275C9.27639 22.2979 9.35843 22.3683 9.1591 22.3848C6.93094 21.4503 4.70285 20.4951 2.40433 19.5538C2.42776 19.5064 2.34572 19.354 2.49538 19.363V19.3631ZM23.787 24.7082C23.0207 24.3668 22.3171 24.0659 21.6135 23.7676C19.6199 22.9361 17.6966 22.093 15.7734 21.2943V19.0608C15.8438 18.7794 15.9141 19.096 15.9845 18.9905C18.4706 20.0411 20.8864 21.0918 23.3022 22.1005C24.1901 22.7227 24.9683 22.2944 25.2688 21.9579C27.3774 20.7596 29.3845 19.5726 31.4238 18.3795C32.1678 18.684 32.8714 18.9296 33.575 19.2558C30.801 21.0246 27.9842 22.6641 25.1862 24.3223C24.7169 24.4693 24.5012 25.0486 23.7867 24.708L23.787 24.7082ZM20.6284 24.8537C22.1494 25.237 24.2529 27.0221 25.2394 25.8555C27.3168 24.663 29.3511 23.4561 31.4218 22.2477C32.1747 22.5938 33.1154 22.8932 33.7115 23.2479C30.4559 25.1266 27.363 26.9466 24.2175 28.7864C21.3013 27.5365 18.4689 26.3465 15.7202 25.1673C15.7734 24.3851 15.7734 23.6579 15.7734 22.9309C17.3915 23.4733 19.0098 24.1879 20.6281 24.8535L20.6284 24.8537Z" fill="white"/>
</svg>
