<?xml version="1.0" encoding="UTF-8"?>
<svg width="50px" height="48px" viewBox="0 0 50 48" version="1.1" xmlns="http://www.w3.org/2000/svg" xmlns:xlink="http://www.w3.org/1999/xlink">
    <!-- Generator: Sketch 62 (91390) - https://sketch.com -->
    <title>Выгрузка</title>
    <desc>Created with Sketch.</desc>
    <g id="Page-1" stroke="none" stroke-width="1" fill="none" fill-rule="evenodd">
        <g id="Документы---2-6---1440" transform="translate(-709.000000, -774.000000)" fill="#C4C9CD" fill-rule="nonzero">
            <path d="M710.432513,797.181131 C711.228353,797.181131 711.865025,797.840623 711.865025,798.664987 L711.865025,798.664987 L711.865025,812.382414 C711.865025,816.042592 714.740662,819.032288 718.284805,819.032288 L718.284805,819.032288 L749.715195,819.032288 C753.248727,819.032288 756.134975,816.053584 756.134975,812.382414 L756.134975,812.382414 L756.134975,798.884818 C756.134975,798.060453 756.771647,797.400962 757.567487,797.400962 C758.363328,797.400962 759,798.071445 759,798.884818 L759,798.884818 L759,812.382414 C759,817.68033 754.840407,822 749.715195,822 L749.715195,822 L718.284805,822 C713.170204,822 709,817.691321 709,812.382414 L709,812.382414 L709,798.664987 C709,797.840623 709.636672,797.181131 710.432513,797.181131 Z M734,774 C734.79584,774 735.432513,774.659492 735.432513,775.483856 L735.432513,775.483856 L735.432513,805.58965 L742.085739,798.68697 C742.648132,798.10442 743.550085,798.10442 744.112479,798.68697 C744.674873,799.269521 744.674873,800.203801 744.112479,800.786352 L744.112479,800.786352 L735.008065,810.217083 C734.732173,810.513854 734.360781,810.656744 734,810.656744 C733.639219,810.656744 733.267827,810.502862 732.991935,810.217083 L732.991935,810.217083 L723.87691,800.786352 C723.314516,800.203801 723.314516,799.269521 723.87691,798.68697 C724.439304,798.10442 725.341256,798.10442 725.90365,798.68697 L725.90365,798.68697 L732.567487,805.58965 L732.567487,775.483856 C732.567487,774.659492 733.20416,774 734,774 Z" id="Выгрузка"></path>
        </g>
    </g>
</svg>