<?xml version="1.0" encoding="UTF-8"?>
<svg width="42px" height="50px" viewBox="0 0 42 50" version="1.1" xmlns="http://www.w3.org/2000/svg" xmlns:xlink="http://www.w3.org/1999/xlink">
    <!-- Generator: Sketch 62 (91390) - https://sketch.com -->
    <title>ЭКОНОМИЯ</title>
    <desc>Created with Sketch.</desc>
    <g id="Page-1" stroke="none" stroke-width="1" fill="none" fill-rule="evenodd">
        <g id="Документы---2-6---1440" transform="translate(-391.000000, -772.000000)" fill="#BBC1C7" fill-rule="nonzero">
            <path d="M408.946815,772 C409.889688,772 409.899117,773.435693 408.975102,773.464407 L408.946815,773.464844 L407.467498,773.464844 C406.41737,773.464844 406.409765,775.063249 407.436081,775.095217 L407.467498,775.095703 L416.532502,775.095703 C417.58263,775.095703 417.590235,773.497298 416.563919,773.46533 L416.532502,773.464844 L412.295469,773.464844 C411.352597,773.464844 411.343168,772.02915 412.267183,772 L412.295469,772 L416.532502,772 C417.784307,772 418.832239,773.040039 418.831254,774.280273 C418.831254,775.508105 417.804176,776.539726 416.569009,776.560236 L416.531517,776.560547 L413.997374,776.560547 L413.997374,780.484375 C417.213194,780.786443 420.219328,781.810477 422.850383,783.389654 L422.944189,783.446289 L424.674655,781.328125 L423.134274,780.092773 C422.821077,779.841797 422.771832,779.373047 423.024951,779.0625 C424.661852,777.057617 427.640184,776.746094 429.663165,778.368164 C431.662508,779.970703 431.9826,782.962891 430.363427,784.946289 C430.116775,785.24913 429.65805,785.303376 429.345931,785.07063 L429.325345,785.054688 L427.783979,783.818359 L426.142154,785.828125 C430.353578,789.635742 433,795.114258 433,801.194336 C433,812.666992 423.579448,822 412,822 C400.420552,822 391,812.666992 391,801.194336 C391,800.790039 391.330926,800.461914 391.738674,800.461914 C392.146422,800.461914 392.477347,800.790039 392.477347,801.194336 C392.477347,811.858398 401.235062,820.535156 412,820.535156 C422.764938,820.535156 431.522653,811.858398 431.522653,801.194336 C431.522653,790.530273 422.764938,781.853516 412,781.853516 C402.696651,781.853516 394.641169,788.40625 392.846684,797.43457 C392.767892,797.832031 392.378858,798.089844 391.978989,798.011719 C391.578135,797.933594 391.318122,797.547852 391.396914,797.151367 C393.180279,788.182393 400.705241,781.485642 409.727777,780.51212 L410.001641,780.484375 L410.001641,776.560547 L407.467498,776.560547 C406.215693,776.560547 405.167761,775.520508 405.167761,774.280273 C405.167761,773.052441 406.194839,772.020821 407.430006,772 L407.467498,772 L408.946815,772 Z M411.999015,783.933594 C421.605712,783.933594 429.42088,791.676758 429.42088,801.194336 C429.42088,806.455078 427.043336,811.364258 422.897899,814.661133 C422.155286,815.251953 421.230466,814.109375 421.973079,813.518555 C425.766907,810.500977 427.943533,806.008789 427.943533,801.194336 C427.943533,792.484375 420.792186,785.398438 412,785.398438 C403.207814,785.398438 396.055483,792.484375 396.055483,801.194336 C396.055483,809.904297 403.208798,816.990234 412,816.990234 C414.22587,816.990234 416.379842,816.544922 418.400854,815.666016 C419.272489,815.287109 419.866382,816.628906 418.993762,817.007812 C416.784636,817.967773 414.431714,818.455078 412,818.455078 C402.393303,818.455078 394.578135,810.711914 394.578135,801.194336 C394.578135,791.676758 402.392318,783.933594 411.999015,783.933594 Z M412.814071,810.953399 L412.814511,810.981445 L412.814511,813.178711 C412.814511,814.113604 411.366563,814.122952 411.337604,813.206758 L411.337163,813.178711 L411.337163,810.981445 C411.337163,810.046553 412.785112,810.037204 412.814071,810.953399 Z M407.783639,810.037976 L407.769862,810.0625 L406.660867,811.964844 C406.459947,812.30957 406.000985,812.432617 405.651346,812.232422 C405.305134,812.033529 405.181774,811.600561 405.369104,811.25348 L405.381484,811.231445 L406.490479,809.329102 C406.962403,808.519893 408.221045,809.229647 407.783639,810.037976 Z M417.635269,809.256769 L417.648391,809.27832 L418.757387,811.180664 C419.230286,811.992773 417.981092,812.718741 417.492572,811.938179 L417.478004,811.914062 L416.369009,810.011719 C416.165135,809.661133 416.285292,809.212891 416.638871,809.010742 C416.984119,808.812805 417.424739,808.923846 417.635269,809.256769 L417.635269,809.256769 Z M403.889033,806.750261 L403.864741,806.764648 L401.944189,807.863281 C401.827971,807.930664 401.700919,807.961914 401.575837,807.961914 C400.843158,807.961914 400.575045,806.980437 401.186257,806.606696 L401.2065,806.594727 L403.127052,805.496094 C403.943168,805.028164 404.675303,806.267752 403.889033,806.750261 Z M420.236704,806.678711 C419.411359,806.207031 420.149048,804.9375 420.974393,805.410156 L422.894944,806.508789 C423.719304,806.979492 422.989494,808.253906 422.157255,807.777344 L420.236704,806.678711 Z M402.147078,800.511719 C403.089951,800.511719 403.099379,801.947412 402.175364,801.976126 L402.147078,801.976562 L399.929087,801.976562 C399.521339,801.976562 399.190414,801.648438 399.190414,801.244141 C399.190414,800.847771 399.508489,800.524616 399.905193,800.512095 L399.929087,800.511719 L402.147078,800.511719 Z M412.025607,788.527344 C415.418582,788.527344 418.622456,789.851562 421.04826,792.253906 C423.474064,794.657227 424.809586,797.832031 424.809586,801.194336 C424.809586,801.590705 424.491511,801.913861 424.095735,801.924549 L424.071898,801.924813 L412.025607,801.924813 C411.62682,801.924813 411.301872,801.611299 411.287426,801.218946 L411.286934,801.195312 L411.24161,789.261719 C411.240643,789.067383 411.31845,788.880859 411.456336,788.743164 C411.586965,788.612716 411.762675,788.536609 411.947457,788.528129 L411.978332,788.527344 L412.025607,788.527344 Z M412.72193,790.013672 L412.761326,800.461914 L423.308601,800.461914 C423.130335,797.764648 421.973079,795.241211 420.004268,793.290039 C418.024622,791.329102 415.460932,790.180664 412.72193,790.013672 Z M401.868242,794.597669 L401.892974,794.611328 L403.813526,795.709961 C404.629642,796.175957 403.922517,797.42967 403.100772,796.99229 L403.075837,796.978516 L401.155286,795.879883 C400.338194,795.41292 401.053032,794.163983 401.868242,794.597669 Z M406.558672,790.451499 L406.573211,790.475586 L407.682206,792.37793 C407.959947,792.853516 407.602429,793.476562 407.043007,793.476562 C406.796715,793.476562 406.556849,793.353662 406.417378,793.135109 L406.402823,793.111328 L405.293828,791.208984 C404.821904,790.398809 406.071108,789.671903 406.558672,790.451499 Z M425.825016,782.248047 L424.184176,784.257812 C424.420552,784.424642 424.652139,784.596219 424.880649,784.772542 L425.0174,784.878906 L426.635588,782.897461 L425.825016,782.248047 Z M424.740561,779.439928 L424.705187,779.466797 L426.180565,780.649414 L428.138542,782.21875 L429.614905,783.402344 C429.876888,782.868164 429.983257,782.271484 429.919238,781.666016 C429.828628,780.8125 429.408076,780.045898 428.734406,779.505859 C427.554717,778.560429 425.901162,778.570974 424.740561,779.439928 Z M412.521996,776.560547 L411.478989,776.560547 L411.478989,780.395508 C411.652331,780.391602 411.825673,780.388672 412.000985,780.388672 C412.117203,780.388672 412.232983,780.389974 412.348617,780.391999 L412.521996,780.395508 L412.521996,776.560547 Z" id="ЭКОНОМИЯ"></path>
        </g>
    </g>
</svg>