<?xml version="1.0" encoding="UTF-8"?>
<svg width="244px" height="133px" viewBox="0 0 244 133" version="1.1" xmlns="http://www.w3.org/2000/svg" xmlns:xlink="http://www.w3.org/1999/xlink">
    <!-- Generator: Sketch 62 (91390) - https://sketch.com -->
    <title>использованы в отчетах</title>
    <desc>Created with Sketch.</desc>
    <g id="Page-1" stroke="none" stroke-width="1" fill="none" fill-rule="evenodd">
        <g id="Документы---2-6---1440" transform="translate(-1037.000000, -1122.000000)">
            <g id="использованы-в-отчетах" transform="translate(1037.000000, 1122.000000)">
                <g id="Group" transform="translate(206.387352, 66.944664)" fill-rule="nonzero">
                    <path d="M9.0173913,49.4268775 C1.78418972,44.7011858 -0.0482213439,35.6837945 0.0482213439,27.486166 C0.0482213439,26.1359684 -0.144664032,24.6893281 0.482213439,23.4837945 C1.10909091,22.2782609 2.60395257,21.4102767 3.85770751,21.9407115 C4.87035573,22.3747036 5.35256917,23.5802372 5.97944664,24.4964427 C6.75098814,25.7501976 7.95652174,26.8110672 9.30671937,27.486166 C10.1747036,27.9201581 11.2837945,28.1612648 12.1517787,27.6790514 C13.3090909,27.0039526 13.4055336,25.3644269 13.4055336,24.0142292 C13.3090909,21.5067194 13.2608696,18.9509881 13.1644269,16.4434783 C13.1162055,15.0932806 13.0679842,13.6948617 13.5019763,12.3928854 C13.887747,11.0909091 14.8039526,9.88537549 16.1059289,9.49960474 C17.4079051,9.11383399 19.0474308,9.78893281 19.3367589,11.1391304 C19.4814229,11.6695652 19.3849802,12.2482213 19.4332016,12.8268775 C19.4814229,13.4055336 19.770751,13.9841897 20.3011858,14.1288538 C20.8316206,14.2735178 21.4102767,13.887747 21.7960474,13.4537549 C23.1944664,12.055336 24.1106719,10.2711462 24.9304348,8.48695652 C25.798419,6.7027668 26.6181818,4.91857708 27.8719368,3.37549407 C29.1256917,1.83241107 30.8616601,0.62687747 32.8387352,0.482213439 C34.8158103,0.337549407 36.9375494,1.49486166 37.4679842,3.37549407 C37.998419,5.25612648 36.9375494,7.23320158 35.7320158,8.82450593 C33.9478261,11.1391304 31.8743083,13.2608696 29.5114625,14.9968379 C29.0774704,15.286166 28.6434783,15.6719368 28.4505929,16.1541502 C28.1612648,17.0703557 29.0774704,17.9383399 29.9936759,18.227668 C31.0063241,18.516996 32.115415,18.4205534 33.2245059,18.516996 C34.2853755,18.6134387 35.4909091,19.0474308 35.8766798,20.0600791 C36.455336,21.4102767 35.3462451,22.9051383 34.1889328,23.8695652 C31.9225296,25.8466403 29.3185771,27.3897233 26.5217391,28.4988142 C25.5090909,28.884585 24.4482213,29.2221344 23.6766798,29.9454545 C22.856917,30.6687747 22.4229249,31.8743083 22.9533597,32.8387352 C23.4837945,33.8031621 24.7375494,34.0442688 25.798419,33.8513834 C26.8592885,33.6102767 27.7754941,33.0316206 28.7881423,32.6458498 C30.6687747,31.8743083 33.0798419,31.970751 34.3335968,33.5620553 C35.1533597,34.6229249 35.2498024,36.0695652 34.912253,37.3233202 C34.5264822,38.5770751 33.7549407,39.686166 32.9351779,40.6988142 C29.9936759,44.2671937 26.1841897,47.1604743 21.8442688,48.8 C17.4561265,50.3913043 13.4055336,50.9217391 9.0173913,49.4268775" id="Path" fill="#F0F0F0"></path>
                    <path d="M35.4426877,1.63952569 C35.4426877,1.63952569 35.3944664,1.68774704 35.2980237,1.78418972 C35.201581,1.88063241 35.056917,1.9770751 34.912253,2.16996047 C34.5747036,2.50750988 34.0442688,2.94150198 33.36917,3.61660079 C32.0671937,4.87035573 30.2347826,6.75098814 28.2577075,9.30671937 C27.2450593,10.6086957 26.2324111,12.055336 25.1715415,13.598419 C24.1106719,15.1897233 22.9533597,16.8774704 21.8442688,18.7098814 C20.7351779,20.5422925 19.5778656,22.4711462 18.6134387,24.5928854 C18.1312253,25.6537549 17.6490119,26.7146245 17.2150198,27.8719368 C16.7810277,28.9810277 16.2988142,30.1383399 15.8166008,31.2474308 C13.9841897,35.8284585 12.3928854,40.2648221 11.2355731,44.4118577 C10.1264822,48.5588933 9.4513834,52.3683794 9.21027668,55.5992095 C8.96916996,58.8300395 9.11383399,61.4339921 9.25849802,63.2664032 C9.35494071,64.1826087 9.4513834,64.8577075 9.49960474,65.3399209 C9.54782609,65.5810277 9.54782609,65.7256917 9.59604743,65.8703557 C9.59604743,66.0150198 9.59604743,66.0632411 9.59604743,66.0632411 C9.59604743,66.0632411 9.35494071,65.0988142 9.16205534,63.2664032 C8.96916996,61.4822134 8.77628458,58.8300395 9.0173913,55.5992095 C9.25849802,52.3683794 9.88537549,48.5106719 10.9944664,44.3636364 C12.1035573,40.2166008 13.6948617,35.7802372 15.5754941,31.1992095 C16.0577075,30.0418972 16.4916996,28.9328063 16.973913,27.8237154 C17.4079051,26.7146245 17.8901186,25.6055336 18.372332,24.544664 C19.3849802,22.4229249 20.4940711,20.4940711 21.6513834,18.6616601 C22.7604743,16.829249 23.9177866,15.141502 24.9786561,13.598419 C26.0395257,12.0071146 27.1003953,10.5604743 28.1130435,9.30671937 C30.0901186,6.75098814 31.970751,4.87035573 33.2727273,3.61660079 C33.9478261,2.98972332 34.4782609,2.50750988 34.8158103,2.21818182 C35.0086957,2.07351779 35.1533597,1.92885375 35.2498024,1.88063241 C35.3944664,1.63952569 35.4426877,1.63952569 35.4426877,1.63952569 Z" id="Path" fill="#E0E0E0"></path>
                    <path d="M18.4687747,24.4 C18.4687747,24.4 18.4205534,24.2071146 18.3241107,23.8213439 C18.227668,23.4355731 18.1312253,22.9051383 18.0347826,22.2300395 C17.7936759,20.8798419 17.5525692,18.9992095 17.3114625,16.973913 C17.0221344,14.9003953 16.7810277,13.0679842 16.4916996,11.7177866 C16.3470356,11.0426877 16.2505929,10.512253 16.2023715,10.1264822 C16.1059289,9.74071146 16.1059289,9.54782609 16.1059289,9.54782609 C16.1059289,9.54782609 16.2023715,9.74071146 16.2988142,10.1264822 C16.3952569,10.512253 16.5399209,11.0426877 16.684585,11.7177866 C16.973913,13.0679842 17.2632411,14.9003953 17.5525692,16.973913 C17.7936759,18.9992095 18.0347826,20.8798419 18.227668,22.2300395 C18.3241107,22.856917 18.372332,23.4355731 18.4687747,23.8213439 C18.4687747,24.2071146 18.4687747,24.4 18.4687747,24.4 Z" id="Path" fill="#E0E0E0"></path>
                    <path d="M36.0213439,20.7351779 C36.0213439,20.7351779 35.9731225,20.7351779 35.8284585,20.7833992 C35.6837945,20.7833992 35.4909091,20.8316206 35.2980237,20.8316206 C34.8640316,20.8798419 34.1889328,20.9280632 33.36917,21.0727273 C31.7778656,21.2656126 29.5596838,21.6513834 27.1003953,22.1335968 C24.6893281,22.6640316 22.5193676,23.1944664 20.9280632,23.6766798 C20.1565217,23.9177866 19.5296443,24.1106719 19.0956522,24.2071146 C18.9027668,24.255336 18.7098814,24.3035573 18.6134387,24.3517787 C18.516996,24.4 18.4205534,24.4 18.4205534,24.4 C18.4205534,24.4 18.4687747,24.3517787 18.5652174,24.3035573 C18.7098814,24.255336 18.8545455,24.2071146 19.0474308,24.1106719 C19.4814229,23.9660079 20.1083004,23.7249012 20.8798419,23.4837945 C22.4229249,23.001581 24.5928854,22.4229249 27.0521739,21.8924901 C29.4632411,21.3620553 31.7296443,21.0245059 33.3209486,20.8798419 C34.1407115,20.7833992 34.7675889,20.7351779 35.2498024,20.7351779 C35.4426877,20.7351779 35.6355731,20.7351779 35.7802372,20.7351779 C35.9731225,20.7351779 36.0213439,20.7351779 36.0213439,20.7351779 Z" id="Path" fill="#E0E0E0"></path>
                    <path d="M11.2355731,43.9296443 C11.2355731,43.9296443 11.1873518,43.8814229 11.0909091,43.7367589 C10.9944664,43.5920949 10.8980237,43.3509881 10.7533597,43.1098814 C10.4640316,42.5794466 10.1264822,41.7596838 9.64426877,40.7952569 C8.72806324,38.8181818 7.57075099,36.0695652 6.36521739,32.9833992 C5.11146245,29.8972332 4.00237154,27.1486166 3.13438735,25.1715415 C2.70039526,24.2071146 2.36284585,23.3873518 2.12173913,22.8086957 C2.02529644,22.5675889 1.92885375,22.3264822 1.83241107,22.1818182 C1.78418972,22.0371542 1.73596838,21.9407115 1.73596838,21.9407115 C1.73596838,21.9407115 1.78418972,21.9889328 1.88063241,22.1335968 C1.9770751,22.2782609 2.07351779,22.5193676 2.16996047,22.7604743 C2.45928854,23.2909091 2.79683794,24.1106719 3.27905138,25.0750988 C4.19525692,27.0521739 5.35256917,29.8007905 6.55810277,32.8869565 C7.81185771,35.9731225 8.92094862,38.7217391 9.78893281,40.6988142 C10.2229249,41.6632411 10.5604743,42.483004 10.801581,43.0616601 C10.8980237,43.3027668 10.9944664,43.5438735 11.0909091,43.6885375 C11.2355731,43.8814229 11.2837945,43.9296443 11.2355731,43.9296443 Z" id="Path" fill="#E0E0E0"></path>
                    <path d="M34.5264822,35.9249012 C34.5264822,35.9249012 34.4300395,35.9731225 34.2853755,36.0213439 C34.0924901,36.0695652 33.8996047,36.1660079 33.6102767,36.2624506 C32.9833992,36.455336 32.1636364,36.744664 31.1027668,37.1304348 C28.9810277,37.8537549 26.087747,38.9146245 22.9051383,40.0237154 C19.7225296,41.1810277 16.7810277,42.1936759 14.7075099,42.8687747 C13.6466403,43.2063241 12.7786561,43.4956522 12.2,43.6403162 C11.9106719,43.7367589 11.6695652,43.7849802 11.5249012,43.8332016 C11.3802372,43.8814229 11.2837945,43.8814229 11.2837945,43.8814229 C11.2837945,43.8814229 11.3802372,43.8332016 11.5249012,43.7849802 C11.7177866,43.7367589 11.9106719,43.6403162 12.2,43.5438735 C12.8268775,43.3509881 13.6466403,43.0616601 14.7075099,42.6758893 C16.829249,41.9525692 19.7225296,40.8916996 22.9051383,39.7343874 C26.087747,38.5770751 29.029249,37.5644269 31.1027668,36.8893281 C32.1636364,36.5517787 33.0316206,36.2624506 33.6102767,36.1177866 C33.8996047,36.0213439 34.1407115,35.9731225 34.2853755,35.9249012 C34.4300395,35.9249012 34.5264822,35.9249012 34.5264822,35.9249012 Z" id="Path" fill="#E0E0E0"></path>
                </g>
                <path d="M241.685375,132.188142 C241.685375,132.236364 187.581028,132.332806 120.842688,132.332806 C54.1043478,132.284585 0,132.236364 0,132.188142 C0,132.139921 54.1043478,132.043478 120.842688,132.043478 C187.581028,132.043478 241.685375,132.0917 241.685375,132.188142 Z" id="Path" fill="#263238" fill-rule="nonzero"></path>
                <g id="Group" transform="translate(37.000000, 0.000000)">
                    <g transform="translate(0.000000, 7.162055)" fill-rule="nonzero">
                        <rect id="Rectangle" fill="#FFFFFF" x="0.433992095" y="0.586561265" width="148.232411" height="98"></rect>
                        <path d="M148.618182,98.5865613 C148.618182,97.7185771 148.56996,70.8727273 148.521739,1.24110672 L148.618182,1.33754941 C106.424506,1.33754941 55.4063241,1.33754941 0.433992095,1.33754941 L0.578656126,1.19288538 C0.578656126,42.7596838 0.578656126,64.0600791 0.578656126,98.5383399 L0.482213439,98.4418972 C88.3897233,98.5383399 147.653755,98.5865613 148.618182,98.5865613 C147.605534,98.5865613 88.3897233,98.6347826 0.385770751,98.683004 L0.289328063,98.683004 L0.289328063,98.5865613 C0.289328063,64.1565217 0.289328063,42.8079051 0.289328063,1.24110672 L0.289328063,1.09644269 L0.433992095,1.09644269 C55.4063241,1.09644269 106.472727,1.09644269 148.618182,1.09644269 L148.714625,1.09644269 L148.714625,1.19288538 C148.666403,70.8727273 148.618182,97.7185771 148.618182,98.5865613 Z" id="Path" fill="#263238"></path>
                    </g>
                    <g>
                        <path d="M41.1810277,96.0561265 C41.1328063,96.0561265 41.0363636,87.5185771 41.0363636,72.0395257 C41.0363636,56.5604743 41.084585,44.0229249 41.1810277,44.0229249 C41.229249,44.0229249 41.3256917,56.5604743 41.3256917,72.0395257 C41.3256917,87.5185771 41.229249,96.0561265 41.1810277,96.0561265 Z" id="Path" fill="#263238" fill-rule="nonzero"></path>
                        <path d="M105.5083,96.0561265 C105.460079,96.0561265 105.363636,87.5185771 105.363636,72.0395257 C105.363636,56.5604743 105.411858,44.0229249 105.5083,44.0229249 C105.604743,44.0229249 105.652964,56.5604743 105.652964,72.0395257 C105.604743,87.5185771 105.556522,96.0561265 105.5083,96.0561265 Z" id="Path" fill="#263238" fill-rule="nonzero"></path>
                        <path d="M63.1217391,96.0561265 C63.0735178,96.0561265 62.9770751,84.0466403 62.9770751,64.2758893 C62.9770751,44.5051383 63.0252964,28.4956522 63.1217391,28.4956522 C63.2181818,28.4956522 63.2664032,44.5051383 63.2664032,64.2758893 C63.2664032,84.0466403 63.2181818,96.0561265 63.1217391,96.0561265 Z" id="Path" fill="#263238" fill-rule="nonzero"></path>
                        <path d="M18.6134387,96.0561265 C18.5652174,96.0561265 18.4687747,84.0466403 18.4687747,64.2758893 C18.4687747,44.5051383 18.516996,28.4956522 18.6134387,28.4956522 C18.7098814,28.4956522 18.7581028,44.5051383 18.7581028,64.2758893 C18.7581028,84.0466403 18.7098814,96.0561265 18.6134387,96.0561265 Z" id="Path" fill="#263238" fill-rule="nonzero"></path>
                        <path d="M130.728063,96.0561265 C130.679842,96.0561265 130.583399,84.0466403 130.583399,64.2758893 C130.583399,44.5051383 130.631621,28.4956522 130.728063,28.4956522 C130.776285,28.4956522 130.872727,44.5051383 130.872727,64.2758893 C130.872727,84.0466403 130.824506,96.0561265 130.728063,96.0561265 Z" id="Path" fill="#263238" fill-rule="nonzero"></path>
                        <path d="M82.4102767,96.0561265 C82.3620553,96.0561265 82.2656126,81.5391304 82.2656126,58.7304348 C82.2656126,35.9217391 82.313834,25.4047431 82.4102767,25.4047431 C82.5067194,25.4047431 82.5549407,35.9217391 82.5549407,58.7304348 C82.5067194,81.5391304 82.458498,96.0561265 82.4102767,96.0561265 Z" id="Path" fill="#263238" fill-rule="nonzero"></path>
                        <path d="M41.7114625,44.0711462 C41.7114625,44.3604743 41.4703557,44.601581 41.1810277,44.601581 C40.8916996,44.601581 40.6505929,44.3604743 40.6505929,44.0711462 C40.6505929,43.7818182 40.8916996,43.5407115 41.1810277,43.5407115 C41.4703557,43.5407115 41.7114625,43.7818182 41.7114625,44.0711462 Z" id="Path" fill="#263238" fill-rule="nonzero"></path>
                        <path d="M63.1217391,28.9778656 C63.4146902,28.9778656 63.6521739,28.7403819 63.6521739,28.4474308 C63.6521739,28.1544798 63.4146902,27.916996 63.1217391,27.916996 C62.8287881,27.916996 62.5913043,28.1544798 62.5913043,28.4474308 C62.5913043,28.7403819 62.8287881,28.9778656 63.1217391,28.9778656 Z" id="Oval" fill="#263238" fill-rule="nonzero"></path>
                        <path d="M63.1217391,30.3280632 C62.1090909,30.3280632 61.2893281,29.5083004 61.2893281,28.4956522 C61.2893281,27.483004 62.1090909,26.6632411 63.1217391,26.6632411 C64.1343874,26.6632411 64.9541502,27.483004 64.9541502,28.4956522 C65.0023715,29.4600791 64.1343874,30.3280632 63.1217391,30.3280632 Z M63.1217391,26.7596838 C62.1573123,26.7596838 61.3857708,27.5312253 61.3857708,28.4956522 C61.3857708,29.4600791 62.1573123,30.2316206 63.1217391,30.2316206 C64.086166,30.2316206 64.8577075,29.4600791 64.8577075,28.4956522 C64.8577075,27.5312253 64.086166,26.7596838 63.1217391,26.7596838 Z" id="Shape" fill="#263238" fill-rule="nonzero"></path>
                        <path d="M82.4102767,25.9351779 C82.7032277,25.9351779 82.9407115,25.6976941 82.9407115,25.4047431 C82.9407115,25.111792 82.7032277,24.8743083 82.4102767,24.8743083 C82.1173256,24.8743083 81.8798419,25.111792 81.8798419,25.4047431 C81.8798419,25.6976941 82.1173256,25.9351779 82.4102767,25.9351779 Z" id="Oval" fill="#263238" fill-rule="nonzero"></path>
                        <path d="M105.5083,45.1320158 C105.801251,45.1320158 106.038735,44.8945321 106.038735,44.601581 C106.038735,44.30863 105.801251,44.0711462 105.5083,44.0711462 C105.215349,44.0711462 104.977866,44.30863 104.977866,44.601581 C104.977866,44.8945321 105.215349,45.1320158 105.5083,45.1320158 Z" id="Oval" fill="#263238" fill-rule="nonzero"></path>
                        <path d="M130.776285,28.9778656 C131.069236,28.9778656 131.306719,28.7403819 131.306719,28.4474308 C131.306719,28.1544798 131.069236,27.916996 130.776285,27.916996 C130.483334,27.916996 130.24585,28.1544798 130.24585,28.4474308 C130.24585,28.7403819 130.483334,28.9778656 130.776285,28.9778656 Z" id="Oval" fill="#263238" fill-rule="nonzero"></path>
                        <path d="M19.1438735,28.9778656 C19.1438735,29.2671937 18.9027668,29.5083004 18.6134387,29.5083004 C18.3241107,29.5083004 18.083004,29.2671937 18.083004,28.9778656 C18.083004,28.6885375 18.3241107,28.4474308 18.6134387,28.4474308 C18.9027668,28.4474308 19.1438735,28.6885375 19.1438735,28.9778656 Z" id="Path" fill="#263238" fill-rule="nonzero"></path>
                        <text id="Input-text" font-family="CorpidE3SCd-Bold, Corpid E3 SCd" font-size="8" font-weight="bold" line-spacing="22" fill="#4679AE">
                            <tspan x="111.208984" y="33">Прибыль</tspan>
                        </text>
                        <text id="Input-text" font-family="CorpidE3SCd-Bold, Corpid E3 SCd" font-size="8" font-weight="bold" line-spacing="22" fill="#4679AE">
                            <tspan x="90.9199219" y="86">Себестоимость</tspan>
                        </text>
                        <polygon id="Rectangle" fill="#263238" fill-rule="nonzero" points="18.083004 15.3747036 43.9296443 15.3747036 43.9296443 16.8213439 18.083004 16.8213439"></polygon>
                        <polygon id="Rectangle" fill="#263238" fill-rule="nonzero" points="18.083004 18.7019763 30.8616601 18.7019763 30.8616601 20.1486166 18.083004 20.1486166"></polygon>
                        <path d="M146.448221,0 L2.41106719,0 C1.2055336,0 0.241106719,0.964426877 0.241106719,2.16996047 L0.241106719,9.40316206 L148.618182,9.40316206 L148.618182,2.16996047 C148.618182,0.964426877 147.653755,0 146.448221,0 Z" id="Path" fill="#263238" fill-rule="nonzero"></path>
                        <path d="M7.95652174,4.87035573 C7.95652174,5.44901186 7.52252964,5.88300395 6.94387352,5.88300395 C6.36521739,5.88300395 5.9312253,5.44901186 5.9312253,4.87035573 C5.9312253,4.33992095 6.36521739,3.85770751 6.94387352,3.85770751 C7.4743083,3.85770751 7.95652174,4.33992095 7.95652174,4.87035573 Z" id="Path" fill="#FFFFFF" fill-rule="nonzero"></path>
                        <path d="M12.344664,4.87035573 C12.344664,5.44901186 11.9106719,5.88300395 11.3320158,5.88300395 C10.7533597,5.88300395 10.3193676,5.44901186 10.3193676,4.87035573 C10.3193676,4.33992095 10.801581,3.85770751 11.3320158,3.85770751 C11.9106719,3.85770751 12.344664,4.33992095 12.344664,4.87035573 Z" id="Path" fill="#FFFFFF" fill-rule="nonzero"></path>
                        <path d="M16.7810277,4.87035573 C16.7810277,5.44901186 16.3470356,5.88300395 15.7683794,5.88300395 C15.1897233,5.88300395 14.7557312,5.44901186 14.7557312,4.87035573 C14.7557312,4.33992095 15.1897233,3.85770751 15.7683794,3.85770751 C16.2988142,3.85770751 16.7810277,4.33992095 16.7810277,4.87035573 Z" id="Path" fill="#FFFFFF" fill-rule="nonzero"></path>
                        <polyline id="Path-2" stroke="#4679AE" stroke-linecap="round" stroke-linejoin="round" points="15.7683794 64.5770449 40.6505929 54.5893129 60.0121787 59 82.4102767 50 99.9770456 54.5893129 137.554582 43.5407115"></polyline>
                        <polyline id="Path-3" stroke="#4679AE" stroke-linecap="round" stroke-linejoin="round" points="15.7683794 73.6251862 38.3573123 75.3675249 55.3429915 70.9970863 71.7640696 78 108.369799 72.0954618 139.968379 80.6955241"></polyline>
                    </g>
                </g>
                <g id="Group" transform="translate(176.968379, 3.648221)" fill-rule="nonzero">
                    <g transform="translate(41.031621, 113.351779)" id="Path">
                        <g>
                            <path d="M3.02479339,8.82129117 L0.175350341,5.89586298 L5.47969817,0.405059289 L9.68810636,4.63567852 L9.38124326,4.99573123 C7.97844053,6.61596838 2.23571685,13.0069038 0.964426877,13.7270092 C-0.482213439,14.5371278 3.02479339,8.82129117 3.02479339,8.82129117 Z" fill="#4679AE"></path>
                            <path d="M7.71541502,6.57096179 C7.36471434,6.03088274 7.189364,5.35578393 7.23320158,4.7256917 C7.32087675,4.09559947 7.58390226,3.46550725 8.0661157,3.06044796 L9.5565936,4.59067194 L7.71541502,6.57096179 Z" fill="#263238"></path>
                        </g>
                        <path d="M1.40280273,11.7017128 C1.40280273,11.7017128 0.263025512,13.8170224 0.745238951,13.862029 C1.1836148,13.9070356 7.27703917,7.65111989 9.68810636,4.63567852 L9.5565936,4.50065876 L2.54257995,11.8817391 C2.54257995,11.8817391 1.70966583,11.3866667 1.40280273,11.7017128 Z" fill="#263238"></path>
                        <path d="M9.64426877,4.41064559 C9.64426877,4.41064559 9.60043119,4.45565217 9.5565936,4.50065876 C9.46891843,4.59067194 9.38124326,4.68068511 9.29356809,4.77069829 C9.03054258,5.04073781 8.72367948,5.40079051 8.3729788,5.8058498 C7.58390226,6.66097497 6.48796263,7.87615283 5.26051024,9.18134387 C4.03305785,10.4865349 2.84944305,11.6116996 2.01652893,12.4218182 C1.62199066,12.7818709 1.27128997,13.096917 1.00826446,13.3669565 C0.920589292,13.4569697 0.832914121,13.5469829 0.745238951,13.636996 C0.701401365,13.6820026 0.65756378,13.7270092 0.65756378,13.7270092 C0.65756378,13.7270092 0.701401365,13.6820026 0.745238951,13.636996 C0.832914121,13.5469829 0.920589292,13.4569697 1.00826446,13.3669565 C1.27128997,13.096917 1.62199066,12.7818709 1.97269134,12.3768116 C2.80560546,11.566693 3.94538268,10.3965217 5.17283507,9.0913307 C6.40028746,7.78613966 7.54006468,6.61596838 8.32914121,5.76084321 C8.6798419,5.35578393 9.03054258,4.99573123 9.29356809,4.7256917 C9.38124326,4.63567852 9.46891843,4.54566535 9.5565936,4.45565217 C9.60043119,4.45565217 9.64426877,4.41064559 9.64426877,4.41064559 Z" fill="#455A64"></path>
                        <path d="M2.63025512,11.9717523 C2.63025512,12.0167589 2.36722961,11.791726 1.97269134,11.7017128 C1.57815307,11.6116996 1.27128997,11.7017128 1.27128997,11.6567062 C1.27128997,11.6567062 1.57815307,11.5216864 1.97269134,11.6116996 C2.41106719,11.7017128 2.67409271,11.9717523 2.63025512,11.9717523 Z" fill="#455A64"></path>
                        <path d="M3.41933166,9.54139657 C3.41933166,9.58640316 3.24398132,9.54139657 3.06863097,9.49638999 C2.84944305,9.4513834 2.71793029,9.40637681 2.71793029,9.36137022 C2.71793029,9.31636364 2.89328063,9.36137022 3.06863097,9.40637681 C3.24398132,9.4513834 3.41933166,9.49638999 3.41933166,9.54139657 Z" fill="#455A64"></path>
                        <path d="M3.594682,8.86629776 C3.594682,8.91130435 3.46316924,8.91130435 3.2878189,8.91130435 C3.11246856,8.91130435 2.9809558,8.91130435 2.9809558,8.86629776 C2.9809558,8.82129117 3.11246856,8.82129117 3.2878189,8.82129117 C3.46316924,8.82129117 3.594682,8.82129117 3.594682,8.86629776 Z" fill="#455A64"></path>
                        <path d="M3.37549407,8.05617918 C3.37549407,8.05617918 3.2878189,8.23620553 3.15630614,8.3712253 C3.02479339,8.55125165 2.84944305,8.64126482 2.84944305,8.64126482 C2.84944305,8.64126482 2.93711822,8.46123847 3.06863097,8.32621871 C3.20014373,8.14619236 3.33165649,8.05617918 3.37549407,8.05617918 Z" fill="#455A64"></path>
                        <path d="M3.11246856,7.60611331 C3.15630614,7.60611331 3.06863097,7.83114625 2.89328063,8.0111726 C2.71793029,8.19119895 2.54257995,8.32621871 2.54257995,8.28121212 C2.54257995,8.28121212 2.67409271,8.14619236 2.84944305,7.92115942 C2.9809558,7.78613966 3.06863097,7.60611331 3.11246856,7.60611331 Z" fill="#455A64"></path>
                        <path d="M2.76176788,9.27135705 C2.76176788,9.27135705 2.67409271,9.4513834 2.41106719,9.63140975 C2.27955444,9.72142292 2.14804168,9.8114361 1.97269134,9.94645586 C1.88501617,9.99146245 1.797341,10.036469 1.66582824,10.0814756 C1.62199066,10.0814756 1.53431549,10.0814756 1.4904779,10.0814756 C1.44664032,10.036469 1.40280273,9.94645586 1.40280273,9.90144928 C1.57815307,9.40637681 2.06036651,9.22635046 2.36722961,9.27135705 C2.49874236,9.27135705 2.63025512,9.36137022 2.71793029,9.40637681 C2.80560546,9.4513834 2.80560546,9.49638999 2.80560546,9.49638999 C2.80560546,9.49638999 2.63025512,9.36137022 2.36722961,9.36137022 C2.23571685,9.36137022 2.06036651,9.36137022 1.88501617,9.4513834 C1.70966583,9.54139657 1.53431549,9.72142292 1.4904779,9.90144928 C1.4904779,9.99146245 1.57815307,10.036469 1.66582824,10.036469 C1.75350341,10.036469 1.84117858,9.94645586 1.92885375,9.90144928 C2.1042041,9.8114361 2.23571685,9.72142292 2.36722961,9.63140975 C2.63025512,9.36137022 2.76176788,9.22635046 2.76176788,9.27135705 Z" fill="#455A64"></path>
                        <path d="M2.67409271,9.36137022 C2.67409271,9.36137022 2.54257995,9.31636364 2.41106719,9.18134387 C2.32339202,9.0913307 2.27955444,8.95631094 2.23571685,8.82129117 C2.23571685,8.68627141 2.19187927,8.50624506 2.32339202,8.3712253 C2.41106719,8.28121212 2.54257995,8.3712253 2.58641754,8.41623188 C2.63025512,8.50624506 2.67409271,8.55125165 2.67409271,8.64126482 C2.71793029,8.77628458 2.71793029,8.91130435 2.71793029,9.00131752 C2.76176788,9.18134387 2.71793029,9.31636364 2.67409271,9.36137022 C2.67409271,9.31636364 2.71793029,9.18134387 2.67409271,9.00131752 C2.67409271,8.91130435 2.63025512,8.77628458 2.63025512,8.64126482 C2.58641754,8.50624506 2.49874236,8.3712253 2.41106719,8.41623188 C2.32339202,8.50624506 2.32339202,8.68627141 2.32339202,8.77628458 C2.32339202,8.91130435 2.41106719,9.00131752 2.45490478,9.0913307 C2.58641754,9.27135705 2.67409271,9.36137022 2.67409271,9.36137022 Z" fill="#455A64"></path>
                        <path d="M8.0661157,3.06044796 C8.0661157,3.06044796 7.89076536,3.19546772 7.67157743,3.46550725 C7.45238951,3.73554677 7.23320158,4.18561265 7.189364,4.7256917 C7.14552641,5.26577075 7.27703917,5.76084321 7.40855192,6.07588933 C7.54006468,6.39093544 7.71541502,6.57096179 7.67157743,6.57096179 C7.67157743,6.57096179 7.62773985,6.5259552 7.58390226,6.48094862 C7.54006468,6.39093544 7.45238951,6.30092227 7.36471434,6.12089592 C7.189364,5.8058498 7.05785124,5.31077734 7.10168883,4.77069829 C7.14552641,4.23061924 7.40855192,3.78055336 7.62773985,3.51051383 C7.75925261,3.37549407 7.84692778,3.2854809 7.93460295,3.19546772 C8.02227812,3.06044796 8.0661157,3.06044796 8.0661157,3.06044796 Z" fill="#455A64"></path>
                        <path d="M5.30434783,1.35019763 C5.30434783,1.35019763 5.83039885,1.8002635 6.44412504,2.43035573 C7.05785124,3.06044796 7.54006468,3.55552042 7.54006468,3.55552042 C7.54006468,3.55552042 7.01401365,3.10545455 6.40028746,2.47536232 C5.74272368,1.89027668 5.26051024,1.35019763 5.30434783,1.35019763 Z" fill="#455A64"></path>
                        <path d="M6.53180022,6.75098814 C6.53180022,6.75098814 6.2687747,7.20105402 5.83039885,7.65111989 C5.392023,8.10118577 4.99748473,8.41623188 4.99748473,8.3712253 C4.99748473,8.3712253 5.34818541,8.0111726 5.78656126,7.56110672 C6.18109953,7.11104084 6.48796263,6.70598155 6.53180022,6.75098814 Z" fill="#455A64"></path>
                        <path d="M7.58390226,5.67083004 C7.62773985,5.67083004 7.62773985,5.76084321 7.67157743,5.89586298 C7.71541502,6.03088274 7.75925261,6.12089592 7.75925261,6.12089592 C7.75925261,6.12089592 7.62773985,6.07588933 7.58390226,5.94086957 C7.54006468,5.76084321 7.54006468,5.67083004 7.58390226,5.67083004 Z" fill="#455A64"></path>
                        <path d="M7.45238951,4.77069829 C7.49622709,4.77069829 7.49622709,4.86071146 7.49622709,4.99573123 C7.49622709,5.13075099 7.49622709,5.22076416 7.45238951,5.22076416 C7.40855192,5.22076416 7.40855192,5.13075099 7.40855192,4.99573123 C7.40855192,4.86071146 7.45238951,4.77069829 7.45238951,4.77069829 Z" fill="#455A64"></path>
                        <path d="M7.80309019,3.96057971 C7.80309019,3.96057971 7.75925261,4.05059289 7.71541502,4.18561265 C7.67157743,4.27562582 7.67157743,4.41064559 7.62773985,4.41064559 C7.58390226,4.41064559 7.58390226,4.27562582 7.62773985,4.14060606 C7.67157743,3.96057971 7.80309019,3.91557312 7.80309019,3.96057971 Z" fill="#455A64"></path>
                        <path d="M8.10995329,3.42050066 C8.15379087,3.42050066 8.10995329,3.51051383 8.10995329,3.55552042 C8.0661157,3.60052701 8.02227812,3.6455336 8.02227812,3.6455336 C7.97844053,3.6455336 8.02227812,3.55552042 8.02227812,3.51051383 C8.02227812,3.46550725 8.0661157,3.42050066 8.10995329,3.42050066 Z" fill="#455A64"></path>
                    </g>
                    <g transform="translate(17.031621, 122.351779)" id="Path">
                        <g>
                            <path d="M5.58081686,4.48458498 L5.67083004,0.0482213439 L13.4119631,0.192885375 L13.3219499,6.65454545 L12.8268775,6.65454545 C10.7115679,6.75098814 1.98028986,6.94387352 0.540079051,6.46166008 C-1.03515152,5.97944664 5.58081686,4.48458498 5.58081686,4.48458498 Z" fill="#4679AE"></path>
                            <path d="M10.5315415,6.55810277 C10.6665613,5.88300395 11.026614,5.20790514 11.566693,4.82213439 C12.1067721,4.38814229 12.7368643,4.19525692 13.3669565,4.24347826 L13.3219499,6.55810277 L10.5315415,6.55810277 Z" fill="#263238"></path>
                        </g>
                        <path d="M2.34034256,5.35256917 C2.34034256,5.35256917 0.0450065876,6.02766798 0.315046113,6.41343874 C0.585085639,6.84743083 9.40637681,6.99209486 13.3219499,6.7027668 L13.3219499,6.50988142 L3.01544137,6.41343874 C3.01544137,6.41343874 2.79040843,5.35256917 2.34034256,5.35256917 Z" fill="#263238"></path>
                        <path d="M13.4119631,6.50988142 C13.4119631,6.50988142 13.3669565,6.50988142 13.2769433,6.50988142 C13.1419236,6.50988142 13.0519104,6.50988142 12.9168906,6.50988142 C12.5568379,6.50988142 12.0617655,6.50988142 11.5216864,6.55810277 C10.3515152,6.55810277 8.68627141,6.60632411 6.88600791,6.55810277 C5.0857444,6.50988142 3.42050066,6.46166008 2.25032938,6.41343874 C1.71025033,6.36521739 1.21517787,6.36521739 0.855125165,6.31699605 C0.720105402,6.31699605 0.585085639,6.31699605 0.495072464,6.2687747 C0.405059289,6.2687747 0.360052701,6.2687747 0.360052701,6.2687747 C0.360052701,6.2687747 0.405059289,6.2687747 0.495072464,6.2687747 C0.630092227,6.2687747 0.720105402,6.2687747 0.855125165,6.2687747 C1.21517787,6.2687747 1.71025033,6.31699605 2.25032938,6.31699605 C3.42050066,6.36521739 5.0857444,6.41343874 6.88600791,6.46166008 C8.68627141,6.50988142 10.3515152,6.50988142 11.5216864,6.50988142 C12.0617655,6.50988142 12.5568379,6.50988142 12.9168906,6.50988142 C13.0519104,6.50988142 13.1869302,6.50988142 13.3219499,6.50988142 C13.3669565,6.50988142 13.4119631,6.50988142 13.4119631,6.50988142 Z" fill="#455A64"></path>
                        <path d="M3.01544137,6.55810277 C2.97043478,6.55810277 2.97043478,6.22055336 2.74540184,5.83478261 C2.56537549,5.44901186 2.25032938,5.25612648 2.29533597,5.25612648 C2.29533597,5.20790514 2.61038208,5.40079051 2.83541502,5.78656126 C3.06044796,6.17233202 3.01544137,6.55810277 3.01544137,6.55810277 Z" fill="#455A64"></path>
                        <path d="M5.31077734,5.35256917 C5.31077734,5.35256917 5.17575758,5.20790514 5.0857444,5.01501976 C4.99573123,4.82213439 4.90571805,4.67747036 4.90571805,4.62924901 C4.90571805,4.58102767 5.04073781,4.77391304 5.13075099,4.96679842 C5.22076416,5.15968379 5.31077734,5.30434783 5.31077734,5.35256917 Z" fill="#455A64"></path>
                        <path d="M5.94086957,5.01501976 C5.94086957,5.01501976 5.8058498,4.96679842 5.67083004,4.82213439 C5.53581028,4.67747036 5.4457971,4.58102767 5.4457971,4.53280632 C5.4457971,4.53280632 5.58081686,4.58102767 5.71583663,4.7256917 C5.85085639,4.87035573 5.94086957,4.96679842 5.94086957,5.01501976 Z" fill="#455A64"></path>
                        <path d="M6.34592885,4.24347826 C6.34592885,4.2916996 6.1659025,4.2916996 5.94086957,4.2916996 C5.71583663,4.2916996 5.53581028,4.24347826 5.53581028,4.24347826 C5.53581028,4.19525692 5.71583663,4.19525692 5.94086957,4.19525692 C6.1659025,4.19525692 6.34592885,4.19525692 6.34592885,4.24347826 Z" fill="#455A64"></path>
                        <path d="M6.48094862,3.66482213 C6.48094862,3.71304348 6.30092227,3.76126482 6.03088274,3.80948617 C5.76084321,3.80948617 5.58081686,3.76126482 5.58081686,3.71304348 C5.58081686,3.66482213 5.8058498,3.71304348 6.03088274,3.66482213 C6.30092227,3.71304348 6.48094862,3.66482213 6.48094862,3.66482213 Z" fill="#455A64"></path>
                        <path d="M5.04073781,4.62924901 C5.04073781,4.62924901 4.86071146,4.67747036 4.54566535,4.62924901 C4.41064559,4.62924901 4.23061924,4.58102767 4.0055863,4.48458498 C3.91557312,4.43636364 3.82555995,4.43636364 3.69054018,4.33992095 C3.6455336,4.2916996 3.60052701,4.24347826 3.55552042,4.19525692 C3.55552042,4.09881423 3.55552042,4.00237154 3.6455336,4.00237154 C4.14060606,3.76126482 4.59067194,4.05059289 4.77069829,4.2916996 C4.86071146,4.43636364 4.90571805,4.58102767 4.90571805,4.62924901 C4.90571805,4.7256917 4.90571805,4.77391304 4.90571805,4.77391304 C4.90571805,4.77391304 4.86071146,4.58102767 4.68068511,4.2916996 C4.59067194,4.14703557 4.45565217,4.05059289 4.27562582,4.00237154 C4.09559947,3.9541502 3.87056653,3.90592885 3.69054018,4.05059289 C3.60052701,4.09881423 3.6455336,4.19525692 3.73554677,4.2916996 C3.82555995,4.33992095 3.91557312,4.38814229 4.0055863,4.43636364 C4.18561265,4.53280632 4.365639,4.58102767 4.50065876,4.58102767 C4.86071146,4.58102767 5.04073781,4.58102767 5.04073781,4.62924901 Z" fill="#455A64"></path>
                        <path d="M4.90571805,4.62924901 C4.90571805,4.62924901 4.81570487,4.48458498 4.86071146,4.24347826 C4.86071146,4.14703557 4.90571805,4.00237154 4.99573123,3.85770751 C5.0857444,3.76126482 5.22076416,3.56837945 5.40079051,3.61660079 C5.53581028,3.61660079 5.58081686,3.76126482 5.53581028,3.85770751 C5.53581028,3.9541502 5.49080369,4.05059289 5.4457971,4.09881423 C5.35578393,4.24347826 5.26577075,4.33992095 5.22076416,4.43636364 C5.0857444,4.58102767 4.95072464,4.62924901 4.90571805,4.62924901 C4.95072464,4.62924901 5.04073781,4.53280632 5.17575758,4.33992095 C5.26577075,4.24347826 5.31077734,4.14703557 5.40079051,4.00237154 C5.49080369,3.90592885 5.53581028,3.71304348 5.40079051,3.66482213 C5.26577075,3.66482213 5.13075099,3.76126482 5.0857444,3.90592885 C4.99573123,4.00237154 4.95072464,4.14703557 4.95072464,4.24347826 C4.90571805,4.48458498 4.95072464,4.62924901 4.90571805,4.62924901 Z" fill="#455A64"></path>
                        <path d="M13.3219499,4.24347826 C13.3219499,4.24347826 13.096917,4.19525692 12.7368643,4.24347826 C12.3768116,4.2916996 11.9267457,4.43636364 11.4766798,4.77391304 C11.0716206,5.11146245 10.801581,5.59367589 10.6665613,5.9312253 C10.5315415,6.2687747 10.5315415,6.50988142 10.5315415,6.50988142 C10.5315415,6.50988142 10.5315415,6.46166008 10.5315415,6.36521739 C10.5315415,6.2687747 10.5765481,6.12411067 10.6215547,5.9312253 C10.7115679,5.54545455 10.9816074,5.06324111 11.4316733,4.7256917 C11.8817391,4.33992095 12.3768116,4.24347826 12.7368643,4.19525692 C12.9168906,4.19525692 13.0519104,4.19525692 13.1419236,4.19525692 C13.2319368,4.19525692 13.3219499,4.24347826 13.3219499,4.24347826 Z" fill="#455A64"></path>
                        <path d="M12.5568379,0.771541502 C12.6018445,0.771541502 12.6018445,1.543083 12.6018445,2.45928854 C12.6018445,3.42371542 12.5568379,4.14703557 12.5568379,4.14703557 C12.5118314,4.14703557 12.5118314,3.37549407 12.5118314,2.45928854 C12.5118314,1.543083 12.5118314,0.771541502 12.5568379,0.771541502 Z" fill="#455A64"></path>
                        <path d="M9.54139657,5.73833992 C9.54139657,5.78656126 9.04632411,5.83478261 8.41623188,5.83478261 C7.78613966,5.83478261 7.29106719,5.73833992 7.29106719,5.73833992 C7.29106719,5.69011858 7.78613966,5.73833992 8.41623188,5.73833992 C9.04632411,5.73833992 9.54139657,5.73833992 9.54139657,5.73833992 Z" fill="#455A64"></path>
                        <path d="M11.0716206,5.78656126 C11.0716206,5.78656126 11.026614,5.88300395 10.9816074,6.02766798 C10.9366008,6.17233202 10.8915942,6.2687747 10.8915942,6.2687747 C10.8465876,6.2687747 10.8465876,6.12411067 10.9366008,5.97944664 C10.9366008,5.83478261 11.026614,5.73833992 11.0716206,5.78656126 Z" fill="#455A64"></path>
                        <path d="M11.6567062,5.01501976 C11.6567062,5.01501976 11.6116996,5.11146245 11.5216864,5.20790514 C11.4316733,5.30434783 11.3416601,5.35256917 11.3416601,5.30434783 C11.3416601,5.30434783 11.3866667,5.20790514 11.4766798,5.11146245 C11.566693,5.06324111 11.6116996,5.01501976 11.6567062,5.01501976 Z" fill="#455A64"></path>
                        <path d="M12.4668248,4.67747036 C12.4668248,4.7256917 12.3768116,4.7256917 12.2417918,4.7256917 C12.1067721,4.77391304 12.0617655,4.82213439 12.0167589,4.82213439 C12.0167589,4.82213439 12.0617655,4.67747036 12.1967852,4.62924901 C12.3768116,4.62924901 12.4668248,4.67747036 12.4668248,4.67747036 Z" fill="#455A64"></path>
                        <path d="M13.0519104,4.53280632 C13.0519104,4.58102767 13.0069038,4.58102767 12.9618972,4.62924901 C12.9168906,4.67747036 12.8268775,4.67747036 12.8268775,4.62924901 C12.8268775,4.58102767 12.8718841,4.58102767 12.9168906,4.53280632 C13.0069038,4.53280632 13.0519104,4.53280632 13.0519104,4.53280632 Z" fill="#455A64"></path>
                    </g>
                    <path d="M26.5464408,38.9784289 C23.642422,47.4731581 18.4242634,62.881151 18.4242634,62.881151 C18.061261,63.1070747 16.7000022,63.8300303 16.2462493,63.9203998 C15.7471211,64.0107693 15.0664917,64.1463234 14.658114,64.1011387 C14.1589858,64.0107693 13.8413588,64.5981707 14.1589858,64.9144638 C14.4766129,65.230757 15.8378717,65.4566806 17.3352563,65.0048333 C18.832641,64.552986 17.743634,66.8574072 17.2445057,67.5803629 C16.7453775,68.3485033 15.3387434,70.8336635 15.429494,71.1499566 C15.6109952,71.6469886 16.200874,71.4210649 16.7000022,70.6529245 C17.1991304,69.8847841 18.6057645,67.6707324 18.832641,67.7611018 C19.2410186,67.9870255 16.7453775,71.9632817 16.7453775,71.9632817 C16.7453775,71.9632817 16.1554987,72.6410526 16.6092516,73.0025305 C17.3806316,73.589932 19.8308974,69.3425674 20.0577739,68.9359048 C20.1938998,68.6647964 20.4207762,68.8907201 20.2392751,69.1618284 C20.0577739,69.4781216 17.9251351,72.9573458 18.5603892,73.3188236 C19.2410186,73.7254862 20.693028,70.246262 21.3282821,69.6136757 C22.0089115,68.8907201 19.921648,72.5054985 20.5569021,72.9573458 C20.7837786,73.1380847 20.9652798,73.2284541 22.0089115,71.1047718 C22.6895409,69.7492299 23.6877973,66.8574072 24.3230514,64.8240944 C26.5464408,60.3959909 32.8989818,46.659833 35.0316206,37.3517787" id="Path" fill="#E5BAAB"></path>
                    <path d="M27.3524636,18.4821668 C27.3524636,18.4821668 33.4039859,16.7291707 34.605391,26.0784834 C35.3618313,31.9667524 37.0526978,46.1705159 37.7201451,53.4521921 C37.7646416,54.1264214 37.3641732,53.8567297 37.4086697,54.4410617 C37.4531662,55.115291 38.0316206,55.6546744 38.0316206,56.1041606 C38.0316206,57.587465 36.340754,57.587465 36.340754,57.587465 L20.5000046,58.3517787 C20.5000046,58.3517787 19.0316206,58.3965402 19.0316206,57.0930302 C19.0316206,56.1041606 19.6545714,55.6546744 19.6990679,55.0703424 C20.3665152,46.3053618 20.3665152,24.4603331 21.3454379,21.4487756 C22.2798641,18.5271154 22.9028149,18.4821668 27.3524636,18.4821668 Z" id="Path" fill="#4679AE"></path>
                    <path d="M29.0316206,18.3517787 C29.0316206,18.3517787 29.1488222,18.4924037 29.3441583,18.7736537 C29.5394944,19.0549037 29.8129649,19.3830287 30.0864355,19.8049037 C30.359906,20.2267787 30.6333766,20.6017787 30.7896454,20.8830287 C30.9459143,21.1642787 31.063116,21.3517787 31.0240487,21.3517787 C31.0240487,21.3517787 30.9068471,21.1642787 30.711511,20.9299037 C30.5161749,20.6486537 30.2817716,20.2736537 29.9692338,19.8517787 C29.6957633,19.4299037 29.4222927,19.0549037 29.2269567,18.8205287 C29.1488222,18.5392787 29.0316206,18.3517787 29.0316206,18.3517787 Z" id="Path" fill="#263238"></path>
                    <path d="M30.0316206,18.3517787 C30.0316206,18.3517787 29.9389053,18.3899362 29.7534749,18.4662514 C29.5216868,18.5425666 29.2898987,18.6188818 29.011753,18.695197 C28.409104,18.8859849 27.5283093,19.153088 26.5547994,19.4583487 C25.5812894,19.7254518 24.7004947,19.9543974 24.0514881,20.1070277 C23.7733424,20.1833429 23.5415543,20.2215005 23.3097662,20.2978157 C23.1243358,20.3359733 23.0316206,20.3741309 23.0316206,20.3359733 C23.0316206,20.3359733 23.1243358,20.2978157 23.3097662,20.2596581 C23.5415543,20.1833429 23.7733424,20.1451853 24.0514881,20.0688701 C24.7004947,19.9162398 25.5812894,19.6491367 26.5084417,19.3820335 C27.4819517,19.1149304 28.3163888,18.8478273 28.9653954,18.6570394 C29.2435411,18.5807242 29.4753292,18.504409 29.7071172,18.4280938 C29.9389053,18.3899362 30.0316206,18.3517787 30.0316206,18.3517787 Z" id="Path" fill="#263238"></path>
                    <path d="M23.0316206,19.3517787 C23.0763975,19.3517787 23.0763975,19.8254629 23.0763975,20.3517787 C23.0763975,20.930726 23.0763975,21.3517787 23.0316206,21.3517787 C22.9868436,21.3517787 22.9868436,20.8780944 22.9868436,20.3517787 C22.9868436,19.8254629 23.0316206,19.3517787 23.0316206,19.3517787 Z" id="Path" fill="#263238"></path>
                    <path d="M34.0316206,21.3517787 C34.0316206,21.3965556 31.3205094,21.3965556 28.0316206,21.3965556 C24.6982872,21.3965556 22.0316206,21.3965556 22.0316206,21.3517787 C22.0316206,21.3070017 24.7427317,21.3070017 28.0316206,21.3070017 C31.3649539,21.3070017 34.0316206,21.3517787 34.0316206,21.3517787 Z" id="Path" fill="#E0E0E0"></path>
                    <path d="M34.0316206,23.4413326 C34.0316206,23.4413326 33.9882872,23.4413326 33.9016206,23.4413326 C33.7716206,23.4413326 33.6849539,23.4413326 33.5116206,23.4413326 C33.1216206,23.4413326 32.6882872,23.3965556 32.1249539,23.3965556 C30.9116206,23.3517787 29.3082872,23.3070017 27.5316206,23.2622247 C25.7549539,23.2174478 24.1516206,23.2174478 22.9382872,23.1726708 C22.3749539,23.1726708 21.9416206,23.1726708 21.5516206,23.1726708 C21.4216206,23.1726708 21.2916206,23.1726708 21.1616206,23.1726708 C21.0749539,23.1726708 21.0316206,23.1726708 21.0316206,23.1726708 C21.0316206,23.1726708 21.0749539,23.1726708 21.1616206,23.1726708 C21.2916206,23.1726708 21.3782872,23.1726708 21.5516206,23.1726708 C21.9416206,23.1726708 22.3749539,23.1726708 22.9382872,23.1726708 C24.1082872,23.1726708 25.7549539,23.1726708 27.5316206,23.2174478 C29.3082872,23.2622247 30.9549539,23.3517787 32.1249539,23.3965556 C32.6882872,23.4413326 33.1216206,23.4413326 33.5116206,23.4861095 C33.6416206,23.4861095 33.7716206,23.4861095 33.9016206,23.5308865 C33.9882872,23.4413326 34.0316206,23.4413326 34.0316206,23.4413326 Z" id="Path" fill="#E0E0E0"></path>
                    <path d="M35.0316206,25.3517787 C35.0316206,25.3965556 31.9205094,25.3965556 28.0316206,25.3965556 C24.1884833,25.3965556 21.0316206,25.3965556 21.0316206,25.3517787 C21.0316206,25.3070017 24.1427317,25.3070017 28.0316206,25.3070017 C31.9205094,25.3070017 35.0316206,25.3517787 35.0316206,25.3517787 Z" id="Path" fill="#E0E0E0"></path>
                    <path d="M35.0316206,27.3517787 C35.0316206,27.3965556 31.8860509,27.3965556 28.0316206,27.3965556 C24.1328864,27.3965556 21.0316206,27.3965556 21.0316206,27.3517787 C21.0316206,27.3070017 24.1771902,27.3070017 28.0316206,27.3070017 C31.8860509,27.3070017 35.0316206,27.3070017 35.0316206,27.3517787 Z" id="Path" fill="#E0E0E0"></path>
                    <path d="M36.0316206,29.3610523 C36.0316206,29.4058292 32.6519909,29.4058292 28.5316206,29.4058292 C24.3649539,29.4058292 21.0316206,29.4058292 21.0316206,29.3610523 C21.0316206,29.3162753 24.4112502,29.3162753 28.5316206,29.3162753 C32.6519909,29.2714983 36.0316206,29.3162753 36.0316206,29.3610523 Z" id="Path" fill="#E0E0E0"></path>
                    <path d="M36.0316206,31.3517787 C36.0316206,31.3965556 32.6474742,31.3965556 28.5316206,31.3965556 C24.3700352,31.3965556 21.0316206,31.3965556 21.0316206,31.3517787 C21.0316206,31.3070017 24.4157669,31.3070017 28.5316206,31.3070017 C32.6932059,31.3070017 36.0316206,31.3517787 36.0316206,31.3517787 Z" id="Path" fill="#E0E0E0"></path>
                    <path d="M36.0316206,33.3517787 C36.0316206,33.3965556 32.6633571,33.3965556 28.5316206,33.3965556 C24.399884,33.3965556 21.0316206,33.3965556 21.0316206,33.3517787 C21.0316206,33.3070017 24.399884,33.3070017 28.5316206,33.3070017 C32.6633571,33.3070017 36.0316206,33.3517787 36.0316206,33.3517787 Z" id="Path" fill="#E0E0E0"></path>
                    <path d="M36.0316206,35.3517787 C36.0316206,35.3965556 32.6786794,35.3965556 28.5316206,35.3965556 C24.3845617,35.3965556 21.0316206,35.3965556 21.0316206,35.3517787 C21.0316206,35.3070017 24.3845617,35.3070017 28.5316206,35.3070017 C32.6786794,35.3070017 36.0316206,35.3070017 36.0316206,35.3517787 Z" id="Path" fill="#E0E0E0"></path>
                    <path d="M37.0316206,37.3610523 C37.0316206,37.4058292 33.4454137,37.4058292 29.0316206,37.4058292 C24.6178274,37.4058292 21.0316206,37.4058292 21.0316206,37.3610523 C21.0316206,37.3162753 24.6178274,37.3162753 29.0316206,37.3162753 C33.4454137,37.2714983 37.0316206,37.3162753 37.0316206,37.3610523 Z" id="Path" fill="#E0E0E0"></path>
                    <path d="M37.0316206,40.3517787 C37.0316206,40.3965556 33.4407115,40.3965556 29.0316206,40.3965556 C24.6225296,40.3965556 21.0316206,40.3965556 21.0316206,40.3517787 C21.0316206,40.3070017 24.6225296,40.3070017 29.0316206,40.3070017 C33.4407115,40.3070017 37.0316206,40.3517787 37.0316206,40.3517787 Z" id="Path" fill="#E0E0E0"></path>
                    <path d="M37.0316206,42.3517787 C37.0316206,42.3965556 33.4361149,42.3965556 29.0316206,42.3965556 C24.6271262,42.3965556 21.0316206,42.3965556 21.0316206,42.3517787 C21.0316206,42.3070017 24.6271262,42.3070017 29.0316206,42.3070017 C33.4361149,42.3070017 37.0316206,42.3070017 37.0316206,42.3517787 Z" id="Path" fill="#E0E0E0"></path>
                    <path d="M37.0316206,44.3517787 C37.0316206,44.3965556 33.4515101,44.3965556 29.0316206,44.3965556 C24.6117311,44.3965556 21.0316206,44.3965556 21.0316206,44.3517787 C21.0316206,44.3070017 24.6117311,44.3070017 29.0316206,44.3070017 C33.4515101,44.3070017 37.0316206,44.3070017 37.0316206,44.3517787 Z" id="Path" fill="#E0E0E0"></path>
                    <path d="M38.0316206,46.3517787 C38.0316206,46.3965556 34.2337482,46.3965556 29.5316206,46.3965556 C24.8294929,46.3965556 21.0316206,46.3965556 21.0316206,46.3517787 C21.0316206,46.3070017 24.8294929,46.3070017 29.5316206,46.3070017 C34.2337482,46.3070017 38.0316206,46.3517787 38.0316206,46.3517787 Z" id="Path" fill="#E0E0E0"></path>
                    <path d="M37.0316206,48.3517787 C37.0316206,48.3965556 33.2197649,48.3965556 28.5316206,48.3965556 C23.8434762,48.3965556 20.0316206,48.3965556 20.0316206,48.3517787 C20.0316206,48.3070017 23.8434762,48.3070017 28.5316206,48.3070017 C33.2635793,48.3070017 37.0316206,48.3070017 37.0316206,48.3517787 Z" id="Path" fill="#E0E0E0"></path>
                    <path d="M38.0316206,50.3517787 C38.0316206,50.3965556 34.011316,50.3965556 29.0316206,50.3965556 C24.0519251,50.3965556 20.0316206,50.3965556 20.0316206,50.3517787 C20.0316206,50.3070017 24.0519251,50.3070017 29.0316206,50.3070017 C34.011316,50.3070017 38.0316206,50.3070017 38.0316206,50.3517787 Z" id="Path" fill="#E0E0E0"></path>
                    <path d="M38.0316206,52.3517787 C38.0316206,52.3965556 34.0064949,52.3965556 29.0316206,52.3965556 C24.0567462,52.3965556 20.0316206,52.3965556 20.0316206,52.3517787 C20.0316206,52.3070017 24.0567462,52.3070017 29.0316206,52.3070017 C34.0064949,52.3070017 38.0316206,52.3517787 38.0316206,52.3517787 Z" id="Path" fill="#E0E0E0"></path>
                    <path d="M38.0316206,54.4413326 C38.0316206,54.4861095 34.0017698,54.4413326 29.0316206,54.3965556 C24.0614713,54.3517787 20.0316206,54.3070017 20.0316206,54.2622247 C20.0316206,54.2174478 24.0614713,54.2622247 29.0316206,54.3070017 C34.0017698,54.3517787 38.0316206,54.3965556 38.0316206,54.4413326 Z" id="Path" fill="#E0E0E0"></path>
                    <path d="M38.0316206,57.2622247 C38.0316206,57.3070017 33.7840244,57.3517787 28.5316206,57.3965556 C23.2792167,57.4413326 19.0316206,57.4861095 19.0316206,57.4413326 C19.0316206,57.3965556 23.2792167,57.3517787 28.5316206,57.3070017 C33.7840244,57.2622247 38.0316206,57.2174478 38.0316206,57.2622247 Z" id="Path" fill="#E0E0E0"></path>
                    <g transform="translate(26.031621, 27.351779)" id="Path">
                        <path d="M0,19.0693496 C0.998181818,19.2008624 1.99636364,18.9378369 2.82094862,18.3241107 C3.6455336,17.7103845 4.25312253,16.9213079 4.81731225,16.0883938 C6.8570751,13.0197628 8.07225296,9.42508085 8.33264822,5.74272368 C8.37604743,4.90980956 8.46284585,1.44664032 8.28924901,0.0876751707 C7.7684585,4.07689544 6.59667984,8.3729788 5.55509881,10.784046 C4.25312253,13.8965146 3.03794466,16.1322314 0.82458498,18.7186489" fill="#4679AE"></path>
                        <g opacity="0.2" fill="#000000">
                            <path d="M0,19.0693496 C0.998181818,19.2008624 1.99636364,18.9378369 2.82094862,18.3241107 C3.6455336,17.7103845 4.25312253,16.9213079 4.81731225,16.0883938 C6.8570751,13.0197628 8.07225296,9.42508085 8.33264822,5.74272368 C8.37604743,4.90980956 8.46284585,1.44664032 8.28924901,0.0876751707 C7.7684585,4.07689544 6.59667984,8.3729788 5.55509881,10.784046 C4.25312253,13.8965146 3.03794466,16.1322314 0.82458498,18.7186489"></path>
                        </g>
                    </g>
                    <path d="M36.0316206,49.3517787 C36.0316206,49.3517787 35.5081306,49.9475233 34.4611508,50.7985872 C33.9376608,51.2241191 33.3269226,51.6922042 32.5853118,52.1602893 C31.8437011,52.6283744 31.014842,53.0964595 30.0987346,53.5219914 C29.1826273,53.9475233 28.2665199,54.2879489 27.4376608,54.543268 C26.6088018,54.7985872 25.8235669,54.9687999 25.1692044,55.0964595 C23.8604796,55.3517787 23.0316206,55.3517787 23.0316206,55.3517787 C23.0316206,55.3517787 23.0752447,55.3517787 23.162493,55.3092255 C23.2933655,55.3092255 23.424238,55.2666723 23.5987346,55.2666723 C23.9477279,55.2241191 24.4712179,55.1390127 25.1255803,55.0113531 C25.7799427,54.8836935 26.5215534,54.7134808 27.3504125,54.4581616 C28.1792716,54.2028425 29.0953789,53.862417 29.9678622,53.436885 C30.8839695,53.0113531 31.7128286,52.543268 32.4544393,52.0751829 C33.1960501,51.6070978 33.8067883,51.1390127 34.3302783,50.756034 C34.8537682,50.3305021 35.2463857,49.9900765 35.5081306,49.7347574 C35.6390031,49.6070978 35.7262514,49.5219914 35.8134997,49.436885 C35.9879964,49.3943318 36.0316206,49.3517787 36.0316206,49.3517787 Z" id="Path" fill="#263238"></path>
                    <g transform="translate(23.031621, 21.351779)" fill="#263238" id="Path">
                        <path d="M8.76886592,17.4967339 C8.76886592,17.4967339 8.72435391,17.4967339 8.6798419,17.4967339 C8.59081788,17.4510506 8.50179386,17.4510506 8.41276984,17.4053672 C8.14569778,17.3140004 7.83411371,17.2226337 7.47801763,17.0855835 C6.63228945,16.7657999 5.60851323,16.3546495 4.49571298,15.9434991 C3.33840073,15.4866653 2.2701125,15.1668816 1.46889632,14.9384647 C1.11280024,14.847098 0.801216175,14.7557312 0.534144117,14.6643645 C0.445120097,14.6186811 0.356096078,14.6186811 0.267072058,14.5729977 C0.222560049,14.5729977 0.178048039,14.5273143 0.178048039,14.5273143 C0.178048039,14.5273143 0.222560049,14.5273143 0.267072058,14.5273143 C0.356096078,14.5273143 0.445120097,14.5729977 0.534144117,14.5729977 C0.756704165,14.6186811 1.06828823,14.7100478 1.46889632,14.8014146 C2.2701125,15.0298315 3.33840073,15.3496151 4.49571298,15.8064489 C5.65302524,16.2632827 6.72131347,16.6744331 7.47801763,16.9942168 C7.83411371,17.1312669 8.10118577,17.2226337 8.36825783,17.3596838 C8.45728185,17.4053672 8.54630587,17.4053672 8.59081788,17.4510506 C8.76886592,17.4967339 8.76886592,17.4967339 8.76886592,17.4967339 Z"></path>
                        <path d="M8.76886592,17.4967339 C8.76886592,17.4967339 8.81337793,17.3596838 8.90240195,17.1312669 C8.99142597,16.8571666 9.12496199,16.537383 9.25849802,16.1262326 C9.57008209,15.2582484 10.0152022,13.9791138 10.4158103,12.3345122 C10.8164184,10.7355939 11.1280024,8.72552528 11.4395865,6.53272311 C11.6176345,5.43632203 11.6621465,4.24855419 11.3060505,3.10646973 C11.1280024,2.55826919 10.8164184,2.01006865 10.4158103,1.55323487 C10.2377622,1.32481797 10.0152022,1.09640108 9.79264214,0.913667568 C9.57008209,0.685250676 9.30301003,0.502517162 9.03593798,0.411150406 C8.45728185,0.137050135 7.83411371,0.0913667568 7.25545759,0.228416892 C6.67680146,0.319783649 6.09814533,0.593883919 5.60851323,0.913667568 C4.62924901,1.55323487 4.1396169,2.69531933 3.78352083,3.74603703 C3.11584068,5.84747244 2.49267254,7.72049095 1.95852843,9.31940919 C1.42438431,10.8726441 1.02377622,12.197462 0.712192156,13.1111296 C0.578656126,13.52228 0.445120097,13.887747 0.356096078,14.1161639 C0.267072058,14.3445808 0.222560049,14.481631 0.222560049,14.481631 C0.222560049,14.481631 0.267072058,14.3445808 0.311584068,14.1161639 C0.400608088,13.8420637 0.489632107,13.52228 0.623168136,13.0654462 C0.934752204,12.1517787 1.33536029,10.8726441 1.8249924,9.27372582 C2.35913652,7.67480757 2.93779264,5.75610568 3.60547279,3.65467027 C3.78352083,3.15215311 3.96156887,2.60395257 4.27315293,2.10143541 C4.54022499,1.59891824 4.94083308,1.14208446 5.43046519,0.776617433 C5.92009729,0.456833784 6.49875342,0.182733514 7.07740955,0.0913667568 C7.70057768,-3.24532068e-14 8.32374582,-3.24532068e-14 8.90240195,0.27410027 C9.21398601,0.411150406 9.43654606,0.593883919 9.70361812,0.822300811 C9.92617817,1.0507177 10.1487382,1.23345122 10.3712983,1.50755149 C10.7719064,1.96438527 11.0834904,2.51258581 11.3060505,3.10646973 C11.7066586,4.29423757 11.6176345,5.48200541 11.4395865,6.57840649 C11.1280024,8.77120865 10.8164184,10.7355939 10.3712983,12.3801955 C9.92617817,13.9791138 9.48105807,15.2582484 9.169474,16.171916 C8.99142597,17.0399001 8.76886592,17.4967339 8.76886592,17.4967339 Z"></path>
                    </g>
                    <path d="M35.5479446,64.3517787 L35.9136036,90.1840719 C35.959311,91.9625431 36.1421405,93.7410142 36.5077995,95.4750236 C37.0105807,97.8759596 37.8790208,100.988284 39.2959495,102.900141 C41.4441961,105.834618 49.0316206,114.104509 49.0316206,114.104509 L42.6325879,121.351779 C42.6325879,121.351779 29.1032046,110.858799 28.2347644,101.166131 C27.7776907,96.2308738 28.2347644,66.7971765 28.2347644,66.7971765 L35.5479446,64.3517787 Z" id="Path" fill="#263238"></path>
                    <path d="M21.2081604,58.1559836 L21.0316206,125.351779 L31.2709301,125.351779 L33.0804632,66.8682044 C33.0804632,66.8682044 36.0375052,64.90237 36.5671247,62.3557208 C37.273284,58.9601886 36.9643393,57.3517787 36.9643393,57.3517787 L21.2081604,58.1559836 Z" id="Path" fill="#263238"></path>
                    <rect id="Rectangle" fill="#455A64" x="20.0316206" y="123.351779" width="11" height="2"></rect>
                    <polygon id="Rectangle" fill="#455A64" transform="translate(45.141912, 117.577980) rotate(-46.519479) translate(-45.141912, -117.577980) " points="39.5000801 116.772004 50.7837446 116.772004 50.7837446 118.383956 39.5000801 118.383956"></polygon>
                    <path d="M48.0316206,113.351779 C48.0316206,113.351779 48.0316206,113.396082 47.9858689,113.440386 C47.9401173,113.48469 47.848614,113.573298 47.8028624,113.661905 C47.5741042,113.883424 47.345346,114.149247 47.0708362,114.41507 C46.4303134,115.079627 45.606784,115.965703 44.6459996,116.940386 C43.6852153,117.870766 42.8159343,118.712538 42.1296598,119.377095 C41.85515,119.642918 41.5806402,119.908741 41.351882,120.13026 C41.2603787,120.218867 41.2146271,120.263171 41.1231238,120.307475 C41.0773722,120.351779 41.0316206,120.351779 41.0316206,120.351779 C41.0316206,120.351779 41.0316206,120.307475 41.0773722,120.263171 C41.1231238,120.218867 41.2146271,120.13026 41.2603787,120.041652 C41.4891369,119.820133 41.7178951,119.55431 41.9924049,119.288488 C42.6786794,118.623931 43.5479604,117.782158 44.4629931,116.807475 C45.3780258,115.877095 46.2473068,114.991019 46.8878297,114.282158 C47.2080911,113.972032 47.4826009,113.706209 47.6656075,113.528994 C47.7571107,113.440386 47.8028624,113.396082 47.8943657,113.351779 C47.9858689,113.396082 48.0316206,113.351779 48.0316206,113.351779 Z" id="Path" fill="#263238"></path>
                    <path d="M29.0316206,57.3517787 C29.0316206,57.3517787 29.0316206,57.3964034 28.9886098,57.5302776 C28.945599,57.6195271 28.9025883,57.7980261 28.8165668,58.0211499 C28.7305453,58.2442736 28.601513,58.4673973 28.3864593,58.7351458 C28.1714055,59.0028943 27.913341,59.226018 27.6122657,59.5383912 C27.3111904,59.8507645 26.9671044,60.1631377 26.7090399,60.5647604 C26.4079646,61.0110079 26.4509754,61.5911296 26.4079646,62.1712513 C26.3649539,63.3761194 26.3219431,64.7594866 26.2789324,66.2321032 C26.2359216,67.7493446 26.1929109,69.4004602 26.1068894,71.1854501 C26.0638786,72.9704399 26.0208679,74.8446793 25.9348464,76.8527929 C25.8488249,80.86902 25.6767818,85.2422452 25.5907603,89.8832188 C25.4617281,99.1205413 25.2896851,107.465369 25.2036636,113.534334 C25.0746313,119.424801 25.0316206,122.727032 25.0316206,123.351779 C25.0316206,123.351779 25.0316206,123.128655 25.0316206,122.682407 C25.0316206,122.23616 25.0316206,121.566789 25.0746313,120.718919 C25.1176421,119.023178 25.1176421,116.568817 25.1606528,113.534334 C25.2466743,107.465369 25.3757066,99.1205413 25.5047388,89.8832188 C25.5907603,85.2868699 25.7628033,80.86902 25.8488249,76.8527929 C25.8918356,74.8446793 25.9778571,72.9704399 26.0208679,71.1854501 C26.0638786,69.4004602 26.1499001,67.7493446 26.1929109,66.2321032 C26.2359216,64.7148618 26.2789324,63.3314947 26.3219431,62.1712513 C26.3649539,61.5911296 26.3219431,60.9663831 26.6230184,60.5201357 C26.9240937,60.1185129 27.2681797,59.761515 27.5262442,59.4937665 C27.8273195,59.1813933 28.085384,58.9582695 28.3004378,58.690521 C28.5154915,58.4227726 28.6445238,58.1996488 28.7305453,58.0211499 C28.8165668,57.7980261 28.8595775,57.6641519 28.9025883,57.5302776 C28.9886098,57.3964034 29.0316206,57.3517787 29.0316206,57.3517787 Z" id="Path" fill="#455A64"></path>
                    <g transform="translate(22.031621, 57.351779)" fill="#455A64" id="Path">
                        <path d="M0.62687747,1.2055336 C0.62687747,1.2055336 0.530434783,1.15731225 0.482213439,1.01264822 C0.433992095,0.916205534 0.385770751,0.771541502 0.433992095,0.771541502 C0.482213439,0.771541502 0.530434783,0.86798419 0.578656126,0.964426877 C0.62687747,1.10909091 0.675098814,1.2055336 0.62687747,1.2055336 Z"></path>
                        <path d="M1.25375494,1.92885375 C1.25375494,1.92885375 1.15731225,1.88063241 1.06086957,1.78418972 C0.964426877,1.68774704 0.916205534,1.59130435 0.916205534,1.59130435 C0.916205534,1.59130435 1.01264822,1.63952569 1.10909091,1.73596838 C1.25375494,1.83241107 1.30197628,1.88063241 1.25375494,1.92885375 Z"></path>
                        <path d="M2.07351779,2.45928854 C2.07351779,2.50750988 1.9770751,2.45928854 1.83241107,2.41106719 C1.73596838,2.36284585 1.63952569,2.26640316 1.63952569,2.26640316 C1.63952569,2.26640316 1.78418972,2.26640316 1.88063241,2.31462451 C2.02529644,2.36284585 2.12173913,2.41106719 2.07351779,2.45928854 Z"></path>
                        <path d="M3.03794466,2.70039526 C3.03794466,2.7486166 2.94150198,2.7486166 2.79683794,2.70039526 C2.65217391,2.65217391 2.55573123,2.65217391 2.55573123,2.60395257 C2.55573123,2.55573123 2.65217391,2.55573123 2.79683794,2.60395257 C2.94150198,2.60395257 3.03794466,2.65217391 3.03794466,2.70039526 Z"></path>
                        <path d="M4.00237154,2.65217391 C4.00237154,2.70039526 3.90592885,2.70039526 3.76126482,2.7486166 C3.61660079,2.7486166 3.5201581,2.7486166 3.5201581,2.70039526 C3.5201581,2.65217391 3.61660079,2.65217391 3.76126482,2.60395257 C3.85770751,2.60395257 3.9541502,2.65217391 4.00237154,2.65217391 Z"></path>
                        <path d="M4.87035573,2.31462451 C4.87035573,2.36284585 4.77391304,2.41106719 4.67747036,2.45928854 C4.53280632,2.50750988 4.43636364,2.55573123 4.43636364,2.50750988 C4.43636364,2.45928854 4.53280632,2.41106719 4.62924901,2.36284585 C4.77391304,2.31462451 4.87035573,2.31462451 4.87035573,2.31462451 Z"></path>
                        <path d="M5.64189723,1.73596838 C5.64189723,1.73596838 5.59367589,1.83241107 5.4972332,1.92885375 C5.40079051,2.02529644 5.30434783,2.07351779 5.30434783,2.02529644 C5.30434783,2.02529644 5.35256917,1.92885375 5.44901186,1.83241107 C5.54545455,1.78418972 5.64189723,1.73596838 5.64189723,1.73596838 Z"></path>
                        <path d="M6.22055336,1.01264822 C6.2687747,1.01264822 6.22055336,1.10909091 6.12411067,1.25375494 C6.02766798,1.35019763 5.97944664,1.44664032 5.9312253,1.44664032 C5.9312253,1.44664032 5.9312253,1.35019763 6.02766798,1.2055336 C6.12411067,1.06086957 6.22055336,0.964426877 6.22055336,1.01264822 Z"></path>
                        <path d="M6.50988142,0.385770751 C6.55810277,0.385770751 6.55810277,0.433992095 6.50988142,0.482213439 C6.50988142,0.530434783 6.46166008,0.578656126 6.41343874,0.530434783 C6.36521739,0.530434783 6.36521739,0.482213439 6.41343874,0.433992095 C6.41343874,0.385770751 6.46166008,0.385770751 6.50988142,0.385770751 Z"></path>
                    </g>
                    <g transform="translate(23.031621, 61.351779)" fill="#455A64" id="Path">
                        <path d="M2.07351779,0.625459196 C2.02529644,0.625459196 2.02529644,0.536107882 2.02529644,0.402080911 C2.02529644,0.268053941 2.07351779,0.178702627 2.07351779,0.178702627 C2.12173913,0.178702627 2.12173913,0.268053941 2.12173913,0.402080911 C2.12173913,0.536107882 2.12173913,0.625459196 2.07351779,0.625459196 Z"></path>
                        <path d="M2.02529644,1.51897233 C1.9770751,1.51897233 1.9770751,1.42962102 1.9770751,1.29559405 C1.9770751,1.16156708 2.02529644,1.07221576 2.02529644,1.07221576 C2.07351779,1.07221576 2.07351779,1.16156708 2.07351779,1.29559405 C2.07351779,1.42962102 2.07351779,1.51897233 2.02529644,1.51897233 Z"></path>
                        <path d="M2.02529644,2.41248547 C1.9770751,2.41248547 1.9770751,2.32313415 1.9770751,2.18910718 C1.9770751,2.05508021 2.02529644,1.9657289 2.02529644,1.9657289 C2.07351779,1.9657289 2.07351779,2.05508021 2.07351779,2.18910718 C2.07351779,2.32313415 2.02529644,2.41248547 2.02529644,2.41248547 Z"></path>
                        <path d="M1.9770751,3.3059986 C1.92885375,3.3059986 1.92885375,3.21664729 1.92885375,3.08262032 C1.92885375,2.94859335 1.9770751,2.85924204 1.9770751,2.85924204 C2.02529644,2.85924204 2.02529644,2.94859335 2.02529644,3.08262032 C2.02529644,3.21664729 2.02529644,3.3059986 1.9770751,3.3059986 Z"></path>
                        <path d="M1.92885375,4.19951174 C1.88063241,4.19951174 1.88063241,4.11016043 1.88063241,3.97613346 C1.88063241,3.84210649 1.92885375,3.75275517 1.92885375,3.75275517 C1.92885375,3.75275517 1.9770751,3.84210649 1.9770751,3.97613346 C2.02529644,4.11016043 1.9770751,4.19951174 1.92885375,4.19951174 Z"></path>
                        <path d="M1.92885375,5.09302488 C1.88063241,5.09302488 1.88063241,5.00367356 1.88063241,4.86964659 C1.88063241,4.73561962 1.92885375,4.64626831 1.92885375,4.64626831 C1.9770751,4.64626831 1.9770751,4.73561962 1.9770751,4.86964659 C1.9770751,5.00367356 1.92885375,5.09302488 1.92885375,5.09302488 Z"></path>
                        <path d="M1.88063241,5.98653801 C1.83241107,5.98653801 1.83241107,5.8971867 1.83241107,5.76315973 C1.83241107,5.62913276 1.88063241,5.53978145 1.88063241,5.53978145 C1.92885375,5.53978145 1.92885375,5.62913276 1.92885375,5.76315973 C1.92885375,5.8971867 1.92885375,5.98653801 1.88063241,5.98653801 Z"></path>
                        <path d="M1.88063241,6.88005115 C1.83241107,6.88005115 1.83241107,6.79069984 1.83241107,6.65667287 C1.83241107,6.5226459 1.88063241,6.43329458 1.88063241,6.43329458 C1.92885375,6.43329458 1.92885375,6.5226459 1.92885375,6.65667287 C1.92885375,6.79069984 1.88063241,6.88005115 1.88063241,6.88005115 Z"></path>
                        <path d="M1.83241107,7.77356429 C1.78418972,7.77356429 1.78418972,7.68421297 1.78418972,7.550186 C1.78418972,7.41615903 1.83241107,7.32680772 1.83241107,7.32680772 C1.88063241,7.32680772 1.88063241,7.41615903 1.88063241,7.550186 C1.88063241,7.68421297 1.88063241,7.77356429 1.83241107,7.77356429 Z"></path>
                        <path d="M1.83241107,8.66707742 C1.78418972,8.66707742 1.78418972,8.57772611 1.78418972,8.44369914 C1.78418972,8.30967217 1.83241107,8.22032086 1.83241107,8.22032086 C1.88063241,8.22032086 1.88063241,8.30967217 1.88063241,8.44369914 C1.88063241,8.57772611 1.83241107,8.66707742 1.83241107,8.66707742 Z"></path>
                        <path d="M1.78418972,9.56059056 C1.73596838,9.56059056 1.73596838,9.47123925 1.73596838,9.33721228 C1.73596838,9.20318531 1.78418972,9.11383399 1.78418972,9.11383399 C1.83241107,9.11383399 1.83241107,9.20318531 1.83241107,9.33721228 C1.83241107,9.47123925 1.83241107,9.56059056 1.78418972,9.56059056 Z"></path>
                        <path d="M1.73596838,10.4541037 C1.68774704,10.4541037 1.68774704,10.3647524 1.68774704,10.2307254 C1.68774704,10.0966984 1.73596838,10.0073471 1.73596838,10.0073471 C1.78418972,10.0073471 1.78418972,10.0966984 1.78418972,10.2307254 C1.83241107,10.3647524 1.78418972,10.4541037 1.73596838,10.4541037 Z"></path>
                        <path d="M1.73596838,11.3476168 C1.68774704,11.3476168 1.68774704,11.2582655 1.68774704,11.1242385 C1.68774704,10.9902116 1.73596838,10.9008603 1.73596838,10.9008603 C1.78418972,10.9008603 1.78418972,10.9902116 1.78418972,11.1242385 C1.78418972,11.2582655 1.78418972,11.3476168 1.73596838,11.3476168 Z"></path>
                        <path d="M1.68774704,12.24113 C1.63952569,12.24113 1.63952569,12.1517787 1.63952569,12.0177517 C1.63952569,11.8837247 1.68774704,11.7943734 1.68774704,11.7943734 C1.73596838,11.7943734 1.73596838,11.8837247 1.73596838,12.0177517 C1.78418972,12.1517787 1.73596838,12.24113 1.68774704,12.24113 Z"></path>
                        <path d="M1.68774704,13.1346431 C1.63952569,13.1346431 1.63952569,13.0452918 1.63952569,12.9112648 C1.63952569,12.7772379 1.68774704,12.6878865 1.68774704,12.6878865 C1.73596838,12.6878865 1.73596838,12.7772379 1.73596838,12.9112648 C1.73596838,13.0452918 1.73596838,13.1346431 1.68774704,13.1346431 Z"></path>
                        <path d="M1.63952569,14.0728319 C1.59130435,14.0728319 1.59130435,13.9834806 1.59130435,13.8494536 C1.59130435,13.7154266 1.63952569,13.6260753 1.63952569,13.6260753 C1.68774704,13.6260753 1.68774704,13.7154266 1.68774704,13.8494536 C1.73596838,13.9388049 1.68774704,14.0728319 1.63952569,14.0728319 Z"></path>
                        <path d="M1.63952569,14.966345 C1.59130435,14.966345 1.59130435,14.8769937 1.59130435,14.7429668 C1.59130435,14.6089398 1.63952569,14.5195885 1.63952569,14.5195885 C1.68774704,14.5195885 1.68774704,14.6089398 1.68774704,14.7429668 C1.68774704,14.8323181 1.68774704,14.966345 1.63952569,14.966345 Z"></path>
                        <path d="M1.63952569,15.8598582 C1.59130435,15.8598582 1.59130435,15.7705069 1.59130435,15.6364799 C1.59130435,15.5024529 1.63952569,15.4131016 1.63952569,15.4131016 C1.68774704,15.4131016 1.68774704,15.5024529 1.68774704,15.6364799 C1.68774704,15.7258312 1.63952569,15.8598582 1.63952569,15.8598582 Z"></path>
                        <path d="M1.59130435,16.7533713 C1.543083,16.7533713 1.543083,16.66402 1.543083,16.529993 C1.543083,16.3959661 1.59130435,16.3066147 1.59130435,16.3066147 C1.63952569,16.3066147 1.63952569,16.3959661 1.63952569,16.529993 C1.63952569,16.6193443 1.63952569,16.7533713 1.59130435,16.7533713 Z"></path>
                        <path d="M1.59130435,17.6468844 C1.543083,17.6468844 1.543083,17.5575331 1.543083,17.4235062 C1.543083,17.2894792 1.59130435,17.2001279 1.59130435,17.2001279 C1.63952569,17.2001279 1.63952569,17.2894792 1.63952569,17.4235062 C1.63952569,17.5128575 1.59130435,17.6468844 1.59130435,17.6468844 Z"></path>
                        <path d="M1.543083,18.5403976 C1.49486166,18.5403976 1.49486166,18.4510463 1.49486166,18.3170193 C1.49486166,18.1829923 1.543083,18.093641 1.543083,18.093641 C1.59130435,18.093641 1.59130435,18.1829923 1.59130435,18.3170193 C1.59130435,18.4510463 1.59130435,18.5403976 1.543083,18.5403976 Z"></path>
                        <path d="M1.543083,19.4339107 C1.49486166,19.4339107 1.49486166,19.3445594 1.49486166,19.2105324 C1.49486166,19.0765055 1.543083,18.9871542 1.543083,18.9871542 C1.59130435,18.9871542 1.59130435,19.0765055 1.59130435,19.2105324 C1.59130435,19.3445594 1.543083,19.4339107 1.543083,19.4339107 Z"></path>
                        <path d="M1.49486166,20.3274239 C1.44664032,20.3274239 1.44664032,20.2380725 1.44664032,20.1040456 C1.44664032,19.9700186 1.49486166,19.8806673 1.49486166,19.8806673 C1.543083,19.8806673 1.543083,19.9700186 1.543083,20.1040456 C1.543083,20.2380725 1.543083,20.3274239 1.49486166,20.3274239 Z"></path>
                        <path d="M1.49486166,21.220937 C1.44664032,21.220937 1.44664032,21.1315857 1.44664032,20.9975587 C1.44664032,20.8635317 1.49486166,20.7741804 1.49486166,20.7741804 C1.49486166,20.7741804 1.543083,20.8635317 1.543083,20.9975587 C1.543083,21.1315857 1.49486166,21.220937 1.49486166,21.220937 Z"></path>
                        <path d="M1.44664032,22.1144501 C1.39841897,22.1144501 1.39841897,22.0250988 1.39841897,21.8910718 C1.39841897,21.7570449 1.44664032,21.6676936 1.44664032,21.6676936 C1.49486166,21.6676936 1.49486166,21.7570449 1.49486166,21.8910718 C1.543083,22.0250988 1.49486166,22.1144501 1.44664032,22.1144501 Z"></path>
                        <path d="M1.44664032,23.0079633 C1.39841897,23.0079633 1.39841897,22.918612 1.39841897,22.784585 C1.39841897,22.650558 1.44664032,22.5612067 1.44664032,22.5612067 C1.49486166,22.5612067 1.49486166,22.650558 1.49486166,22.784585 C1.49486166,22.918612 1.49486166,23.0079633 1.44664032,23.0079633 Z"></path>
                        <path d="M1.44664032,23.9014764 C1.39841897,23.9014764 1.39841897,23.8121251 1.39841897,23.6780981 C1.39841897,23.5440711 1.44664032,23.4547198 1.44664032,23.4547198 C1.49486166,23.4547198 1.49486166,23.5440711 1.49486166,23.6780981 C1.49486166,23.8121251 1.44664032,23.9014764 1.44664032,23.9014764 Z"></path>
                        <path d="M1.39841897,24.7949895 C1.35019763,24.7949895 1.35019763,24.7056382 1.35019763,24.5716113 C1.35019763,24.4375843 1.39841897,24.348233 1.39841897,24.348233 C1.44664032,24.348233 1.44664032,24.4375843 1.44664032,24.5716113 C1.44664032,24.7056382 1.44664032,24.7949895 1.39841897,24.7949895 Z"></path>
                        <path d="M1.39841897,25.6885027 C1.35019763,25.6885027 1.35019763,25.5991514 1.35019763,25.4651244 C1.35019763,25.3310974 1.39841897,25.2417461 1.39841897,25.2417461 C1.44664032,25.2417461 1.44664032,25.3310974 1.44664032,25.4651244 C1.44664032,25.5991514 1.39841897,25.6885027 1.39841897,25.6885027 Z"></path>
                        <path d="M1.35019763,26.5820158 C1.30197628,26.5820158 1.30197628,26.4926645 1.30197628,26.3586375 C1.30197628,26.2246106 1.35019763,26.1352592 1.35019763,26.1352592 C1.39841897,26.1352592 1.39841897,26.2246106 1.39841897,26.3586375 C1.44664032,26.4926645 1.39841897,26.5820158 1.35019763,26.5820158 Z"></path>
                        <path d="M1.35019763,27.4755289 C1.30197628,27.4755289 1.30197628,27.3861776 1.30197628,27.2521507 C1.30197628,27.1181237 1.35019763,27.0287724 1.35019763,27.0287724 C1.39841897,27.0287724 1.39841897,27.1181237 1.39841897,27.2521507 C1.39841897,27.3861776 1.39841897,27.4755289 1.35019763,27.4755289 Z"></path>
                        <path d="M1.35019763,28.3690421 C1.30197628,28.3690421 1.30197628,28.2796908 1.30197628,28.1456638 C1.30197628,28.0116368 1.35019763,27.9222855 1.35019763,27.9222855 C1.35019763,27.9222855 1.39841897,28.0116368 1.39841897,28.1456638 C1.39841897,28.2796908 1.35019763,28.3690421 1.35019763,28.3690421 Z"></path>
                        <path d="M1.30197628,29.2625552 C1.25375494,29.2625552 1.25375494,29.1732039 1.25375494,29.0391769 C1.25375494,28.90515 1.30197628,28.8157987 1.30197628,28.8157987 C1.30197628,28.8157987 1.35019763,28.90515 1.35019763,29.0391769 C1.35019763,29.1732039 1.35019763,29.2625552 1.30197628,29.2625552 Z"></path>
                        <path d="M1.30197628,30.1560684 C1.25375494,30.1560684 1.25375494,30.066717 1.25375494,29.9326901 C1.25375494,29.7986631 1.30197628,29.7093118 1.30197628,29.7093118 C1.35019763,29.7093118 1.35019763,29.7986631 1.35019763,29.9326901 C1.35019763,30.066717 1.30197628,30.1560684 1.30197628,30.1560684 Z"></path>
                        <path d="M1.30197628,31.0942571 C1.25375494,31.0942571 1.25375494,31.0049058 1.25375494,30.8708789 C1.25375494,30.7368519 1.30197628,30.6475006 1.30197628,30.6475006 C1.35019763,30.6475006 1.35019763,30.7368519 1.35019763,30.8708789 C1.35019763,30.9602302 1.30197628,31.0942571 1.30197628,31.0942571 Z"></path>
                        <path d="M1.25375494,31.9877703 C1.2055336,31.9877703 1.2055336,31.898419 1.2055336,31.764392 C1.2055336,31.630365 1.25375494,31.5410137 1.25375494,31.5410137 C1.30197628,31.5410137 1.30197628,31.630365 1.30197628,31.764392 C1.30197628,31.898419 1.30197628,31.9877703 1.25375494,31.9877703 Z"></path>
                        <path d="M1.25375494,32.8812834 C1.2055336,32.8812834 1.2055336,32.7919321 1.2055336,32.6579051 C1.2055336,32.5238782 1.25375494,32.4345269 1.25375494,32.4345269 C1.30197628,32.4345269 1.30197628,32.5238782 1.30197628,32.6579051 C1.30197628,32.7472565 1.25375494,32.8812834 1.25375494,32.8812834 Z"></path>
                        <path d="M1.2055336,33.7747966 C1.15731225,33.7747966 1.15731225,33.6854452 1.15731225,33.5514183 C1.15731225,33.4173913 1.2055336,33.32804 1.2055336,33.32804 C1.25375494,33.32804 1.25375494,33.4173913 1.25375494,33.5514183 C1.30197628,33.6407696 1.25375494,33.7747966 1.2055336,33.7747966 Z"></path>
                        <path d="M1.2055336,34.6683097 C1.15731225,34.6683097 1.15731225,34.5789584 1.15731225,34.4449314 C1.15731225,34.3109044 1.2055336,34.2215531 1.2055336,34.2215531 C1.25375494,34.2215531 1.25375494,34.3109044 1.25375494,34.4449314 C1.25375494,34.5789584 1.25375494,34.6683097 1.2055336,34.6683097 Z"></path>
                        <path d="M1.2055336,35.5618228 C1.15731225,35.5618228 1.15731225,35.4724715 1.15731225,35.3384445 C1.15731225,35.2044176 1.2055336,35.1150663 1.2055336,35.1150663 C1.2055336,35.1150663 1.25375494,35.2044176 1.25375494,35.3384445 C1.25375494,35.4724715 1.2055336,35.5618228 1.2055336,35.5618228 Z"></path>
                        <path d="M1.15731225,36.455336 C1.10909091,36.455336 1.10909091,36.3659847 1.10909091,36.2319577 C1.10909091,36.0979307 1.15731225,36.0085794 1.15731225,36.0085794 C1.2055336,36.0085794 1.2055336,36.0979307 1.2055336,36.2319577 C1.2055336,36.3659847 1.2055336,36.455336 1.15731225,36.455336 Z"></path>
                        <path d="M1.15731225,37.3488491 C1.10909091,37.3488491 1.10909091,37.2594978 1.10909091,37.1254708 C1.10909091,36.9914439 1.15731225,36.9020925 1.15731225,36.9020925 C1.2055336,36.9020925 1.2055336,36.9914439 1.2055336,37.1254708 C1.2055336,37.2594978 1.2055336,37.3488491 1.15731225,37.3488491 Z"></path>
                        <path d="M1.15731225,38.2423622 C1.10909091,38.2423622 1.10909091,38.1530109 1.10909091,38.018984 C1.10909091,37.884957 1.15731225,37.7956057 1.15731225,37.7956057 C1.2055336,37.7956057 1.2055336,37.884957 1.2055336,38.018984 C1.2055336,38.1530109 1.15731225,38.2423622 1.15731225,38.2423622 Z"></path>
                        <path d="M1.10909091,39.1358754 C1.06086957,39.1358754 1.06086957,39.0465241 1.06086957,38.9124971 C1.06086957,38.7784701 1.10909091,38.6891188 1.10909091,38.6891188 C1.15731225,38.6891188 1.15731225,38.7784701 1.15731225,38.9124971 C1.15731225,39.0465241 1.15731225,39.1358754 1.10909091,39.1358754 Z"></path>
                        <path d="M1.10909091,40.0293885 C1.06086957,40.0293885 1.06086957,39.9400372 1.06086957,39.8060102 C1.06086957,39.6719833 1.10909091,39.5826319 1.10909091,39.5826319 C1.15731225,39.5826319 1.15731225,39.6719833 1.15731225,39.8060102 C1.15731225,39.9400372 1.10909091,40.0293885 1.10909091,40.0293885 Z"></path>
                        <path d="M1.06086957,40.9229017 C1.01264822,40.9229017 1.01264822,40.8335503 1.01264822,40.6995234 C1.01264822,40.5654964 1.06086957,40.4761451 1.06086957,40.4761451 C1.06086957,40.4761451 1.10909091,40.5654964 1.10909091,40.6995234 C1.15731225,40.8335503 1.10909091,40.9229017 1.06086957,40.9229017 Z"></path>
                        <path d="M1.06086957,41.8164148 C1.01264822,41.8164148 1.01264822,41.7270635 1.01264822,41.5930365 C1.01264822,41.4590095 1.06086957,41.3696582 1.06086957,41.3696582 C1.10909091,41.3696582 1.10909091,41.4590095 1.10909091,41.5930365 C1.10909091,41.7270635 1.10909091,41.8164148 1.06086957,41.8164148 Z"></path>
                        <path d="M1.06086957,42.7099279 C1.01264822,42.7099279 1.01264822,42.6205766 1.01264822,42.4865496 C1.01264822,42.3525227 1.06086957,42.2631714 1.06086957,42.2631714 C1.06086957,42.2631714 1.10909091,42.3525227 1.10909091,42.4865496 C1.10909091,42.6205766 1.06086957,42.7099279 1.06086957,42.7099279 Z"></path>
                        <path d="M1.01264822,43.6034411 C0.964426877,43.6034411 0.964426877,43.5140897 0.964426877,43.3800628 C0.964426877,43.2460358 1.01264822,43.1566845 1.01264822,43.1566845 C1.01264822,43.1566845 1.06086957,43.2460358 1.06086957,43.3800628 C1.06086957,43.5140897 1.06086957,43.6034411 1.01264822,43.6034411 Z"></path>
                        <path d="M1.01264822,44.4969542 C0.964426877,44.4969542 0.964426877,44.4076029 0.964426877,44.2735759 C0.964426877,44.1395489 1.01264822,44.0501976 1.01264822,44.0501976 C1.06086957,44.0501976 1.06086957,44.1395489 1.06086957,44.2735759 C1.06086957,44.4076029 1.06086957,44.4969542 1.01264822,44.4969542 Z"></path>
                        <path d="M1.01264822,45.3904673 C0.964426877,45.3904673 0.964426877,45.301116 0.964426877,45.167089 C0.964426877,45.0330621 1.01264822,44.9437108 1.01264822,44.9437108 C1.06086957,44.9437108 1.06086957,45.0330621 1.06086957,45.167089 C1.06086957,45.301116 1.01264822,45.3904673 1.01264822,45.3904673 Z"></path>
                        <path d="M0.964426877,46.3286561 C0.916205534,46.3286561 0.916205534,46.2393048 0.916205534,46.1052778 C0.916205534,45.9712509 0.964426877,45.8818996 0.964426877,45.8818996 C1.01264822,45.8818996 1.01264822,45.9712509 1.01264822,46.1052778 C1.01264822,46.1946292 1.01264822,46.3286561 0.964426877,46.3286561 Z"></path>
                        <path d="M0.964426877,47.2221693 C0.916205534,47.2221693 0.916205534,47.1328179 0.916205534,46.998791 C0.916205534,46.864764 0.964426877,46.7754127 0.964426877,46.7754127 C1.01264822,46.7754127 1.01264822,46.864764 1.01264822,46.998791 C1.01264822,47.0881423 0.964426877,47.2221693 0.964426877,47.2221693 Z"></path>
                        <path d="M0.916205534,48.1156824 C0.86798419,48.1156824 0.86798419,48.0263311 0.86798419,47.8923041 C0.86798419,47.7582771 0.916205534,47.6689258 0.916205534,47.6689258 C0.964426877,47.6689258 0.964426877,47.7582771 0.964426877,47.8923041 C0.964426877,47.9816554 0.964426877,48.1156824 0.916205534,48.1156824 Z"></path>
                        <path d="M0.916205534,49.0091955 C0.86798419,49.0091955 0.86798419,48.9198442 0.86798419,48.7858173 C0.86798419,48.6517903 0.916205534,48.562439 0.916205534,48.562439 C0.964426877,48.562439 0.964426877,48.6517903 0.964426877,48.7858173 C0.964426877,48.9198442 0.964426877,49.0091955 0.916205534,49.0091955 Z"></path>
                        <path d="M0.916205534,49.9027087 C0.86798419,49.9027087 0.86798419,49.8133574 0.86798419,49.6793304 C0.86798419,49.5453034 0.916205534,49.4559521 0.916205534,49.4559521 C0.964426877,49.4559521 0.964426877,49.5453034 0.964426877,49.6793304 C0.964426877,49.7686817 0.916205534,49.9027087 0.916205534,49.9027087 Z"></path>
                        <path d="M0.86798419,50.7962218 C0.819762846,50.7962218 0.819762846,50.7068705 0.819762846,50.5728435 C0.819762846,50.4388166 0.86798419,50.3494652 0.86798419,50.3494652 C0.916205534,50.3494652 0.916205534,50.4388166 0.916205534,50.5728435 C0.916205534,50.6621948 0.916205534,50.7962218 0.86798419,50.7962218 Z"></path>
                        <path d="M0.86798419,51.6897349 C0.819762846,51.6897349 0.819762846,51.6003836 0.819762846,51.4663567 C0.819762846,51.3323297 0.86798419,51.2429784 0.86798419,51.2429784 C0.916205534,51.2429784 0.916205534,51.3323297 0.916205534,51.4663567 C0.916205534,51.6003836 0.86798419,51.6897349 0.86798419,51.6897349 Z"></path>
                        <path d="M0.819762846,52.5832481 C0.771541502,52.5832481 0.771541502,52.4938968 0.771541502,52.3598698 C0.771541502,52.2258428 0.819762846,52.1364915 0.819762846,52.1364915 C0.86798419,52.1364915 0.86798419,52.2258428 0.86798419,52.3598698 C0.86798419,52.4938968 0.86798419,52.5832481 0.819762846,52.5832481 Z"></path>
                        <path d="M0.819762846,53.4767612 C0.771541502,53.4767612 0.771541502,53.3874099 0.771541502,53.2533829 C0.771541502,53.119356 0.819762846,53.0300047 0.819762846,53.0300047 C0.86798419,53.0300047 0.86798419,53.119356 0.86798419,53.2533829 C0.86798419,53.3874099 0.819762846,53.4767612 0.819762846,53.4767612 Z"></path>
                        <path d="M0.771541502,54.3702744 C0.723320158,54.3702744 0.723320158,54.280923 0.723320158,54.1468961 C0.723320158,54.0128691 0.771541502,53.9235178 0.771541502,53.9235178 C0.819762846,53.9235178 0.819762846,54.0128691 0.819762846,54.1468961 C0.819762846,54.280923 0.819762846,54.3702744 0.771541502,54.3702744 Z"></path>
                        <path d="M0.771541502,55.2637875 C0.723320158,55.2637875 0.723320158,55.1744362 0.723320158,55.0404092 C0.723320158,54.9063822 0.771541502,54.8170309 0.771541502,54.8170309 C0.819762846,54.8170309 0.819762846,54.9063822 0.819762846,55.0404092 C0.819762846,55.1744362 0.819762846,55.2637875 0.771541502,55.2637875 Z"></path>
                        <path d="M0.723320158,56.1573006 C0.675098814,56.1573006 0.675098814,56.0679493 0.675098814,55.9339223 C0.675098814,55.7998954 0.723320158,55.7105441 0.723320158,55.7105441 C0.771541502,55.7105441 0.771541502,55.7998954 0.771541502,55.9339223 C0.819762846,56.0679493 0.771541502,56.1573006 0.723320158,56.1573006 Z"></path>
                        <path d="M0.723320158,57.0508138 C0.675098814,57.0508138 0.675098814,56.9614625 0.675098814,56.8274355 C0.675098814,56.6934085 0.723320158,56.6040572 0.723320158,56.6040572 C0.771541502,56.6040572 0.771541502,56.6934085 0.771541502,56.8274355 C0.771541502,56.9614625 0.771541502,57.0508138 0.723320158,57.0508138 Z"></path>
                        <path d="M0.723320158,57.9443269 C0.675098814,57.9443269 0.675098814,57.8549756 0.675098814,57.7209486 C0.675098814,57.5869216 0.723320158,57.4975703 0.723320158,57.4975703 C0.771541502,57.4975703 0.771541502,57.5869216 0.771541502,57.7209486 C0.771541502,57.8549756 0.723320158,57.9443269 0.723320158,57.9443269 Z"></path>
                        <path d="M0.675098814,58.83784 C0.62687747,58.83784 0.62687747,58.7484887 0.62687747,58.6144618 C0.62687747,58.4804348 0.675098814,58.3910835 0.675098814,58.3910835 C0.723320158,58.3910835 0.723320158,58.4804348 0.723320158,58.6144618 C0.723320158,58.7484887 0.723320158,58.83784 0.675098814,58.83784 Z"></path>
                        <path d="M0.62687747,59.7313532 C0.578656126,59.7313532 0.578656126,59.6420019 0.578656126,59.5079749 C0.578656126,59.3739479 0.62687747,59.2845966 0.62687747,59.2845966 C0.675098814,59.2845966 0.675098814,59.3739479 0.675098814,59.5079749 C0.723320158,59.6420019 0.675098814,59.7313532 0.62687747,59.7313532 Z"></path>
                        <path d="M0.62687747,60.6248663 C0.578656126,60.6248663 0.578656126,60.535515 0.578656126,60.401488 C0.578656126,60.2674611 0.62687747,60.1781097 0.62687747,60.1781097 C0.62687747,60.1781097 0.675098814,60.2674611 0.675098814,60.401488 C0.675098814,60.535515 0.675098814,60.6248663 0.62687747,60.6248663 Z"></path>
                        <path d="M0.578656126,61.5183794 C0.530434783,61.5183794 0.530434783,61.4290281 0.530434783,61.2950012 C0.530434783,61.1609742 0.578656126,61.0716229 0.578656126,61.0716229 C0.578656126,61.0716229 0.62687747,61.1609742 0.62687747,61.2950012 C0.675098814,61.4290281 0.62687747,61.5183794 0.578656126,61.5183794 Z"></path>
                        <path d="M0.578656126,62.3672169 C0.530434783,62.3672169 0.530434783,62.2778656 0.530434783,62.1438386 C0.530434783,62.0098117 0.578656126,61.9204604 0.578656126,61.9204604 C0.62687747,61.9204604 0.62687747,62.0098117 0.62687747,62.1438386 C0.62687747,62.2778656 0.62687747,62.3672169 0.578656126,62.3672169 Z"></path>
                    </g>
                    <path d="M22.9767682,20.3517787 C22.9303547,19.46141 22.6518737,15.4992697 22.6518737,15.4992697 C22.6518737,15.4992697 19.7278231,15.321196 19.4493421,12.6055718 C19.1244476,9.84542907 19.0316206,3.52381195 19.0316206,3.52381195 L19.0316206,3.52381195 C22.2341522,1.87663002 26.0864729,1.96566688 29.1961775,3.79092253 L29.9387935,4.23610684 L30.0316206,7.44143383 L29.8459665,10.3351318 L29.706726,18.214894 L22.9767682,20.3517787 C22.9767682,20.3517787 22.9767682,20.3517787 22.9767682,20.3517787 Z" id="Path" fill="#E5BAAB"></path>
                    <path d="M20.0316206,7.85177866 C20.0316206,8.10177866 20.2816206,8.35177866 20.5316206,8.35177866 C20.7816206,8.35177866 21.0316206,8.10177866 21.0316206,7.85177866 C21.0316206,7.60177866 20.7816206,7.35177866 20.5316206,7.35177866 C20.2816206,7.35177866 20.0316206,7.60177866 20.0316206,7.85177866 Z" id="Path" fill="#263238"></path>
                    <path d="M20.0441174,7.5727196 C20.0759723,7.61749656 20.267102,7.39361175 20.5219415,7.34883479 C20.776781,7.30405783 20.9997656,7.48316568 21.0316206,7.43838872 C21.0316206,7.39361175 20.9997656,7.34883479 20.9042008,7.25928087 C20.808636,7.16972694 20.6493613,7.12494998 20.4900866,7.12494998 C20.3308119,7.16972694 20.1715372,7.25928087 20.1078273,7.34883479 C20.0441174,7.48316568 20.0122625,7.5727196 20.0441174,7.5727196 Z" id="Path" fill="#263238"></path>
                    <path d="M24.2332326,7.46228544 C24.0343073,7.65234108 23.9679988,7.96910047 24.1006157,8.15915611 C24.299541,8.34921174 24.6310832,8.41256362 24.8300085,8.28585986 C25.0289338,8.09580423 25.0952423,7.77904483 24.9626254,7.5889892 C24.7637001,7.33558168 24.4321579,7.2722298 24.2332326,7.46228544 Z" id="Path" fill="#263238"></path>
                    <path d="M24.0316206,7.5727196 C24.0638786,7.61749656 24.257427,7.39361175 24.5154915,7.34883479 C24.773556,7.30405783 24.9993625,7.48316568 25.0316206,7.43838872 C25.0316206,7.39361175 24.9993625,7.34883479 24.9025883,7.25928087 C24.8058141,7.16972694 24.6445238,7.12494998 24.4832335,7.12494998 C24.3219431,7.16972694 24.1606528,7.25928087 24.0961367,7.34883479 C24.0638786,7.48316568 24.0316206,7.5727196 24.0316206,7.5727196 Z" id="Path" fill="#263238"></path>
                    <path d="M23.0316206,11.268567 C23.0316206,11.307983 22.8088483,11.307983 22.4078582,11.3473991 C22.3187493,11.3473991 22.1405314,11.3868152 22.0514225,11.2291509 C22.0068681,11.1109027 22.0514225,10.9532385 22.0514225,10.8744064 C22.1405314,10.63791 22.1850859,10.4014137 22.2741948,10.1649173 C22.586076,9.17951588 22.8979572,8.35177866 22.9425116,8.35177866 C22.9870661,8.35177866 22.8088483,9.17951588 22.4969671,10.2043334 C22.4078582,10.4408298 22.3633037,10.6773261 22.2741948,10.9138225 C22.2296404,11.0320706 22.1850859,11.1109027 22.2296404,11.1897349 C22.2296404,11.2291509 22.3187493,11.268567 22.4078582,11.268567 C22.7642938,11.1897349 23.0316206,11.2291509 23.0316206,11.268567 Z" id="Path" fill="#263238"></path>
                    <path d="M23.9704497,11.3925042 C24.3487578,11.1654483 22.8828138,11.9601439 22.0316206,11.9979866 C22.0316206,11.9979866 22.5517942,12.5656263 23.4029875,12.2628851 C24.2541808,11.9601439 23.9704497,11.3925042 23.9704497,11.3925042 Z" id="Path" fill="#FFFFFF"></path>
                    <path d="M23.0316206,15.6996047 C23.0316206,15.6996047 25.1056946,15.6561265 27.0316206,14.3517787 C27.0316206,14.3517787 26.1921144,16.3517787 23.130386,16.3517787 L23.0316206,15.6996047 Z" id="Path" fill="#D78776"></path>
                    <path d="M27.8527921,2.30582244 C27.0789703,1.67360351 26.3051484,1.08654307 25.4023563,0.680116619 C24.4995642,0.273690165 23.4248116,0.22853167 22.5650096,0.634958125 C22.1780987,0.815592104 21.7911877,1.13170157 21.4042768,1.31233555 C20.5444748,1.67360351 19.4697223,1.40265254 18.6959004,1.98971297 C18.0080588,2.53161491 17.8360984,3.61541879 18.2659994,4.4282717 C18.6529103,5.24112461 19.5127124,5.69270956 20.3725144,5.82818504 C21.2323164,5.96366053 22.0921185,5.73786805 22.9089304,5.42175859 C23.3818215,5.24112461 23.8977027,5.06049063 24.3705938,5.24112461 C24.8004949,5.42175859 25.1444157,5.91850203 25.6173068,5.96366053 C26.0472078,6.00881902 26.5200989,5.69270956 26.8210296,5.96366053 C26.9499999,6.09913601 26.99299,6.27976999 26.99299,6.46040397 C27.1649505,7.40873236 27.6808317,9.35054765 27.8527921,10.298876 C28.4546535,10.569827 28.7555842,9.71181561 29.4004357,9.71181561 C29.4864159,7.58936634 30.3892081,5.46691708 29.8733269,3.38962632 C29.7443566,2.89288287 29.529406,2.35098093 29.099505,2.08002996 C28.669604,1.80907899 28.0247525,1.80907899 27.7668119,2.26066394" id="Path" fill="#263238"></path>
                    <g transform="translate(29.031621, 6.351779)" id="Path">
                        <path d="M0.0964426877,0.530434783 C0.144664032,0.482213439 2.07351779,-0.241106719 2.45928854,2.16996047 C2.79683794,4.58102767 0.241106719,4.14703557 0.241106719,4.05059289 C0.241106719,4.00237154 0.0964426877,0.530434783 0.0964426877,0.530434783 Z" fill="#E5BAAB"></path>
                        <path d="M0.86798419,3.13438735 C0.86798419,3.13438735 0.916205534,3.13438735 1.01264822,3.1826087 C1.10909091,3.1826087 1.2055336,3.23083004 1.35019763,3.13438735 C1.59130435,2.98972332 1.73596838,2.55573123 1.68774704,2.12173913 C1.63952569,1.88063241 1.59130435,1.68774704 1.49486166,1.543083 C1.39841897,1.39841897 1.25375494,1.25375494 1.15731225,1.25375494 C1.01264822,1.25375494 0.964426877,1.35019763 0.916205534,1.39841897 C0.916205534,1.44664032 0.916205534,1.49486166 0.916205534,1.543083 C0.916205534,1.543083 0.86798419,1.49486166 0.86798419,1.39841897 C0.86798419,1.35019763 0.86798419,1.30197628 0.964426877,1.25375494 C1.01264822,1.2055336 1.10909091,1.15731225 1.2055336,1.15731225 C1.39841897,1.15731225 1.59130435,1.30197628 1.68774704,1.44664032 C1.83241107,1.63952569 1.88063241,1.83241107 1.92885375,2.07351779 C1.9770751,2.55573123 1.78418972,3.03794466 1.44664032,3.1826087 C1.30197628,3.23083004 1.15731225,3.23083004 1.06086957,3.1826087 C0.86798419,3.1826087 0.819762846,3.13438735 0.86798419,3.13438735 Z" fill="#D78776"></path>
                    </g>
                    <path d="M27.8347311,0.351778656 C27.8795081,0.351778656 28.013839,0.784211089 28.1481699,1.32475163 C28.2377238,1.86529217 28.2825008,2.2977246 28.2377238,2.35177866 C28.1929468,2.35177866 28.0586159,1.91934622 27.9242851,1.37880568 C27.7899542,0.784211089 27.7899542,0.351778656 27.8347311,0.351778656 Z" id="Path" fill="#263238"></path>
                    <path d="M29.0151899,0.356739718 C29.0796658,0.41527142 28.950714,0.883525038 28.6928103,1.41031036 C28.4349067,1.93709568 28.177003,2.4053493 28.0480512,2.34681759 C27.9835753,2.28828589 28.1125271,1.82003227 28.3704308,1.29324695 C28.6283344,0.766461634 28.950714,0.298208016 29.0151899,0.356739718 Z" id="Path" fill="#263238"></path>
                    <path d="M23.0182899,36.2444614 C22.7511789,37.152412 22.5285864,37.74258 22.2169569,38.0149652 C20.9704388,39.4222887 10.0188869,27.3011476 10.0188869,27.3011476 C9.97436841,26.8925698 9.8408129,25.3490537 9.92984991,24.9404759 C10.0188869,24.4411031 10.1969609,23.7601401 10.4195534,23.4423574 C10.6866645,23.0337796 10.2859979,22.5344067 9.88533141,22.6705993 C9.48466487,22.8521894 8.77236882,23.9417302 8.59429481,25.5306438 C8.41622079,27.0741599 6.81355467,25.1674636 6.32385113,24.3957055 C5.83414759,23.669345 4.18696296,21.3994684 3.83081493,21.3540709 C3.3411114,21.3086733 3.29659289,21.9442388 3.78629643,22.6705993 C4.27599997,23.3969598 5.70059208,25.5760414 5.52251807,25.712234 C5.16637004,25.9846192 2.58429684,22.1712265 2.58429684,22.1712265 C2.58429684,22.1712265 2.18363031,21.3994684 1.69392677,21.6264561 C0.848075202,22.0804314 3.69725942,25.9846192 3.96437044,26.3477994 C4.14244446,26.6201846 3.87533344,26.7109797 3.69725942,26.3931969 C3.47466691,26.1208117 1.20422323,22.8067919 0.625482684,23.2153697 C0.00222363571,23.669345 2.53977833,26.3477994 2.85140786,27.164955 C3.25207439,28.0729056 0.803556698,24.7588858 0.18029765,25.122066 C-0.0422948678,25.2582586 -0.220368882,25.3944512 1.24874173,27.164955 C2.18363031,28.2998933 4.40955548,30.3427822 5.9677031,31.7501057 C9.08399834,35.5181009 19.8129577,48.0478198 24.8435486,47.3214592 C25.9565112,47.1852666 26.9804367,46.6404963 27.6036958,45.5509555 C29.0282879,43.1448863 30.1412505,41.1927924 31.0316206,38.8321207 L23.0182899,36.2444614 Z" id="Path" fill="#E5BAAB"></path>
                </g>
                <g id="Group" transform="translate(62.000000, 93.000000)" fill-rule="nonzero">
                    <path d="M9.35494071,23.2426877 C7.66719368,22.3747036 5.64189723,22.2300395 3.76126482,22.5675889 C2.7486166,22.712253 1.68774704,23.0498024 1.01264822,23.8213439 C0.337549407,24.5928854 0.192885375,25.943083 0.964426877,26.5699605 C1.44664032,26.9557312 2.07351779,27.0039526 2.70039526,27.0039526 C4.19525692,27.0039526 5.83478261,26.7146245 6.99209486,27.63083 C7.66719368,28.1612648 8.10118577,28.9810277 8.92094862,29.2221344 C9.69249012,29.4632411 10.6086957,28.9810277 11.0426877,28.3059289 C11.4766798,27.5826087 11.4766798,26.7146245 11.2837945,25.8948617 C11.2837945,25.8948617 11.0426877,24.1106719 9.35494071,23.2426877 Z" id="Path" fill="#7ED321"></path>
                    <g transform="translate(6.268775, 0.000000)" id="Path">
                        <path d="M6.99209486,15.7201581 C5.9312253,17.2150198 3.90592885,16.7328063 2.98972332,15.8166008 C2.07351779,14.9003953 1.63952569,13.598419 1.30197628,12.344664 C0.482213439,9.49960474 -0.337549407,6.46166008 0.241106719,3.56837945 C0.433992095,2.70039526 0.771541502,1.83241107 1.35019763,1.15731225 C1.9770751,0.530434783 2.89328063,0.144664032 3.76126482,0.337549407 C4.77391304,0.62687747 5.40079051,1.59130435 5.88300395,2.55573123 C7.23320158,5.35256917 7.95652174,8.43873518 7.95652174,11.5731225 C7.95652174,12.9715415 7.81185771,14.5146245 6.99209486,15.7201581" fill="#7ED321"></path>
                        <g opacity="0.2" fill="#000000">
                            <path d="M6.99209486,15.7201581 C5.9312253,17.2150198 3.90592885,16.7328063 2.98972332,15.8166008 C2.07351779,14.9003953 1.63952569,13.598419 1.30197628,12.344664 C0.482213439,9.49960474 -0.337549407,6.46166008 0.241106719,3.56837945 C0.433992095,2.70039526 0.771541502,1.83241107 1.35019763,1.15731225 C1.9770751,0.530434783 2.89328063,0.144664032 3.76126482,0.337549407 C4.77391304,0.62687747 5.40079051,1.59130435 5.88300395,2.55573123 C7.23320158,5.35256917 7.95652174,8.43873518 7.95652174,11.5731225 C7.95652174,12.9715415 7.81185771,14.5146245 6.99209486,15.7201581"></path>
                        </g>
                    </g>
                    <path d="M16.1059289,17.8418972 C14.9968379,16.4916996 14.7557312,14.5628458 15.286166,12.8750988 C15.7683794,11.1873518 16.9256917,9.74071146 18.227668,8.58339921 C19.770751,7.23320158 21.5549407,6.12411067 23.5320158,5.44901186 C24.3035573,5.15968379 25.1233202,4.96679842 25.8948617,5.06324111 C26.7146245,5.15968379 27.5343874,5.54545455 27.8719368,6.2687747 C28.4505929,7.32964427 27.8719368,8.63162055 27.341502,9.64426877 C26.3288538,11.4766798 25.1715415,13.2608696 23.8695652,14.9486166 C22.8086957,16.2988142 21.6513834,17.6007905 20.0600791,18.227668 C18.4687747,18.8545455 16.829249,18.7581028 16.0094862,17.6490119" id="Path" fill="#7ED321"></path>
                    <path d="M13.3090909,38.143083 C13.3090909,38.143083 13.2608696,37.9019763 13.2126482,37.4679842 C13.1644269,36.9857708 13.1162055,36.3588933 13.0197628,35.6355731 C12.9233202,34.8640316 12.8268775,33.9478261 12.5857708,32.9351779 C12.3928854,31.9225296 12.055336,30.8616601 11.6213439,29.7525692 C11.1873518,28.6434783 10.6086957,27.6790514 9.98181818,26.8592885 C9.35494071,26.0395257 8.63162055,25.4608696 7.9083004,25.1233202 C7.23320158,24.7857708 6.60632411,24.6411067 6.17233202,24.5928854 C5.73833992,24.544664 5.4972332,24.4964427 5.4972332,24.4964427 C5.4972332,24.4964427 5.73833992,24.4964427 6.17233202,24.4964427 C6.60632411,24.544664 7.23320158,24.6411067 8.00474308,24.9786561 C8.72806324,25.3162055 9.49960474,25.8948617 10.1747036,26.7146245 C10.8498024,27.5343874 11.4284585,28.5470356 11.8624506,29.6561265 C12.2964427,30.7652174 12.6339921,31.8743083 12.8268775,32.8869565 C13.0197628,33.8996047 13.1162055,34.8640316 13.1644269,35.6355731 C13.2126482,36.4071146 13.2608696,37.0339921 13.2608696,37.5162055 C13.3573123,37.9019763 13.3573123,38.143083 13.3090909,38.143083 Z" id="Path" fill="#263238"></path>
                    <path d="M13.2126482,36.744664 C13.2126482,36.744664 13.2126482,36.6482213 13.2126482,36.4071146 C13.2126482,36.1660079 13.2126482,35.8766798 13.2126482,35.4909091 C13.2126482,34.7193676 13.2126482,33.5620553 13.1644269,32.2118577 C13.1162055,29.4150198 12.8750988,25.6055336 12.3928854,21.3620553 C11.9106719,17.1185771 11.3320158,13.3573123 10.7533597,10.6086957 C10.6086957,9.93359684 10.4640316,9.30671937 10.3675889,8.77628458 C10.2711462,8.2458498 10.1264822,7.76363636 10.0300395,7.37786561 C9.93359684,7.04031621 9.88537549,6.75098814 9.83715415,6.50988142 C9.78893281,6.31699605 9.78893281,6.22055336 9.78893281,6.22055336 C9.78893281,6.22055336 9.83715415,6.31699605 9.88537549,6.50988142 C9.93359684,6.75098814 10.0300395,7.04031621 10.1264822,7.37786561 C10.2229249,7.76363636 10.3675889,8.19762846 10.512253,8.72806324 C10.656917,9.25849802 10.801581,9.88537549 10.9462451,10.5604743 C11.5731225,13.2608696 12.2,17.0703557 12.6822134,21.313834 C13.1644269,25.5573123 13.3573123,29.4150198 13.3573123,32.2118577 C13.3573123,33.6102767 13.3573123,34.7193676 13.3090909,35.5391304 C13.3090909,35.9249012 13.2608696,36.2142292 13.2608696,36.455336 C13.2126482,36.6482213 13.2126482,36.744664 13.2126482,36.744664 Z" id="Path" fill="#263238"></path>
                    <path d="M13.1644269,29.3185771 C13.1644269,29.3185771 13.1644269,28.9810277 13.1644269,28.4023715 C13.2126482,27.8237154 13.2608696,26.9075099 13.4537549,25.8466403 C13.6466403,24.7857708 13.887747,23.5320158 14.2735178,22.1335968 C14.6592885,20.7351779 15.141502,19.2885375 15.8166008,17.7454545 C17.1185771,14.7075099 18.8545455,12.2 20.3494071,10.656917 C20.6869565,10.2711462 21.1209486,9.93359684 21.4102767,9.64426877 C21.5549407,9.49960474 21.6996047,9.35494071 21.8442688,9.25849802 C21.9889328,9.16205534 22.1335968,9.06561265 22.2782609,8.96916996 C22.7604743,8.63162055 23.0498024,8.43873518 23.0498024,8.48695652 C23.0980237,8.53517787 21.9407115,9.21027668 20.4458498,10.801581 C18.9992095,12.344664 17.3114625,14.8521739 16.0094862,17.8418972 C15.3826087,19.3367589 14.8521739,20.8316206 14.4664032,22.1818182 C14.0806324,23.5320158 13.7913043,24.7857708 13.598419,25.8466403 C13.4055336,26.9075099 13.3090909,27.7754941 13.2126482,28.3541502 C13.2126482,28.9810277 13.2126482,29.3185771 13.1644269,29.3185771 Z" id="Path" fill="#263238"></path>
                </g>
            </g>
        </g>
    </g>
</svg>