<?xml version="1.0" standalone="no"?>
<!DOCTYPE svg PUBLIC "-//W3C//DTD SVG 1.1//EN" "http://www.w3.org/Graphics/SVG/1.1/DTD/svg11.dtd" >
<!--
2019-1-12: Created.
-->
<svg xmlns="http://www.w3.org/2000/svg">
<metadata>
Created by FontForge 20120731 at Sat Jan 12 16:47:10 2019
 By Apache
Created by Apache with FontForge 2.0 (http://fontforge.sf.net)
</metadata>
<defs>
<font id="Flaticon" horiz-adv-x="512" >
  <font-face
    font-family="Flaticon"
    font-weight="500"
    font-stretch="normal"
    units-per-em="512"
    panose-1="2 0 6 3 0 0 0 0 0 0"
    ascent="448"
    descent="-64"
    bbox="-307.2 -64.5 512.5 454.4"
    underline-thickness="25.6"
    underline-position="-51.2"
    unicode-range="U+0020-F10C"
  />
    <missing-glyph />
    <glyph glyph-name="space" unicode=" " horiz-adv-x="200"
 />
    <glyph glyph-name="uniF10A" unicode="&#xf10a;"
d="M384 223.056c71.9844 -7.95215 127.968 -68.9121 128 -143.056c-0.0322266 -74.0957 -56.0156 -135.056 -128 -143.056v-0.944336h-384v512h294.624l89.376 -89.3438v-135.601zM287.968 409.392v-57.3916h57.4082zM32 -32h245.6
c-32.6719 26.3682 -53.5996 66.7363 -53.5996 112c0 5.42383 0.351562 10.7363 0.944336 16h-160.944v32h168.368c4.01562 11.376 9.31152 22.1436 15.9043 32h-184.272v32h213.568c20.7998 16.8164 46.3994 27.9521 74.4316 31.0557v96.96h-96v96.0166h-224v-448.032z
M368 -30.1279c60.7842 0.143555 109.984 49.3438 110.128 110.128c-0.143555 60.8164 -49.3438 110.016 -110.128 110.16c-60.8164 -0.144531 -110.016 -49.3438 -110.16 -110.16c0.144531 -60.7842 49.3438 -109.984 110.16 -110.128zM64 224v32h256v-32h-256zM368 32
l-64 64h128z" />
    <glyph glyph-name="uniF108" unicode="&#xf108;"
d="M488.728 182.383c14.6748 -24.4502 23.2725 -52.9424 23.2725 -83.4736c0 -89.8291 -73.0908 -162.909 -162.909 -162.909c-30.5283 0 -59.0225 8.59766 -83.4736 23.2725h-219.071c-25.6592 0 -46.5459 20.874 -46.5459 46.5449v395.637
c0 25.6709 20.8867 46.5459 46.5459 46.5459h395.636c25.6592 0 46.5459 -20.875 46.5459 -46.5459v-219.071zM256.001 424.728v-192.32c26.417 18.4795 58.4785 29.4111 93.0898 29.4111c45.5645 0 86.7676 -18.8584 116.364 -49.1182v188.755
c0 12.8291 -10.4307 23.2725 -23.2725 23.2725h-186.182zM23.2725 401.454v-186.183h209.455v209.455h-186.183c-12.8398 0 -23.2725 -10.4434 -23.2725 -23.2725zM46.5459 -17.4551h188.755c-30.2588 29.5947 -49.1182 70.7969 -49.1182 116.364
c0 34.6123 10.9326 66.6738 29.4121 93.0898h-192.321v-186.182c0 -12.8291 10.4316 -23.2725 23.2725 -23.2725zM349.091 -40.7275c77 0 139.637 62.6367 139.637 139.637c0 76.999 -62.6367 139.636 -139.637 139.636c-76.999 0 -139.636 -62.6367 -139.636 -139.636
c0 -77 62.6367 -139.637 139.636 -139.637zM174.546 331.636c6.43164 0 11.6367 -5.20312 11.6377 -11.6357c0 -6.43164 -5.20508 -11.6367 -11.6367 -11.6367h-34.9092v-34.9092c0 -6.43164 -5.20508 -11.6367 -11.6367 -11.6367
c-6.43262 0 -11.6367 5.20508 -11.6367 11.6367v34.9092h-34.9092c-6.43164 0 -11.6367 5.20508 -11.6377 11.6357c0 6.43262 5.2041 11.6367 11.6367 11.6367h34.9092v34.9092c0 6.43164 5.2041 11.6367 11.6367 11.6367c6.43164 0 11.6367 -5.20508 11.6367 -11.6367
v-34.9092h34.9092zM418.909 320c0 -6.43164 -5.2041 -11.6367 -11.6367 -11.6367h-93.0908c-6.43164 0 -11.6367 5.20508 -11.6367 11.6367c0 6.43262 5.20508 11.6367 11.6367 11.6367h93.0908c6.43262 0 11.6367 -5.2041 11.6367 -11.6367zM171.137 130.409
c4.5459 -4.5459 4.5459 -11.9102 0.00195312 -16.4541l-26.6816 -26.6816l26.6816 -26.6816c4.5459 -4.54492 4.5459 -11.9082 0 -16.4541c-2.27344 -2.27246 -5.25098 -3.40918 -8.22754 -3.40918c-2.97754 0 -5.95508 1.13672 -8.22754 3.40918l-26.6816 26.6816
l-26.6816 -26.6816c-2.27344 -2.27246 -5.25 -3.40918 -8.22754 -3.40918s-5.95508 1.13672 -8.22754 3.40918c-4.5459 4.54492 -4.5459 11.9082 0 16.4541l26.6816 26.6816l-26.6816 26.6816c-4.5459 4.54395 -4.5459 11.9082 0 16.4541
c4.54492 4.5459 11.9082 4.5459 16.4541 0l26.6816 -26.6816l26.6816 26.6816c4.54395 4.5459 11.9082 4.5459 16.4541 0zM407.272 145.455c6.43262 0 11.6367 -5.20508 11.6377 -11.6367c0 -6.43262 -5.2041 -11.6367 -11.6367 -11.6367h-116.364
c-6.43164 0 -11.6367 5.2041 -11.6367 11.6367c0 6.43164 5.20508 11.6367 11.6367 11.6367h116.363zM407.272 75.6367c6.43262 0 11.6367 -5.20508 11.6377 -11.6367c0 -6.43262 -5.2041 -11.6367 -11.6367 -11.6367h-116.364c-6.43164 0 -11.6367 5.2041 -11.6367 11.6367
c0 6.43164 5.20508 11.6367 11.6367 11.6367h116.363z" />
    <glyph glyph-name="uniF107" unicode="&#xf107;"
d="M466.373 378.182c25.6914 0 45.627 -20.2344 45.627 -45.8711v-279.373c0 -25.6357 -19.9355 -47.1191 -45.627 -47.1191h-418.809c-25.6914 0 -47.5645 21.4834 -47.5645 47.1191v279.373c0 25.6367 21.873 45.8711 47.5645 45.8711h418.809zM493.382 52.9375v279.373
c0 15.3721 -11.582 27.252 -27.0088 27.252h-418.809c-15.4277 0 -28.9453 -11.8789 -28.9453 -27.252v-279.373c0 -15.3701 13.5176 -28.501 28.9453 -28.501h418.809c15.4268 0 27.0088 13.1299 27.0088 28.501zM429.182 313.018
c15.4004 0 26.9629 -11.9014 26.9648 -27.2979v-55.8633c0 -15.3975 -11.5645 -28.5488 -26.9648 -28.5488h-55.8545c-15.4004 0 -28.8916 13.1514 -28.8916 28.5488v55.8633c0 15.3965 13.4912 27.2979 28.8916 27.2979h55.8545zM437.527 229.232v55.8633
c0 5.13867 -4.16797 9.30469 -9.30957 9.30469h-55.8545c-5.1416 0 -9.30957 -4.16504 -9.30957 -9.30469v-55.8633c0 -5.13867 4.16797 -9.30469 9.30957 -9.30469h55.8545c5.1416 0 9.30957 4.16504 9.30957 9.30469zM243 145.455
c5.14453 0 9.30859 -4.16797 9.30859 -9.30859c0 -5.1416 -4.16406 -9.30957 -9.30859 -9.30957h-176.873c-5.14551 0 -9.30859 4.16797 -9.30859 9.30957c0 5.14062 4.16309 9.30859 9.30859 9.30859h176.873zM243 98.9092c5.14453 0 9.30859 -4.16797 9.30859 -9.30957
c0 -5.14062 -4.16406 -9.30859 -9.30859 -9.30859h-176.873c-5.14551 0 -9.30859 4.16797 -9.30859 9.30859c0 5.1416 4.16309 9.30957 9.30859 9.30957h176.873z" />
    <glyph glyph-name="uniF102" unicode="&#xf102;"
d="M425.968 323.729h53.1035v-101.469h32.9297v-178.255h-32.9287v-103.215h-479.072v382.938h60.627l241.165 119.479l30.2354 -61.0303l72.5811 19.8096zM379.419 357.888l-31.1465 -8.50098l-35.3027 -9.63477l-58.7051 -16.0225h66.6426h40.0771h27.7588z
M443.16 -23.2969l0.000976562 0.000976562v67.3037h-183.175v81.8779v18.6133v18.6123v4.625v40.0781v14.4473h29.1611h80.8945h46.3945h18.6133h8.11035v38.4785v27.0771h-7.39062h-18.6133h-18.6113h-19.7676h-40.0781h-216.013h-53.6523h-14.543h-18.5791v-5.07129
v-36.8555v-5.4043v-68.1953v-195.588h407.248zM476.088 79.918v106.432h-12.624h-2.34668h-17.9561h-29.835h-68.1943h-47.5762h-1.65723v-0.821289v-12.6162v-18.6133v-18.6133v-55.7676h147.261h17.9561h14.9727zM285.556 395.088l-115.026 -56.9873l126.195 34.4424z
M324.34 149.842h23.4229h11.7412v-35.1621h-35.1641v28.7695v6.39258z" />
    <glyph glyph-name="uniF10B" unicode="&#xf10b;"
d="M455.112 448c31.4023 0 56.8877 -25.4873 56.8877 -56.8877v-398.225c0 -31.4004 -25.4854 -56.8877 -56.8877 -56.8877h-398.225c-31.4004 0 -56.8877 25.4854 -56.8877 56.8877v398.225c0 31.4004 25.4873 56.8877 56.8877 56.8877h398.225zM455.112 -7.1123v398.225
h-398.225v-398.225h398.225zM142.222 163.556c-15.7012 0 -28.4434 12.7998 -28.4434 28.4443c0 15.7012 12.7422 28.4443 28.4434 28.4443h85.334v85.334c0 15.7012 12.7432 28.4434 28.4443 28.4434c15.6445 0 28.4443 -12.7422 28.4443 -28.4434v-85.334h85.334
c15.6436 0 28.4434 -12.7432 28.4434 -28.4443c0 -15.6445 -12.7998 -28.4443 -28.4434 -28.4443h-85.334v-85.334c0 -15.6436 -12.7998 -28.4434 -28.4443 -28.4434c-15.7012 0 -28.4443 12.7998 -28.4443 28.4434v85.334h-85.334z" />
    <glyph glyph-name="uniF106" unicode="&#xf106;"
d="M255.976 271.869c11.9443 0 19.8389 -7.89355 19.8389 -19.8379v-119.233c0 -9.86621 -7.89453 -19.8379 -19.8389 -19.8379s-19.8379 7.89453 -19.8379 19.8379v119.233c0 9.86719 7.89355 19.8379 19.8379 19.8379zM236.138 53.3438
c0 13.2253 6.61263 19.8379 19.8379 19.8379c13.2253 0 19.8379 -6.61263 19.8379 -19.8379c0 -13.2246 -6.61264 -19.8369 -19.8379 -19.8369c-13.2253 0 -19.8379 6.6123 -19.8379 19.8369zM502.336 41.5039c21.8105 -37.8047 5.91992 -67.5098 -39.7793 -67.5098
h-415.136c-43.6221 0 -59.5127 29.8076 -37.7012 67.5098l214.475 347.625c17.8643 27.835 45.6982 27.835 63.5625 0zM468.58 -6.16797c21.8115 0 29.8086 15.8916 19.9404 33.7549l-218.524 353.545c-7.99609 11.9443 -19.9404 11.9443 -25.8604 0l-218.525 -353.545
c-11.9443 -17.8643 -3.94727 -33.7549 17.8643 -33.7549h425.105z" />
    <glyph glyph-name="uniF10C" unicode="&#xf10c;"
d="M77.6094 -49v95.8359h-22.4453c-30.6943 0 -55.6641 -24.9736 -55.6641 -55.668v-40.168c0 -8.56152 6.93848 -15.5 15.5 -15.5h65.3994l-0.237305 0.666992c-1.64941 4.64355 -2.55273 9.63281 -2.55273 14.833zM76.6094 45.8359v-94.8359
c0 -5.06934 0.87207 -9.99414 2.37988 -14.5h-63.9893c-8.00879 0 -14.5 6.49121 -14.5 14.5v40.168c0 30.1416 24.5225 54.668 54.6641 54.668h21.4453zM77.1094 46.3359zM77.1094 46.3359zM77.1094 46.3359v-95.3359c0 -5.25781 0.914062 -10.3047 2.58203 -15h-64.6914
c-8.28516 0 -15 6.71484 -15 15v40.168c0 30.418 24.7461 55.168 55.1641 55.168h21.9453zM77.1094 46.3359zM184.719 -49v176.168h-22.4414c-30.6943 0 -55.668 -24.9736 -55.668 -55.668v-120.5c0 -8.56152 6.93848 -15.5 15.5 -15.5h65.3994l-0.236328 0.666992
c-1.64648 4.64355 -2.55371 9.63379 -2.55371 14.833zM183.719 126.168v-175.168c0 -5.06934 0.875 -9.99414 2.37988 -14.5h-63.9893c-8.00879 0 -14.5 6.49121 -14.5 14.5v120.5c0 30.1416 24.5264 54.668 54.668 54.668h21.4414zM184.219 126.668zM184.219 126.668z
M184.219 126.668v-175.668c0 -5.25781 0.917969 -10.3047 2.58203 -15h-64.6914c-8.28516 0 -15 6.71484 -15 15v120.5c0 30.418 24.75 55.168 55.168 55.168h21.9414zM184.219 126.668zM509.456 297.626l-107.113 144.602
c-2.92578 3.94336 -7.54395 6.27246 -12.4561 6.27246s-9.53418 -2.3291 -12.4561 -6.27246l-107.109 -144.602c-3.48438 -4.70312 -4.02051 -10.9717 -1.38867 -16.1982c2.63574 -5.22754 7.9873 -8.5293 13.8447 -8.5293h38.0547v-321.898
c0 -8.56152 6.93848 -15.5 15.5 -15.5h107.109c8.56152 0 15.5 6.93848 15.5 15.5v321.898h38.0586c5.85352 0 11.209 3.30176 13.8408 8.5293c2.63574 5.22656 2.09863 11.4951 -1.38477 16.1982zM508.653 297.03c3.25781 -4.39844 3.76074 -10.2627 1.29492 -15.1533
c-2.46191 -4.88965 -7.47363 -7.97852 -12.9482 -7.97852h-39.0586v-322.898c0 -8.00879 -6.49121 -14.5 -14.5 -14.5h-107.109c-8.00879 0 -14.5 6.49121 -14.5 14.5v322.898h-39.0547c-5.47852 0 -10.4863 3.08887 -12.9521 7.97852
c-2.46191 4.89062 -1.95898 10.7549 1.29883 15.1533l107.109 144.602c2.73438 3.68945 7.05762 5.86816 11.6533 5.86816s8.91504 -2.17871 11.6533 -5.86816zM509.055 297.328zM509.055 297.328zM509.055 297.328c3.37109 -4.55078 3.89062 -10.6172 1.33984 -15.6758
c-2.54688 -5.05859 -7.73047 -8.25391 -13.3945 -8.25391h-38.5586v-322.398c0 -8.28516 -6.71484 -15 -15 -15h-107.109c-8.28516 0 -15 6.71484 -15 15v322.398h-38.5547c-5.66797 0 -10.8477 3.19531 -13.3984 8.25391c-2.54688 5.05859 -2.02734 11.125 1.34375 15.6758
l107.109 144.602c2.82812 3.81641 7.30078 6.07031 12.0547 6.07031s9.22266 -2.25391 12.0547 -6.07031zM509.055 297.328zM291.832 -49v256.5h-22.4453c-30.6943 0 -55.668 -24.9697 -55.668 -55.6641v-200.836c0 -8.56152 6.94238 -15.5 15.5 -15.5h65.3994
l-0.236328 0.666992c-1.64551 4.64355 -2.5498 9.63281 -2.5498 14.833zM290.832 206.5v-255.5c0 -5.06934 0.87207 -9.99414 2.37598 -14.5h-63.9893c-8.00488 0 -14.5 6.49121 -14.5 14.5v200.836c0 30.1416 24.5264 54.6641 54.668 54.6641h21.4453zM291.332 207z
M291.332 207zM291.332 207v-256c0 -5.25781 0.914062 -10.3047 2.57812 -15h-64.6914c-8.28125 0 -15 6.71484 -15 15v200.836c0 30.418 24.75 55.1641 55.168 55.1641h21.9453zM291.332 207z" />
    <glyph glyph-name="uniF105" unicode="&#xf105;"
d="M226.853 67.1211c21.5654 -0.0546875 39.0283 -17.5215 39.083 -39.083c0 -21.5859 -17.4961 -39.083 -39.083 -39.083c-21.582 0 -39.0781 17.4971 -39.0781 39.083c0 21.5869 17.4961 39.083 39.0781 39.083zM226.853 10.7891
c9.51855 0.0214844 17.2285 7.73145 17.25 17.249c0 9.52734 -7.72266 17.25 -17.25 17.25c-9.52637 0 -17.2451 -7.72266 -17.2451 -17.25c0 -9.52637 7.71875 -17.249 17.2451 -17.249zM226.853 10.7891zM497.919 129.13
c2.7373 0.920898 5.72754 0.716797 8.31152 -0.575195s4.54102 -3.56152 5.44531 -6.30273c1.83008 -5.72754 -1.28809 -11.8555 -6.98926 -13.7568l-201.851 -66.376c0.87793 -4.60547 1.31738 -9.2832 1.30859 -13.9697
c0.00488281 -38.1533 -27.8291 -70.5977 -65.5352 -76.4014c-37.7051 -5.79883 -74.0039 16.7764 -85.4707 53.1602s5.32617 75.6973 39.5479 92.5635l-96.9424 294.208c-3.69336 11.1475 -13.0615 19.4717 -24.5625 21.834l-62.4443 12.7725
c-5.91016 1.20605 -9.72266 6.97168 -8.51562 12.8818c1.20215 5.90625 6.97266 9.71875 12.8828 8.51172l62.4434 -12.8779c19.1768 -3.89746 34.8018 -17.7695 40.9385 -36.3545l96.9424 -294.319c33.667 6.0166 67.2705 -10.874 82.5283 -41.4844zM226.853 -27.4199
c30.6104 0.0429688 55.416 24.8486 55.459 55.458c0 30.627 -24.8271 55.459 -55.459 55.459c-30.627 0 -55.4541 -24.832 -55.4541 -55.459s24.8271 -55.458 55.4541 -55.458zM226.853 -27.4199zM202.618 263.186l-10.8057 32.75
c-3.04883 9.22461 -2.30273 19.2793 2.07227 27.9492c4.32422 8.67383 11.957 15.2451 21.1816 18.2305l177.398 58.4053c9.21973 3.04883 19.2754 2.30273 27.9443 -2.07324c8.67383 -4.32324 15.2451 -11.957 18.2305 -21.1807l55.6758 -169.101
c6.30762 -19.1729 -4.09375 -39.8291 -23.249 -46.1787l-177.399 -58.4053c-3.70508 -1.20703 -7.56934 -1.83398 -11.4619 -1.85449c-5.72754 0.00390625 -11.373 1.34668 -16.4863 3.93164c-8.67383 4.32422 -15.2451 11.9531 -18.2305 21.1768l-43.667 132.75
c-0.320312 0.550781 -0.576172 1.13477 -0.763672 1.74414c-0.200195 0.605469 -0.345703 1.22852 -0.439453 1.85547zM453.382 215.479c7.67578 2.58008 11.8594 10.8486 9.38574 18.5586l-40.8271 124.124l-205.348 -67.5732l40.8311 -124.124
c2.5459 -7.70605 10.8408 -11.9023 18.5596 -9.39062zM211.135 354.124c-3.72363 -1.19043 -6.81445 -3.82129 -8.58008 -7.31348c-1.76562 -3.48828 -2.05566 -7.54004 -0.806641 -11.2451l7.9707 -24.2354l205.343 67.5742l-7.96973 24.2383
c-1.19434 3.70605 -3.8291 6.77637 -7.31348 8.51172c-2.05566 1.0791 -4.34082 1.64258 -6.65723 1.6377c-1.56445 0.0126953 -3.1123 -0.243164 -4.58789 -0.763672zM211.135 354.124z" />
    <glyph glyph-name="uniF104" unicode="&#xf104;"
d="M304 446.4v-160h-304v160c0 4.41797 3.58105 8 8 8h288c4.41895 0 8 -3.58203 8 -8zM304 286.4zM470.4 319.2c6.13086 -6.2002 9.58105 -14.5625 9.59961 -23.2812v-49.5186c0 -17.6719 -14.3281 -32 -32 -32h-16c0 -26.5068 -21.4941 -48 -48 -48s-48 21.4932 -48 48
h-176c0 -26.5068 -21.4941 -48 -48 -48s-48 21.4932 -48 48h-56c-4.41895 0 -8 3.58105 -8 8v48h320v136h48c9.62207 -0.525391 18.7783 -4.31641 25.9531 -10.7539zM143.619 209.344c1.55273 10.1221 -1.80664 20.3848 -9.05078 27.625
c-7.24023 7.24414 -17.5029 10.6035 -27.625 9.0498c-16.1494 -2.59961 -27.7432 -16.959 -26.8779 -33.2939c0.869141 -16.3398 13.9189 -29.3906 30.2598 -30.2588c16.334 -0.866211 30.6934 10.7275 33.2939 26.8779zM415.619 209.344
c1.55273 10.1221 -1.80664 20.3848 -9.05078 27.625c-7.24023 7.24414 -17.5029 10.6035 -27.625 9.0498c-16.1494 -2.59961 -27.7432 -16.959 -26.8779 -33.2939c0.869141 -16.3398 13.9189 -29.3906 30.2598 -30.2588c16.334 -0.866211 30.6934 10.7275 33.2939 26.8779z
M360 318.4h88.5596l-66.0781 66c-4.04688 3.51855 -9.13184 5.625 -14.4814 6h-16v-64c0.12793 -4.36328 3.6377 -7.87207 8 -8zM448.56 318.4z" />
    <glyph glyph-name="uniF109" unicode="&#xf109;"
d="M384 223.056c71.9844 -7.95215 127.968 -68.9121 128 -143.056c-0.0322266 -74.0957 -56.0156 -135.056 -128 -143.056v-0.944336h-384v512h294.624l89.376 -89.3438v-135.601zM287.968 409.392v-57.3916h57.4082zM32 -32h245.6
c-32.6719 26.3682 -53.5996 66.7363 -53.5996 112c0 5.42383 0.351562 10.7363 0.944336 16h-160.944v32h168.368c4.01562 11.376 9.31152 22.1436 15.9043 32h-184.272v32h213.568c20.7998 16.8164 46.3994 27.9521 74.4316 31.0557v96.96h-96v96.0166h-224v-448.032z
M368 -30.1279c60.7842 0.143555 109.984 49.3438 110.128 110.128c-0.143555 60.8164 -49.3438 110.016 -110.128 110.16c-60.8164 -0.144531 -110.016 -49.3438 -110.16 -110.16c0.144531 -60.7842 49.3438 -109.984 110.16 -110.128zM64 224v32h256v-32h-256zM384.032 96
h63.9678v-32h-63.9678v-64h-32.0322v64h-64v32h64v64h32.0322v-64z" />
    <glyph glyph-name="uniF101" unicode="&#xf101;"
d="M288.17 78.1924c20.2002 0 38.2754 -11.2578 47.1729 -29.3809c12.7627 -25.9922 1.99805 -57.5195 -23.9941 -70.2812c-7.27734 -3.57324 -15.0518 -5.38574 -23.1084 -5.38574c-20.2002 0 -38.2754 11.2598 -47.1729 29.3809
c-12.7627 25.9922 -1.99707 57.5195 23.9941 70.2812c7.27734 3.57324 15.0527 5.38574 23.1084 5.38574zM306.182 -10.9434c20.1875 9.91113 28.5469 34.4004 18.6377 54.5879c-6.91211 14.0762 -20.9551 22.8213 -36.6475 22.8213
c-6.24902 0 -12.2852 -1.40723 -17.9414 -4.18555c-20.1875 -9.91113 -28.5488 -34.4004 -18.6367 -54.5879c6.91113 -14.0762 20.9541 -22.8213 36.6465 -22.8213c6.24902 0 12.2852 1.40723 17.9414 4.18555zM510.072 134.601
c1.42773 -2.90723 0.228516 -6.41992 -2.67969 -7.84668l-13.5391 -6.64746l8.82422 -17.9717c1.42578 -2.90723 0.226562 -6.4209 -2.67969 -7.84863c-0.831055 -0.407227 -1.71191 -0.600586 -2.58008 -0.600586c-2.16602 0 -4.24902 1.20508 -5.26758 3.28027
l-8.82324 17.9707l-112.256 -55.1152c17.8643 -43.2637 -0.751953 -93.709 -43.3555 -114.628c-12.4268 -6.10059 -25.7002 -9.19531 -39.4473 -9.19531c-34.4863 0 -65.3457 19.2197 -80.5361 50.1592c-20.917 42.6035 -4.7959 93.9004 35.7939 117.208l-148.576 302.614
l-89.6543 30.6074c-3.06543 1.04688 -4.70117 4.37891 -3.6543 7.44336c1.04688 3.06348 4.37891 4.69824 7.44336 3.6543l91.9512 -31.3916c1.47168 -0.50293 2.68457 -1.56836 3.36914 -2.96484l42.2646 -86.0869l22.5664 11.0801l-19.5703 39.8594
c-5.91602 12.0488 -0.926758 26.6631 11.123 32.5791l66.1016 32.4541c3.37402 1.65625 6.97852 2.49609 10.7148 2.49609c9.36328 0 17.7422 -5.21777 21.8652 -13.6172l82.3232 -167.672l33.8447 16.6182c1.39551 0.68457 3.00684 0.785156 4.47852 0.285156
c1.47168 -0.501953 2.68359 -1.56836 3.36816 -2.96484l78.877 -160.65l39.8633 19.5713c2.90527 1.42871 6.4209 0.226562 7.84668 -2.67969zM451.836 112.54l-76.291 155.388l-127.857 -62.7812l44.1338 -89.8887c31.0371 -1.2373 58.7305 -18.0693 74.0977 -44.9004z
M165.957 400.235c-6.24414 -3.06641 -8.83008 -10.6406 -5.76465 -16.8857l82.3232 -167.674l88.752 43.5752l-82.3242 167.675c-2.13672 4.35547 -6.48145 7.05957 -11.3379 7.05957c-1.92871 0 -3.79492 -0.436523 -5.54688 -1.2959zM174.404 327.795l-22.5654 -11.0781
l102.209 -208.174c8.0166 3.32129 16.3506 5.42676 24.9111 6.30273zM322.548 -44.2793c38.5684 18.9365 54.541 65.7207 35.6045 104.289c-13.2041 26.8936 -40.0303 43.5996 -70.0098 43.5996c-11.9404 0 -23.4736 -2.69043 -34.2793 -7.99512
c-38.5684 -18.9365 -54.54 -65.7197 -35.6045 -104.289c13.2041 -26.8926 40.0293 -43.5986 70.0098 -43.5986c11.9404 0 23.4727 2.68945 34.2793 7.99414z" />
    <glyph glyph-name="uniF100" unicode="&#xf100;"
d="M501.759 312.321c6.5625 -6.60059 10.2451 -15.5293 10.2412 -24.834v-52.8203c0 -18.8506 -15.2832 -34.1338 -34.1328 -34.1338h-17.834c3.52148 -20.1162 -5.24609 -40.4043 -22.3125 -51.6211c-17.0703 -11.2158 -39.1709 -11.2158 -56.2412 0
c-17.0674 11.2168 -25.834 31.5049 -22.3125 51.6211h-189.267c3.52051 -20.1162 -5.24609 -40.4043 -22.3125 -51.6211c-17.0713 -11.2158 -39.1709 -11.2158 -56.2422 0c-17.0664 11.2168 -25.833 31.5049 -22.3125 51.6211h-60.5
c-4.71191 0 -8.5332 3.82129 -8.5332 8.5332v230.4c0 4.71191 3.82129 8.5332 8.5332 8.5332h324.267c4.71289 0 8.5332 -3.82129 8.5332 -8.5332v-34.1338h51.2002c10.2422 -0.408203 20.0039 -4.42871 27.5625 -11.3496zM392.533 388.267h-17.0664v-76.7998h102.963
l-70.4258 70.4248c-4.3457 3.7168 -9.7666 5.9502 -15.4707 6.375zM307.2 430.934h-307.2v-153.601h307.2v153.601zM-204.8 157.866c-18.8506 0 -34.1338 15.2842 -34.1338 34.1338s15.2832 34.1338 34.1338 34.1338c18.8496 0 34.1328 -15.2842 34.1328 -34.1338
s-15.2832 -34.1338 -34.1328 -34.1338zM-204.8 243.2c-18.2666 -0.0253906 -35.1377 -9.7793 -44.2715 -25.6006h-58.1289v42.667h307.2v-42.667h-160.529c-9.13281 15.8213 -26.0039 25.5752 -44.2705 25.6006zM85.333 157.866
c-18.8496 0 -34.1328 15.2842 -34.1328 34.1338s15.2832 34.1338 34.1328 34.1338c18.8506 0 34.1338 -15.2842 34.1338 -34.1338s-15.2832 -34.1338 -34.1338 -34.1338zM170.667 234.667v52.8203c-0.00878906 2.375 -0.492188 4.72559 -1.41699 6.91309h-126.583
c-4.71289 0 -8.5332 3.82031 -8.5332 8.5332v85.333h-17.0674v-170.667h23.9961c9.11621 15.8379 25.9961 25.6006 44.2705 25.6006c18.2754 0 35.1543 -9.7627 44.2715 -25.6006h23.9951c9.42578 0 17.0674 7.6416 17.0674 17.0674zM170.667 287.487z" />
    <glyph glyph-name="uniF103" unicode="&#xf103;"
d="M226.853 45.2705c9.51855 -0.0214844 17.2285 -7.73145 17.25 -17.249c0 -9.52637 -7.72266 -17.25 -17.25 -17.25c-9.52637 0 -17.2451 7.72363 -17.2451 17.25s7.71875 17.249 17.2451 17.249zM226.853 45.2705zM511.676 122.234
c0.913086 -2.75 0.691406 -5.75293 -0.62207 -8.33691s-3.60352 -4.53711 -6.36719 -5.41992l-201.851 -66.375c0.87793 -4.60547 1.31738 -9.28418 1.30859 -13.9707c0.00488281 -38.1533 -27.8291 -70.5967 -65.5352 -76.4004
c-37.7051 -5.80371 -74.0039 16.7764 -85.4707 53.1602s5.32617 75.6973 39.5479 92.5625l-96.9424 294.209c-3.69336 11.1475 -13.0615 19.4717 -24.5625 21.834l-62.4443 12.7715c-5.91016 1.20312 -9.72266 6.97266 -8.51562 12.8828
c1.20215 5.90625 6.97266 9.71875 12.8828 8.51172l62.4434 -12.8789c19.1768 -3.89746 34.8018 -17.7695 40.9385 -36.3535l96.9424 -294.209c33.667 6.0127 67.2705 -10.8779 82.5283 -41.4844l201.962 66.4824c5.72754 1.8291 11.8555 -1.28418 13.7568 -6.98535z
M226.853 -11.0615c21.5654 0.0546875 39.0283 17.5225 39.083 39.083c0 21.5859 -17.4961 39.083 -39.083 39.083c-21.582 0 -39.0781 -17.4971 -39.0781 -39.083c0 -21.5869 17.4961 -39.083 39.0781 -39.083zM226.853 -11.0615zM220.524 278.562l-7.96973 24.2354
c-2.52441 7.71777 1.67578 16.0205 9.38574 18.5586l177.398 58.4043c1.47559 0.520508 3.02344 0.776367 4.58887 0.763672c6.34961 -0.0341797 11.9746 -4.11914 13.9697 -10.1494l7.9707 -24.2383zM212.555 302.798zM268.119 133.697l-40.8271 124.124l205.344 67.5732
l40.8311 -124.124c1.19434 -3.71875 0.878906 -7.75684 -0.874023 -11.2451c-1.74023 -3.4834 -4.81055 -6.11914 -8.51562 -7.31348l-177.399 -58.4053c-3.71777 -1.19336 -7.75684 -0.87793 -11.2451 0.875c-3.4834 1.73926 -6.11914 4.80957 -7.31348 8.51562z
M227.292 257.821z" />
  </font>
</defs></svg>
