<?xml version="1.0" encoding="UTF-8"?>
<svg width="82px" height="96px" viewBox="0 0 82 96" version="1.1" xmlns="http://www.w3.org/2000/svg" xmlns:xlink="http://www.w3.org/1999/xlink">
    <title>а4</title>
    <g id="Page-1" stroke="none" stroke-width="1" fill="none" fill-rule="evenodd">
        <g id="Бизнес-Аналитика---2-2---1440" transform="translate(-531.000000, -592.000000)">
            <g id="а4" transform="translate(532.761397, 593.838183)">
                <path d="M34.4340491,78.9945568 C34.4340491,79.6391066 34.3710826,80.2192014 34.3710826,80.8637511 C34.3710826,82.0883957 34.4340491,83.3774952 34.6229487,84.6021397 C34.6859153,85.2466895 34.8118483,85.8267843 34.8748148,86.4713341 C35.0007479,87.0514288 35.126681,87.6959786 35.252614,88.2760734 C35.5674467,89.5007179 35.8822793,90.6609075 36.2600785,91.8210971 C36.4489781,92.4011919 36.1341454,93.0457416 35.5674467,93.2391066 C35.3155806,93.3035615 35.0637144,93.3035615 34.8748148,93.2391066 L34.6859153,93.1746516 L33.111752,92.6590118 C32.6080198,92.4656469 32.1042875,92.2722819 31.5375888,92.078917 C31.0338565,91.8855521 30.5301243,91.6921871 30.0263921,91.4988222 L28.5151953,90.9187274 C27.5077309,90.5319976 26.5002664,90.0808127 25.4928019,89.6296279 C24.4853374,89.1139881 23.5408395,88.5983483 22.5963415,87.9537985 C22.2815089,87.7604336 22.2185424,87.3092488 22.4704085,87.0514288 C22.5963415,86.8580639 22.7852411,86.729154 22.9741407,86.729154 C23.5408395,86.729154 24.1075383,86.8580639 24.674237,86.9225189 C25.2409358,86.9869739 25.8076346,87.1158838 26.3113668,87.2447938 C27.3817978,87.5026137 28.4522288,87.8248886 29.5226598,88.2116184 C30.5301243,88.5983483 31.6005553,89.0495331 32.6080198,89.5007179 C33.6154842,89.9519028 33.5700026,90.0339538 33.8043838,90.4030876 C33.7414173,89.7585379 33.6784508,89.1139881 33.6154842,88.4694383 C33.5525177,87.8248886 33.4895512,87.1803388 33.4265847,86.535789 C33.3636181,85.8912393 33.3636181,85.2466895 33.3006516,84.6021397 C33.2376851,83.95759 33.2376851,83.3130402 33.2376851,82.6684905 L33.2376851,80.7348412 C33.2376851,80.0902914 33.1747185,79.4457416 33.2376851,78.8011919 L33.2376851,76.8675426 C33.2376851,76.5452677 33.6154842,76.2874478 33.9303169,76.2874478 C34.3081161,76.4808127 34.5599822,76.7386326 34.6229487,77.1253625 C34.5599822,77.7699123 34.4970157,78.350007 34.4340491,78.9945568 Z" id="Combined-Shape-Copy-2" fill="#4679AE" fill-rule="nonzero" transform="translate(29.314996, 84.787448) scale(-1, 1) rotate(-2.000000) translate(-29.314996, -84.787448) "></path>
                <path d="M13,75 C38.3333333,61.6666667 56,39.6666667 66,9" id="Path-31" stroke="#4679AE" stroke-width="2" stroke-linecap="round" stroke-linejoin="round" stroke-dasharray="6" transform="translate(39.500000, 42.000000) rotate(-27.000000) translate(-39.500000, -42.000000) "></path>
            </g>
        </g>
    </g>
</svg>