<?xml version="1.0" encoding="UTF-8"?>
<svg width="114px" height="130px" viewBox="0 0 114 130" version="1.1" xmlns="http://www.w3.org/2000/svg" xmlns:xlink="http://www.w3.org/1999/xlink">
    <title>а6</title>
    <g id="Page-1" stroke="none" stroke-width="1" fill="none" fill-rule="evenodd">
        <g id="Бизнес-Аналитика---2-2---1440" transform="translate(-867.000000, -600.000000)">
            <g id="а6" transform="translate(868.000000, 601.000000)">
                <path d="M108.119053,111.707109 C108.119053,112.351659 108.056087,112.931754 108.056087,113.576303 C108.056087,114.800948 108.119053,116.090047 108.307953,117.314692 C108.370919,117.959242 108.496853,118.539336 108.559819,119.183886 C108.685752,119.763981 108.811685,120.408531 108.937618,120.988626 C109.252451,122.21327 109.567284,123.37346 109.945083,124.533649 C110.133982,125.113744 109.81915,125.758294 109.252451,125.951659 C109.000585,126.016114 108.748719,126.016114 108.559819,125.951659 L108.370919,125.887204 L106.796756,125.371564 C106.293024,125.178199 105.789292,124.984834 105.222593,124.791469 C104.718861,124.598104 104.215128,124.404739 103.711396,124.211374 L102.2002,123.63128 C101.192735,123.24455 100.185271,122.793365 99.1778061,122.34218 C98.1703416,121.82654 97.2258437,121.3109 96.2813457,120.666351 C95.9665131,120.472986 95.9035466,120.021801 96.1554127,119.763981 C96.2813457,119.570616 96.4702453,119.441706 96.6591449,119.441706 C97.2258437,119.441706 97.7925425,119.570616 98.3592412,119.635071 C98.92594,119.699526 99.4926388,119.828436 99.996371,119.957346 C101.066802,120.215166 102.137233,120.537441 103.207664,120.924171 C104.215128,121.3109 105.285559,121.762085 106.293024,122.21327 C107.300488,122.664455 107.255007,122.746506 107.489388,123.11564 C107.426422,122.47109 107.363455,121.82654 107.300488,121.181991 C107.237522,120.537441 107.174555,119.892891 107.111589,119.248341 C107.048622,118.603791 107.048622,117.959242 106.985656,117.314692 C106.922689,116.670142 106.922689,116.025592 106.922689,115.381043 L106.922689,113.447393 C106.922689,112.802844 106.859723,112.158294 106.922689,111.513744 L106.922689,109.580095 C106.922689,109.25782 107.300488,109 107.615321,109 C107.99312,109.193365 108.244986,109.451185 108.307953,109.837915 C108.244986,110.482464 108.18202,111.062559 108.119053,111.707109 Z" id="Combined-Shape-Copy-2" fill="#4679AE" fill-rule="nonzero" transform="translate(103.000000, 117.500000) scale(-1, 1) rotate(23.000000) translate(-103.000000, -117.500000) "></path>
                <path d="M103.849743,112 C105.64954,82 91.2806714,62.3333333 60.7431377,53 C14.9368371,39 0,11 0,0" id="Path-33" stroke="#4679AE" stroke-width="2" stroke-linecap="round" stroke-linejoin="round" stroke-dasharray="6"></path>
            </g>
        </g>
    </g>
</svg>