<?xml version="1.0" encoding="UTF-8"?>
<svg width="25px" height="97px" viewBox="0 0 25 97" version="1.1" xmlns="http://www.w3.org/2000/svg" xmlns:xlink="http://www.w3.org/1999/xlink">
    <title>а7</title>
    <g id="Page-1" stroke="none" stroke-width="1" fill="none" fill-rule="evenodd">
        <g id="Бизнес-Аналитика---2-2---1440" transform="translate(-1291.000000, -583.000000)">
            <g id="а7" transform="translate(1291.369664, 584.379023)">
                <path d="M14.1190533,79.2471249 C14.1190533,79.8916746 14.0560868,80.4717694 14.0560868,81.1163192 C14.0560868,82.3409637 14.1190533,83.6300632 14.3079529,84.8547078 C14.3709195,85.4992576 14.4968525,86.0793523 14.559819,86.7239021 C14.6857521,87.3039969 14.8116852,87.9485467 14.9376182,88.5286414 C15.2524509,89.753286 15.5672835,90.9134756 15.9450827,92.0736651 C16.1339823,92.6537599 15.8191496,93.2983097 15.2524509,93.4916746 C15.0005848,93.5561296 14.7487186,93.5561296 14.559819,93.4916746 L14.3709195,93.4272196 L12.7967562,92.9115798 C12.293024,92.7182149 11.7892917,92.52485 11.222593,92.3314851 C10.7188607,92.1381201 10.2151285,91.9447552 9.71139625,91.7513903 L8.20019954,91.1712955 C7.19273506,90.7845656 6.18527058,90.3333808 5.17780611,89.882196 C4.17034163,89.3665561 3.22584368,88.8509163 2.28134574,88.2063666 C1.96651309,88.0130016 1.90354656,87.5618168 2.15541268,87.3039969 C2.28134574,87.110632 2.47024533,86.981722 2.65914492,86.981722 C3.22584368,86.981722 3.79254245,87.110632 4.35924122,87.1750869 C4.92593999,87.2395419 5.49263876,87.3684519 5.99637099,87.4973618 C7.066802,87.7551817 8.13723301,88.0774566 9.20766401,88.4641865 C10.2151285,88.8509163 11.2855595,89.3021012 12.293024,89.753286 C13.3004884,90.2044708 13.2550068,90.2865218 13.489388,90.6556557 C13.4264215,90.0111059 13.363455,89.3665561 13.3004884,88.7220064 C13.2375219,88.0774566 13.1745554,87.4329069 13.1115889,86.7883571 C13.0486223,86.1438073 13.0486223,85.4992576 12.9856558,84.8547078 C12.9226893,84.210158 12.9226893,83.5656083 12.9226893,82.9210585 L12.9226893,80.9874092 C12.9226893,80.3428595 12.8597227,79.6983097 12.9226893,79.0537599 L12.9226893,77.1201106 C12.9226893,76.7978358 13.3004884,76.5400159 13.6153211,76.5400159 C13.9931203,76.7333808 14.2449864,76.9912007 14.3079529,77.3779305 C14.2449864,78.0224803 14.1820199,78.6025751 14.1190533,79.2471249 Z" id="Combined-Shape-Copy-2" fill="#4679AE" fill-rule="nonzero" transform="translate(9.000000, 85.040016) scale(-1, 1) rotate(10.000000) translate(-9.000000, -85.040016) "></path>
                <path d="M7.17792037,81 C17.844587,59.6666667 21.5112537,33 18.1779204,1" id="Path-34" stroke="#4679AE" stroke-width="2" stroke-linecap="round" stroke-linejoin="round" stroke-dasharray="6" transform="translate(13.273158, 41.000000) rotate(-5.000000) translate(-13.273158, -41.000000) "></path>
            </g>
        </g>
    </g>
</svg>