<?xml version="1.0" encoding="UTF-8"?>
<svg width="40px" height="40px" viewBox="0 0 40 40" version="1.1" xmlns="http://www.w3.org/2000/svg" xmlns:xlink="http://www.w3.org/1999/xlink">
    <title>кв10</title>
    <g id="Page-1" stroke="none" stroke-width="1" fill="none" fill-rule="evenodd">
        <g id="Бизнес-Аналитика---2-1---1440" transform="translate(-713.000000, -1417.000000)" fill="#BBC1C7" fill-rule="nonzero">
            <path d="M723.804013,1422.00862 C729.273572,1416.53907 737.764023,1415.42079 744.451627,1419.28924 C744.825087,1419.50525 744.952752,1419.98315 744.736644,1420.35666 C744.520537,1420.7301 744.042695,1420.85784 743.669078,1420.64174 C737.593387,1417.1272 729.878766,1418.14345 724.908925,1423.11339 C718.850579,1429.17185 718.850579,1439.02954 724.908925,1445.08793 C727.843717,1448.02262 731.745679,1449.63896 735.896016,1449.63896 C740.04643,1449.63896 743.948392,1448.0227 746.883184,1445.08793 C751.671842,1440.29916 752.815663,1433.03593 749.729221,1427.01434 C749.532412,1426.63028 749.684218,1426.1595 750.068148,1425.9627 C750.452078,1425.7659 750.922889,1425.91762 751.119854,1426.30161 C752.757222,1429.49623 753.341165,1433.07077 752.808631,1436.6386 C752.26516,1440.27885 750.598338,1443.58261 747.988331,1446.19262 C744.758443,1449.42255 740.464035,1451.20139 735.896172,1451.20139 C731.590123,1451.20139 727.527057,1449.6206 724.369751,1446.73356 L724.369751,1446.73356 L723.279136,1447.82419 L724.567341,1449.11247 C724.872439,1449.41763 724.872439,1449.91224 724.567341,1450.21732 L724.567341,1450.21732 L718.775965,1456.00867 C718.136707,1456.64797 717.28681,1457 716.382847,1457 C715.478807,1457 714.62891,1456.64789 713.989651,1456.00867 C712.670116,1454.68913 712.670116,1452.54201 713.989651,1451.22248 L713.989651,1451.22248 L719.781028,1445.43105 C719.927521,1445.28457 720.126284,1445.20222 720.333484,1445.20222 C720.540684,1445.20222 720.739447,1445.28457 720.88594,1445.43105 L720.88594,1445.43105 L722.174146,1446.71926 L723.264682,1445.62879 C720.37669,1442.4712 718.795263,1438.40743 718.795263,1434.10062 C718.795263,1429.53287 720.574124,1425.23848 723.804013,1422.00862 Z M720.333562,1447.08848 L715.094642,1452.3274 C714.384285,1453.03772 714.384285,1454.19358 715.094642,1454.9039 C715.438726,1455.24796 715.896176,1455.43749 716.382847,1455.43749 C716.86944,1455.43749 717.326891,1455.24796 717.670974,1454.9039 L717.670974,1454.9039 L722.909894,1449.6649 L722.174224,1448.92927 L720.718742,1450.38474 C720.566233,1450.53724 720.36622,1450.61357 720.166286,1450.61357 C719.966352,1450.61357 719.766417,1450.53732 719.61383,1450.38474 C719.308733,1450.07966 719.308733,1449.58497 719.61383,1449.27989 L719.61383,1449.27989 L721.069389,1447.82434 L720.333562,1447.08848 Z M735.896016,1421.1012 C743.064743,1421.1012 748.896982,1426.93348 748.896982,1434.10226 C748.896982,1435.66 748.624074,1437.18391 748.085837,1438.63181 C747.935515,1439.03618 747.4858,1439.24212 747.081244,1439.09189 C746.676765,1438.94157 746.470737,1438.49181 746.621137,1438.08735 C747.094369,1436.8143 747.334306,1435.47352 747.334306,1434.10226 C747.334306,1427.79505 742.203127,1422.6637 735.895938,1422.6637 C729.588826,1422.6637 724.457569,1427.79505 724.457569,1434.10226 C724.457569,1437.62587 726.113219,1440.96424 728.85589,1443.11628 L728.85589,1443.11628 L728.85589,1438.49743 C728.85589,1436.96743 730.100186,1435.72266 731.629656,1435.72266 L731.629656,1435.72266 L731.91608,1435.72266 C730.760696,1434.65172 730.036432,1433.12179 730.036432,1431.42584 C730.036432,1428.19497 732.664955,1425.56637 735.895938,1425.56637 C739.12692,1425.56637 741.755443,1428.19497 741.755443,1431.42584 C741.755443,1433.12179 741.031257,1434.65172 739.875795,1435.72266 L739.875795,1435.72266 L740.162375,1435.72266 C741.691767,1435.72266 742.936064,1436.96743 742.936064,1438.49743 L742.936064,1438.49743 L742.936064,1444.59917 C742.936064,1444.87402 742.79168,1445.12863 742.555649,1445.26972 C740.548962,1446.46926 738.246006,1447.10332 735.896016,1447.10332 C733.546026,1447.10332 731.24307,1446.46926 729.236382,1445.26972 C729.235757,1445.26933 729.23521,1445.26902 729.234585,1445.26863 C727.338295,1444.13511 725.750306,1442.5262 724.642112,1440.61541 C723.49915,1438.64478 722.89505,1436.3925 722.89505,1434.10226 C722.89505,1426.93341 728.72721,1421.1012 735.896016,1421.1012 Z M740.162453,1437.28508 L731.629734,1437.28508 C730.96188,1437.28508 730.418565,1437.82891 730.418565,1438.49735 L730.418565,1438.49735 L730.418565,1444.14597 C732.091169,1445.0598 733.975349,1445.54074 735.896094,1445.54074 C737.816838,1445.54074 739.701018,1445.05972 741.373544,1444.14597 L741.373544,1444.14597 L741.373544,1438.49735 C741.373544,1437.82891 740.830229,1437.28508 740.162453,1437.28508 L740.162453,1437.28508 Z M735.896016,1427.1288 C733.526728,1427.1288 731.599108,1429.05638 731.599108,1431.42577 C731.599108,1433.78226 733.505867,1435.7018 735.857341,1435.72258 L735.857341,1435.72258 L735.934612,1435.72258 C738.286243,1435.7018 740.192924,1433.78226 740.192924,1431.42577 C740.192924,1429.05638 738.265304,1427.1288 735.896016,1427.1288 Z M747.489941,1421.69979 C747.539944,1421.70995 747.589166,1421.72557 747.635966,1421.74511 C747.683625,1421.76464 747.72894,1421.78807 747.77113,1421.8162 C747.814102,1421.84511 747.853948,1421.87792 747.889888,1421.91386 C747.925827,1421.94979 747.95872,1421.98964 747.98755,1422.03261 C748.015677,1422.07479 748.039116,1422.12011 748.058648,1422.16698 C748.07904,1422.21464 748.093807,1422.26386 748.103963,1422.31386 C748.11412,1422.36386 748.118808,1422.41542 748.118808,1422.4662 C748.118808,1422.51698 748.11412,1422.56855 748.103963,1422.61855 C748.093807,1422.66855 748.07904,1422.71777 748.058648,1422.76464 C748.039116,1422.8123 748.015677,1422.85761 747.98755,1422.8998 C747.95872,1422.94277 747.925827,1422.98261 747.889888,1423.01855 C747.853948,1423.05449 747.814102,1423.0873 747.77113,1423.11542 C747.72894,1423.14355 747.683625,1423.16777 747.635966,1423.1873 C747.589088,1423.20683 747.539866,1423.22245 747.489941,1423.23183 C747.43986,1423.24206 747.388294,1423.24745 747.337588,1423.24745 C747.286803,1423.24745 747.235238,1423.24199 747.185234,1423.23183 C747.135231,1423.22245 747.086009,1423.20683 747.039132,1423.1873 C746.991472,1423.16777 746.946235,1423.14355 746.904045,1423.11542 C746.860995,1423.0873 746.821149,1423.05449 746.785209,1423.01855 C746.74927,1422.98261 746.716455,1422.94277 746.688328,1422.8998 C746.66028,1422.85761 746.635981,1422.8123 746.616449,1422.76464 C746.596917,1422.71777 746.581291,1422.66855 746.571993,1422.61855 C746.561758,1422.56855 746.556367,1422.51698 746.556367,1422.4662 C746.556367,1422.41542 746.561758,1422.36386 746.571993,1422.31386 C746.581291,1422.26386 746.596917,1422.21464 746.616449,1422.16698 C746.635981,1422.12011 746.660202,1422.07479 746.688328,1422.03261 C746.716455,1421.98964 746.74927,1421.94979 746.785209,1421.91386 C746.821149,1421.87792 746.860995,1421.84511 746.904045,1421.8162 C746.946235,1421.78807 746.991472,1421.76386 747.039132,1421.74511 C747.086009,1421.72557 747.135231,1421.70995 747.185234,1421.69979 C747.286022,1421.68026 747.389153,1421.68026 747.489941,1421.69979 Z" id="кв10"></path>
        </g>
    </g>
</svg>