<?xml version="1.0" encoding="UTF-8"?>
<svg width="38px" height="40px" viewBox="0 0 38 40" version="1.1" xmlns="http://www.w3.org/2000/svg" xmlns:xlink="http://www.w3.org/1999/xlink">
    <title>кв7</title>
    <g id="Page-1" stroke="none" stroke-width="1" fill="none" fill-rule="evenodd">
        <g id="Бизнес-Аналитика---2-1---1440" transform="translate(-391.000000, -1135.000000)" fill="#BBC1C7" fill-rule="nonzero">
            <path d="M423.402575,1163.85586 C426.451928,1163.85931 428.923063,1166.35199 428.926489,1169.42793 C428.926489,1172.5053 426.453349,1175 423.402575,1175 C420.351802,1175 417.878661,1172.5053 417.878661,1169.42793 C417.878661,1166.35056 420.351802,1163.85586 423.402575,1163.85586 Z M399.6533,1164.74568 C400.024491,1164.74568 400.325401,1165.04921 400.325401,1165.42364 L400.325401,1165.42364 L400.325401,1173.47442 C400.325401,1173.84885 400.024491,1174.15238 399.6533,1174.15238 L399.6533,1174.15238 L391.672101,1174.15238 C391.30091,1174.15238 391,1173.84885 391,1173.47442 L391,1173.47442 L391,1165.42364 C391,1165.04921 391.30091,1164.74568 391.672101,1164.74568 L391.672101,1164.74568 Z M423.402575,1165.21161 C421.094184,1165.21161 419.222863,1167.09924 419.222863,1169.42776 C419.222863,1171.75627 421.094184,1173.64391 423.402575,1173.64391 C425.709892,1173.64129 427.579694,1171.75519 427.582287,1169.42776 C427.582287,1167.09924 425.710966,1165.21161 423.402575,1165.21161 Z M412.527806,1165.66281 C412.760804,1165.60033 413.009129,1165.66852 413.178575,1165.84152 L413.178575,1165.84152 L416.149514,1168.83836 C416.340531,1168.96315 416.455824,1169.17709 416.455824,1169.40666 L416.455824,1169.40666 L416.455152,1169.42056 C416.457364,1169.60286 416.386471,1169.77834 416.258562,1169.90716 L416.258562,1169.90716 L413.178575,1173.014 C413.009129,1173.187 412.760804,1173.25519 412.527806,1173.19271 C412.294807,1173.13024 412.112832,1172.94666 412.050915,1172.71162 C411.988998,1172.47659 412.056625,1172.2261 412.228141,1172.05519 L412.228141,1172.05519 L414.181686,1170.08462 L403.349855,1170.08462 C402.978664,1170.08462 402.677754,1169.78108 402.677754,1169.40666 C402.677754,1169.03223 402.978664,1168.7287 403.349855,1168.7287 L403.349855,1168.7287 L414.139848,1168.7287 L412.228141,1166.80032 C412.056625,1166.62942 411.988998,1166.37893 412.050915,1166.1439 C412.112832,1165.90886 412.294807,1165.72528 412.527806,1165.66281 Z M398.981199,1166.1016 L392.344202,1166.1016 L392.344202,1172.79646 L398.981199,1172.79646 L398.981199,1166.1016 Z M421.835215,1167.32541 C422.070196,1167.26335 422.320091,1167.33401 422.488854,1167.51023 L422.488854,1167.51023 L423.439373,1168.46904 L424.389808,1167.51023 C424.515852,1167.38308 424.686809,1167.31165 424.865067,1167.31165 C425.043325,1167.31165 425.214282,1167.38308 425.340326,1167.51023 C425.602828,1167.77492 425.602941,1168.20413 425.340578,1168.46895 L425.340578,1168.46895 L424.39006,1169.42776 L425.340578,1170.38656 C425.512079,1170.55749 425.579684,1170.80798 425.517747,1171.04301 C425.455809,1171.27804 425.273818,1171.4616 425.040814,1171.52406 C424.807809,1171.58651 424.559491,1171.5183 424.39006,1171.34529 L424.39006,1171.34529 L423.439625,1170.38648 L422.489106,1171.34529 C422.319675,1171.5183 422.071356,1171.58651 421.838352,1171.52406 C421.605348,1171.4616 421.423357,1171.27804 421.361419,1171.04301 C421.299481,1170.80798 421.367086,1170.55749 421.538587,1170.38656 L421.538587,1170.38656 L422.489106,1169.42776 L421.538587,1168.46895 C421.363855,1168.29875 421.293763,1168.04669 421.35525,1167.80965 C421.416736,1167.57261 421.600234,1167.38748 421.835215,1167.32541 Z M423.476086,1149.42793 C426.52542,1149.43143 428.996528,1151.92408 429,1155 C429,1157.25369 427.654142,1159.28547 425.589997,1160.14792 C423.525851,1161.01037 421.149918,1160.53365 419.570089,1158.94005 C417.990261,1157.34645 417.517659,1154.9498 418.372655,1152.86766 C419.227652,1150.78552 421.241872,1149.42793 423.476086,1149.42793 Z M399.6533,1150.25428 C400.024491,1150.25428 400.325401,1150.55781 400.325401,1150.93224 L400.325401,1150.93224 L400.325401,1158.98302 C400.325401,1159.35744 400.024491,1159.66098 399.6533,1159.66098 L399.6533,1159.66098 L391.672101,1159.66098 C391.30091,1159.66098 391,1159.35744 391,1158.98302 L391,1158.98302 L391,1150.93224 C391,1150.55781 391.30091,1150.25428 391.672101,1150.25428 L391.672101,1150.25428 Z M425.075709,1151.10466 C423.513863,1150.45203 421.716067,1150.8127 420.520643,1152.0185 C419.325219,1153.2243 418.96759,1155.03775 419.61452,1156.61324 C420.26145,1158.18873 421.785535,1159.21598 423.476086,1159.21598 L423.476086,1159.21598 C425.783403,1159.21354 427.653205,1157.32743 427.655798,1155 C427.655798,1153.29471 426.637555,1151.7573 425.075709,1151.10466 Z M412.227805,1151.41393 C412.490237,1151.14902 412.915874,1151.14887 413.178491,1151.41359 L413.178491,1151.41359 L416.254529,1154.51644 C416.288234,1154.54989 416.318364,1154.58682 416.344423,1154.62661 C416.345011,1154.62763 416.345599,1154.62865 416.346271,1154.62966 L416.346271,1154.62966 L416.378028,1154.6839 L416.378028,1154.6839 C416.389958,1154.70754 416.398443,1154.72568 416.406004,1154.74432 C416.406508,1154.74576 416.406844,1154.74695 416.407516,1154.74771 C416.47204,1154.90926 416.47204,1155.08973 416.407516,1155.25127 C416.406928,1155.25254 416.406592,1155.2539 416.406088,1155.25517 C416.398443,1155.27381 416.389958,1155.29195 416.380884,1155.30974 L416.380884,1155.30974 C416.368367,1155.33423 416.357697,1155.3522 416.346355,1155.36983 C416.345683,1155.37084 416.345095,1155.37186 416.344507,1155.37288 C416.318448,1155.41267 416.288318,1155.4496 416.254614,1155.48305 L416.254614,1155.48305 L413.178912,1158.5859 C413.009465,1158.7589 412.76114,1158.82709 412.528142,1158.76461 C412.295143,1158.70214 412.113168,1158.51856 412.051251,1158.28352 C411.989334,1158.04849 412.056961,1157.798 412.228477,1157.6271 L412.228477,1157.6271 L414.160767,1155.67796 L403.349855,1155.67796 C402.978664,1155.67796 402.677754,1155.37443 402.677754,1155 C402.677754,1154.62557 402.978664,1154.32204 403.349855,1154.32204 L403.349855,1154.32204 L414.160431,1154.32204 L412.228141,1152.3729 C411.965523,1152.10818 411.965373,1151.67884 412.227805,1151.41393 Z M398.981199,1151.6102 L392.344202,1151.6102 L392.344202,1158.3898 L398.981199,1158.3898 L398.981199,1151.6102 Z M425.340746,1153.05281 C425.610695,1152.79579 426.036088,1152.80818 426.290887,1153.08048 C426.545687,1153.35278 426.533406,1153.78189 426.263457,1154.03891 L426.263457,1154.03891 L423.209682,1156.94651 C422.942723,1157.20072 422.522937,1157.19181 422.266809,1156.92651 L422.266809,1156.92651 L420.668637,1155.27118 C420.494913,1155.0989 420.427215,1154.84528 420.491695,1154.6083 C420.556175,1154.37132 420.742737,1154.18809 420.979306,1154.1294 C421.215875,1154.0707 421.465409,1154.14574 421.631505,1154.32551 L421.631505,1154.32551 L422.768112,1155.50271 L425.340746,1153.05315 Z M423.402575,1135 C426.453349,1135 428.926489,1137.4947 428.926489,1140.57207 C428.926489,1143.64944 426.453349,1146.14414 423.402575,1146.14414 C420.353241,1146.14064 417.882134,1143.64799 417.878661,1140.57207 C417.878661,1137.4947 420.351802,1135 423.402575,1135 Z M399.6533,1135.84762 C400.024491,1135.84762 400.325401,1136.15115 400.325401,1136.52558 L400.325401,1136.52558 L400.325401,1144.57636 C400.325401,1144.95079 400.024491,1145.25432 399.6533,1145.25432 L399.6533,1145.25432 L391.672101,1145.25432 C391.30091,1145.25432 391,1144.95079 391,1144.57636 L391,1144.57636 L391,1136.52558 C391,1136.15115 391.30091,1135.84762 391.672101,1135.84762 L391.672101,1135.84762 Z M423.402575,1136.35609 C421.095259,1136.35871 419.225456,1138.24481 419.222863,1140.57224 C419.222863,1142.27751 420.241217,1143.81488 421.803069,1144.46746 C423.36492,1145.12004 425.162689,1144.75932 426.358078,1143.55351 C427.553467,1142.3477 427.911065,1140.53426 427.264125,1138.95879 C426.617185,1137.38332 425.093111,1136.35609 423.402575,1136.35609 Z M412.230975,1136.98894 C412.492309,1136.72531 412.915636,1136.72399 413.178575,1136.986 L413.178575,1136.986 L416.258562,1140.09284 C416.386471,1140.22166 416.457364,1140.39714 416.455152,1140.57944 L416.455152,1140.57944 L416.455824,1140.59334 C416.455824,1140.82291 416.340531,1141.03685 416.149514,1141.16164 L416.149514,1141.16164 L413.178575,1144.15848 C413.009129,1144.33148 412.760804,1144.39967 412.527806,1144.33719 C412.294807,1144.27472 412.112832,1144.09114 412.050915,1143.8561 C411.988998,1143.62107 412.056625,1143.37058 412.228141,1143.19968 L412.228141,1143.19968 L414.139848,1141.2713 L403.349855,1141.2713 C402.978664,1141.2713 402.677754,1140.96777 402.677754,1140.59334 C402.677754,1140.21892 402.978664,1139.91538 403.349855,1139.91538 L403.349855,1139.91538 L414.181686,1139.91538 L412.228141,1137.94481 C411.968375,1137.6796 411.969641,1137.25258 412.230975,1136.98894 Z M398.981199,1137.20354 L392.344202,1137.20354 L392.344202,1143.8984 L398.981199,1143.8984 L398.981199,1137.20354 Z M424.389808,1138.65471 C424.559239,1138.4817 424.807557,1138.41349 425.040562,1138.47594 C425.273566,1138.5384 425.455557,1138.72196 425.517495,1138.95699 C425.579432,1139.19202 425.511827,1139.44251 425.340326,1139.61344 L425.340326,1139.61344 L424.389808,1140.57224 L425.340578,1141.53105 C425.512079,1141.70197 425.579684,1141.95246 425.517747,1142.18749 C425.455809,1142.42252 425.273818,1142.60608 425.040814,1142.66854 C424.807809,1142.73099 424.559491,1142.66278 424.39006,1142.48977 L424.39006,1142.48977 L423.439625,1141.53096 L422.489106,1142.48977 C422.363062,1142.61692 422.192105,1142.68835 422.013847,1142.68835 C421.835588,1142.68835 421.664632,1142.61692 421.538587,1142.48977 C421.276155,1142.22501 421.276155,1141.7958 421.538587,1141.53105 L421.538587,1141.53105 L422.489106,1140.57224 L421.538587,1139.61344 C421.283856,1139.34744 421.287462,1138.92459 421.546691,1138.66306 C421.80592,1138.40152 422.225113,1138.39781 422.488854,1138.65471 L422.488854,1138.65471 L423.439373,1139.61352 Z" id="кв7"></path>
        </g>
    </g>
</svg>