<?xml version="1.0" encoding="UTF-8"?>
<svg width="40px" height="40px" viewBox="0 0 40 40" version="1.1" xmlns="http://www.w3.org/2000/svg" xmlns:xlink="http://www.w3.org/1999/xlink">
    <title>кв9</title>
    <g id="Page-1" stroke="none" stroke-width="1" fill="none" fill-rule="evenodd">
        <g id="Бизнес-Аналитика---2-1---1440" transform="translate(-1031.000000, -1135.000000)" fill="#BBC1C7" fill-rule="nonzero">
            <path d="M1036.99454,1136.34719 C1039.12529,1136.32652 1041.85673,1137.19254 1044.87552,1138.78658 C1048.83955,1137.28545 1053.21688,1137.29257 1057.176,1138.80658 C1058.25523,1137.58309 1060.05577,1137.30811 1061.451,1138.1537 C1062.84623,1138.99928 1063.4356,1140.72268 1062.85034,1142.24554 C1062.26508,1143.7684 1060.6732,1144.65353 1059.07077,1144.3471 C1057.46834,1144.04067 1056.31537,1142.63064 1056.3333,1140.9993 C1056.33841,1140.65224 1056.39849,1140.30818 1056.51131,1139.97994 C1053.27728,1138.79247 1049.746,1138.68233 1046.44425,1139.66593 C1049.5625,1141.55024 1052.48488,1143.74081 1055.16803,1146.20505 L1055.33327,1146.33275 C1056.01301,1146.94451 1056.67427,1147.56551 1057.31705,1148.19575 L1057.31751,1145.98204 C1057.31751,1145.70129 1057.52242,1145.46813 1057.79061,1145.42431 L1057.88216,1145.41691 L1061.26991,1145.41691 C1061.55041,1145.41691 1061.78337,1145.62195 1061.82716,1145.8904 L1061.83455,1145.98204 L1061.83537,1153.14995 C1062.46298,1153.92327 1063.06648,1154.70865 1063.64586,1155.50609 L1063.579,1155.418 L1063.97736,1155.95681 C1064.81774,1157.1151 1065.6062,1158.31036 1066.34037,1159.53906 C1067.87988,1154.35111 1066.68743,1148.73649 1063.17224,1144.62205 C1063.01742,1144.44091 1062.971,1144.19094 1063.05046,1143.96629 C1063.12992,1143.74164 1063.3232,1143.57645 1063.55748,1143.53295 C1063.79176,1143.48944 1064.03146,1143.57422 1064.18628,1143.75536 C1068.28389,1148.55326 1069.44666,1155.20048 1067.22107,1161.10443 L1067.31707,1161.28697 C1068.85435,1164.23169 1069.67115,1166.86946 1069.65978,1168.94655 L1069.65916,1169.01061 C1070.7049,1169.78832 1071.19991,1171.10489 1070.92515,1172.3784 C1070.65039,1173.65191 1069.65658,1174.64728 1068.38348,1174.92404 C1067.11038,1175.20081 1065.79302,1174.70788 1065.01431,1173.66339 C1064.98581,1173.66589 1064.96106,1173.66651 1064.93556,1173.66667 L1064.90964,1173.66672 C1062.77623,1173.66672 1060.07345,1172.78804 1057.10734,1171.21733 C1053.64993,1172.52625 1049.86297,1172.68731 1046.30691,1171.67668 C1045.26032,1173.04837 1043.34541,1173.40544 1041.87478,1172.50314 C1040.40415,1171.60083 1039.85501,1169.73195 1040.60379,1168.17753 C1041.35257,1166.62312 1043.15628,1165.88759 1044.77854,1166.47512 C1046.40081,1167.06266 1047.3152,1168.78259 1046.89493,1170.45598 C1049.73137,1171.21801 1052.72365,1171.17786 1055.53861,1170.33998 C1052.83752,1168.6874 1050.27846,1166.81792 1047.88625,1164.75127 L1046.4485,1164.75069 C1046.16799,1164.75069 1045.93504,1164.54561 1045.89125,1164.27719 L1045.88386,1164.18556 L1045.88254,1162.93707 C1045.47727,1162.55259 1045.07744,1162.16213 1044.68316,1161.76582 L1044.68406,1164.18551 C1044.68406,1164.46626 1044.47916,1164.69941 1044.21097,1164.74324 L1044.11942,1164.75064 L1040.73167,1164.75064 C1040.45117,1164.75064 1040.21821,1164.54556 1040.17442,1164.27717 L1040.16703,1164.18556 L1040.16605,1156.81367 C1038.5118,1154.80722 1037.00714,1152.68124 1035.66449,1150.45285 C1033.96229,1156.18017 1035.59835,1162.37862 1039.90532,1166.51989 C1040.1708,1166.77524 1040.17901,1167.19744 1039.92366,1167.46291 C1039.66831,1167.72838 1039.2461,1167.73659 1038.98062,1167.48125 C1033.98886,1162.68192 1032.33686,1155.36996 1034.78045,1148.89081 C1033.18506,1145.87741 1032.31902,1143.14468 1032.34836,1140.9953 C1031.29818,1140.21937 1030.79979,1138.90032 1031.0745,1137.62383 C1031.34921,1136.34733 1032.34608,1135.35005 1033.62247,1135.0748 C1034.89886,1134.79955 1036.21816,1135.29736 1036.99454,1136.34719 Z M1067.66709,1169.66663 C1066.56247,1169.66663 1065.66701,1170.56208 1065.66701,1171.66668 C1065.66875,1172.00652 1065.75816,1172.33991 1065.92626,1172.63472 L1065.94768,1172.67137 L1065.96235,1172.6987 C1066.32199,1173.29751 1066.96857,1173.66467 1067.66709,1173.66674 C1068.56576,1173.66941 1069.35518,1173.07065 1069.59488,1172.20454 C1069.83165,1171.349 1069.47423,1170.44144 1068.7212,1169.97633 L1068.69313,1169.9593 L1068.67313,1169.94797 C1068.36901,1169.76583 1068.02157,1169.66867 1067.66709,1169.66663 Z M1066.52837,1162.69313 C1064.83637,1166.08998 1062.08288,1168.8425 1058.6854,1170.53332 C1060.46238,1171.47932 1062.4007,1172.08442 1064.40029,1172.31736 C1064.18096,1171.22747 1064.5209,1170.10009 1065.30616,1169.3131 C1066.09141,1168.52612 1067.21806,1168.18369 1068.30844,1168.4006 C1068.07102,1166.40486 1067.46758,1164.47001 1066.52837,1162.69313 Z M1043.66614,1167.66658 C1042.56153,1167.66658 1041.66606,1168.56203 1041.66606,1169.66663 C1041.66606,1170.77122 1042.56153,1171.66668 1043.66614,1171.66668 C1044.77075,1171.66668 1045.66622,1170.77122 1045.66622,1169.66663 C1045.66622,1168.56203 1044.77075,1167.66658 1043.66614,1167.66658 Z M1034.33244,1166.33322 C1034.64272,1166.33322 1034.93651,1166.40387 1035.19858,1166.52998 C1035.86947,1166.85279 1036.33252,1167.53895 1036.33252,1168.33327 C1036.33252,1169.43786 1035.43705,1170.33331 1034.33244,1170.33331 C1033.22782,1170.33331 1032.33236,1169.43786 1032.33236,1168.33327 C1032.33236,1167.22867 1033.22782,1166.33322 1034.33244,1166.33322 Z M1044.78885,1140.25461 C1040.94266,1141.88521 1037.88127,1144.94751 1036.25185,1148.79414 C1037.60114,1151.17782 1039.14975,1153.4429 1040.88104,1155.56516 L1040.904,1155.589 L1044.11942,1155.589 C1044.39993,1155.589 1044.63288,1155.79404 1044.67667,1156.06246 L1044.68406,1156.15408 L1044.684,1159.522 L1045.883,1160.77 L1045.88386,1150.50296 C1045.88386,1150.22221 1046.08876,1149.98905 1046.35695,1149.94522 L1046.4485,1149.93782 L1049.83625,1149.93782 C1050.11676,1149.93782 1050.34971,1150.14291 1050.3935,1150.41133 L1050.40089,1150.50296 L1050.40089,1164.18556 C1050.40089,1164.46595 1050.19651,1164.69887 1049.92882,1164.74312 C1052.19968,1166.61742 1054.64607,1168.29274 1057.20001,1169.75063 C1061.05275,1168.11979 1064.11905,1165.05283 1065.74901,1161.19977 C1064.96083,1159.78869 1064.09683,1158.42169 1063.16091,1157.10472 L1062.699,1156.468 L1062.65658,1156.41661 C1062.37604,1156.07721 1062.10162,1155.74645 1061.83332,1155.42435 L1061.83455,1164.18556 C1061.83455,1164.46631 1061.62964,1164.69947 1061.36145,1164.74329 L1061.26991,1164.75069 L1057.88216,1164.75069 C1057.60165,1164.75069 1057.3687,1164.54561 1057.32491,1164.27719 L1057.31751,1164.18556 L1057.31654,1150.17364 C1056.314,1149.06272 1055.48623,1148.1991 1054.83325,1147.58278 C1052.21159,1145.26828 1047.82998,1141.98135 1044.78885,1140.25461 Z M1034.33244,1167.66658 C1033.96423,1167.66658 1033.66574,1167.96507 1033.66574,1168.33327 C1033.66574,1168.70146 1033.96423,1168.99995 1034.33244,1168.99995 C1034.70064,1168.99995 1034.99913,1168.70146 1034.99913,1168.33327 C1034.99913,1167.96507 1034.70064,1167.66658 1034.33244,1167.66658 Z M1055.55308,1152.1983 C1055.83358,1152.1983 1056.06654,1152.40334 1056.11033,1152.6718 L1056.11772,1152.76344 L1056.11772,1164.18556 C1056.11772,1164.46631 1055.91282,1164.69947 1055.64463,1164.74329 L1055.55308,1164.75069 L1052.16533,1164.75069 C1051.88482,1164.75069 1051.65187,1164.54561 1051.60808,1164.27719 L1051.60069,1164.18556 L1051.60069,1152.76344 C1051.60069,1152.48269 1051.80559,1152.24953 1052.07378,1152.20571 L1052.16533,1152.1983 L1055.55308,1152.1983 Z M1037.59923,1137.69188 C1037.81699,1138.78185 1037.47521,1139.9085 1036.68858,1140.69379 C1035.90194,1141.47907 1034.77469,1141.81893 1033.68508,1141.59931 C1033.92271,1143.59564 1034.52901,1145.53049 1035.47315,1147.30544 C1037.16127,1143.91707 1039.90595,1141.16987 1043.29279,1139.47859 C1041.52054,1138.53899 1039.59058,1137.93334 1037.59923,1137.69188 Z M1059.66677,1138.99925 C1058.56216,1138.99925 1057.66669,1139.8947 1057.66669,1140.9993 C1057.66669,1142.10389 1058.56216,1142.99934 1059.66677,1142.99934 C1060.77138,1142.99934 1061.66685,1142.10389 1061.66685,1140.9993 C1061.66685,1139.8947 1060.77138,1138.99925 1059.66677,1138.99925 Z M1068.33378,1138.33257 C1069.43839,1138.33257 1070.33386,1139.22802 1070.33386,1140.33261 C1070.33386,1141.43721 1069.43839,1142.33266 1068.33378,1142.33266 C1067.22917,1142.33266 1066.3337,1141.43721 1066.3337,1140.33261 C1066.3337,1139.22802 1067.22917,1138.33257 1068.33378,1138.33257 Z M1068.33378,1139.66593 C1067.96557,1139.66593 1067.66709,1139.96441 1067.66709,1140.33261 C1067.66709,1140.70081 1067.96557,1140.9993 1068.33378,1140.9993 C1068.70198,1140.9993 1069.00047,1140.70081 1069.00047,1140.33261 C1069.00047,1139.96441 1068.70198,1139.66593 1068.33378,1139.66593 Z M1034.33244,1136.33249 C1033.43377,1136.32984 1032.64434,1136.9286 1032.40464,1137.7947 C1032.16787,1138.65024 1032.5253,1139.55781 1033.27833,1140.02292 L1033.3064,1140.03994 L1033.3264,1140.05127 C1033.63051,1140.23342 1033.97795,1140.33058 1034.33244,1140.33261 C1035.43705,1140.33261 1036.33252,1139.43716 1036.33252,1138.33257 C1036.33069,1137.99294 1036.24128,1137.65977 1036.07325,1137.36517 L1036.05184,1137.32854 L1036.0385,1137.30388 C1035.67963,1136.70319 1035.03217,1136.33455 1034.33244,1136.33249 Z" id="кв9"></path>
        </g>
    </g>
</svg>