<svg width="32" height="32" viewBox="0 0 32 32" fill="none" xmlns="http://www.w3.org/2000/svg">
<path fill-rule="evenodd" clip-rule="evenodd" d="M32 1.7742C32 0.796903 31.2031 0 30.2288 0H1.78009C0.799851 0 0 0.796903 0 1.7742V30.2258C0 31.2081 0.799851 32 1.78009 32H30.2288C31.2031 32 32 31.2081 32 30.2258V1.7742Z" fill="#E30613"/>
<path fill-rule="evenodd" clip-rule="evenodd" d="M16 28C22.2166 28 25 23.2462 25 18.5334C25 15.313 23.8586 11.6059 21.9533 8.6126C20.1 5.71947 17.8733 4 16 4C14.1217 4 11.895 5.71947 10.0577 8.6126C8.1424 11.6059 7 15.313 7 18.5334C7 23.2462 9.7794 28 16 28Z" fill="white"/>
</svg>
