<svg xmlns="http://www.w3.org/2000/svg" width="39" height="40" viewBox="0 0 39 40">
    <path fill="#BBC1C7" fill-rule="nonzero" d="M25.373.001H37.62c.716 0 1.307.55 1.374 1.251l.006.133v37.231c0 .718-.548 1.31-1.248 1.378L37.62 40H6.393c-2.06 0-3.312-2.25-2.296-3.994l.087-.14H3.97a2.66 2.66 0 0 1-.167-5.315l.167-.006h.7a2.656 2.656 0 0 1-.1-2.789l.1-.162h-.7a2.66 2.66 0 0 1-.167-5.315l.167-.006h2.598C-.496 18.81-2.265 9.401 3.244 3.624a11.637 11.637 0 0 1 7.96-3.613h.018C11.49-.004 10.64 0 25.373 0zM14.611 35.866H6.393a1.474 1.474 0 0 0-.141 2.941l.141.007h8.218a2.656 2.656 0 0 1-.446-1.474c0-.545.164-1.052.446-1.474zm18.05 0H16.82a1.474 1.474 0 0 0-.142 2.941l.142.007H32.66a1.474 1.474 0 0 0 0-2.948zM1.185 11.722c0 5.72 4.481 10.336 10.115 10.544a10.533 10.533 0 0 0 9.274-4.866.591.591 0 1 1 .997.639 11.728 11.728 0 0 1-4.39 4.053l-.355.181h2.987a2.66 2.66 0 0 1 2.307 3.975l-.1.162h5.308a.592.592 0 0 1 .096 1.178l-.096.008H17.303a1.474 1.474 0 0 0-.141 2.942l.14.007h15.843a1.475 1.475 0 0 0 .142-2.942l-.142-.007h-3.45a.592.592 0 0 1-.095-1.178l.096-.008h3.45a2.66 2.66 0 0 1 .167 5.315l-.168.005h-.699c.56.84.593 1.915.105 2.78l-.104.17h.214c2.06 0 3.314 2.251 2.295 3.994l-.087.14h2.75c.092 0 .168-.062.19-.145l.008-.053V1.384a.197.197 0 0 0-.145-.19l-.052-.007H16.844c5.41 2.657 7.92 8.988 5.836 14.62a.59.59 0 1 1-1.109-.413c2.383-6.425-1.966-13.667-9.088-14.18C6.075.755 1.185 5.842 1.185 11.721zm29.054 20.01H14.396a1.474 1.474 0 0 0-.141 2.942l.141.006H30.24a1.475 1.475 0 0 0 0-2.947zm-18.052 0H3.97a1.474 1.474 0 0 0-.141 2.942l.141.006h8.217a2.662 2.662 0 0 1 0-2.947zm2.906-4.137H6.877a1.474 1.474 0 0 0-.142 2.942l.142.007h8.216a2.658 2.658 0 0 1 0-2.948zm4.72-4.135H3.97a1.474 1.474 0 0 0-.141 2.941l.141.007h15.843a1.474 1.474 0 0 0 0-2.948zm15.424-10.532l.036.082 1.239 3.57a.592.592 0 1 1-1.079.477l-.039-.088-.698-2.013-3.081 7.38a.591.591 0 0 1-.806.303l-.08-.048-3.939-2.772-2.662 2.015a.593.593 0 1 1-.792-.874l.079-.073 3.006-2.275a.592.592 0 0 1 .615-.06l.082.049 3.689 2.597 2.804-6.714-2.128 1.164a.594.594 0 1 1-.647-.988l.08-.054 3.515-1.922a.591.591 0 0 1 .806.244zM18.779 6.902a8.583 8.583 0 0 1-1.5 11.333c-3.912 3.363-9.797 2.509-12.643-1.675a8.588 8.588 0 0 1-1.05-7.533.592.592 0 1 1 1.124.371c-1.46 4.432 1.457 8.994 5.938 9.646 6.306.918 10.76-6.171 7.154-11.474-2.861-4.206-9.098-4.356-12.108-.122a.591.591 0 0 1-.825.14.594.594 0 0 1-.139-.828c3.486-4.905 10.723-4.747 14.05.142zm-5.423-.784a3.22 3.22 0 0 1 3.242 3.228c0 1.81-1.478 3.27-3.263 3.27h-2.872v1.09h3.222c.307 0 .574.267.574.576a.574.574 0 0 1-.574.576h-3.222v1.912a.588.588 0 0 1-.574.576.574.574 0 0 1-.575-.576v-1.912H8.35a.588.588 0 0 1-.575-.576c0-.309.247-.576.575-.576h.964v-1.09H8.35a.574.574 0 0 1-.575-.575c0-.309.247-.576.575-.576h.964V6.694c0-.309.246-.576.575-.576zm.021 1.172h-2.893v4.175h2.872a2.118 2.118 0 0 0 2.114-2.078 2.104 2.104 0 0 0-2.093-2.097zm22.575 1.6a.592.592 0 0 1 .096 1.179l-.096.008H25.54a.592.592 0 0 1-.096-1.179l.096-.007h10.413zm0-4.428a.592.592 0 0 1 .096 1.179l-.096.007H24.158a.592.592 0 0 1-.096-1.178l.096-.008h11.794z"/>
</svg>
