<?xml version="1.0" encoding="iso-8859-1"?>
<!-- Generator: Adobe Illustrator 19.0.0, SVG Export Plug-In . SVG Version: 6.00 Build 0)  -->
<svg version="1.1" id="Capa_1" xmlns="http://www.w3.org/2000/svg" xmlns:xlink="http://www.w3.org/1999/xlink" x="0px" y="0px"
	 viewBox="0 0 512 512" style="enable-background:new 0 0 512 512;" xml:space="preserve">
<g>
	<g>
		<path d="M123.466,347.901H40.633c-4.143,0-7.5,3.358-7.5,7.5v82.833c0,4.142,3.357,7.5,7.5,7.5h82.833c4.143,0,7.5-3.358,7.5-7.5
			v-82.833C130.966,351.258,127.609,347.901,123.466,347.901z M115.966,430.734H48.133v-67.833h67.833V430.734z"/>
	</g>
</g>
<g>
	<g>
		<path d="M98.617,372.75H65.482c-4.143,0-7.5,3.358-7.5,7.5v33.135c0,4.142,3.358,7.5,7.5,7.5h33.135c4.143,0,7.5-3.358,7.5-7.5
			V380.25C106.117,376.107,102.76,372.75,98.617,372.75z M91.117,405.885H72.982V387.75h18.135V405.885z"/>
	</g>
</g>
<g>
	<g>
		<path d="M206.299,364.466H156.6c-4.143,0-7.5,3.358-7.5,7.5c0,4.142,3.357,7.5,7.5,7.5h49.699c4.143,0,7.5-3.358,7.5-7.5
			C213.799,367.823,210.441,364.466,206.299,364.466z"/>
	</g>
</g>
<g>
	<g>
		<path d="M206.299,397.602h-49.697c-4.143,0-7.5,3.358-7.5,7.5c0,4.142,3.357,7.5,7.5,7.5h49.697c4.143,0,7.5-3.358,7.5-7.5
			C213.799,400.959,210.441,397.602,206.299,397.602z"/>
	</g>
</g>
<g>
	<g>
		<path d="M256,397.602h-24.85c-4.143,0-7.5,3.358-7.5,7.5c0,4.142,3.357,7.5,7.5,7.5H256c4.143,0,7.5-3.358,7.5-7.5
			C263.5,400.959,260.143,397.602,256,397.602z"/>
	</g>
</g>
<g>
	<g>
		<path d="M256.001,115.968c-13.27,0-24.066,10.795-24.066,24.065c0,13.27,10.796,24.065,24.066,24.065
			c13.27,0,24.064-10.795,24.064-24.065C280.065,126.763,269.27,115.968,256.001,115.968z M256.001,149.099
			c-4.999,0-9.066-4.066-9.066-9.065s4.067-9.065,9.066-9.065c4.998,0,9.064,4.066,9.064,9.065S260.999,149.099,256.001,149.099z"/>
	</g>
</g>
<g>
	<g>
		<path d="M256.001,91.118c-26.972,0-48.915,21.943-48.915,48.914c0,26.971,21.943,48.915,48.915,48.915
			c26.972,0,48.914-21.943,48.914-48.915C304.915,113.06,282.973,91.118,256.001,91.118z M256.001,173.948
			c-18.701,0-33.915-15.214-33.915-33.915c0-18.701,15.214-33.914,33.915-33.914c18.7,0,33.914,15.214,33.914,33.914
			C289.915,158.732,274.701,173.948,256.001,173.948z"/>
	</g>
</g>
<g>
	<g>
		<path d="M503.759,138.489c-0.133-0.125-0.271-0.242-0.411-0.356c-4.179-3.494-9.555-5.602-15.415-5.602H362.897v-9.062
			c0-3.441-2.342-6.441-5.681-7.276l-15.213-3.803c-1.503-4.672-3.392-9.224-5.648-13.607l8.076-13.459
			c1.77-2.951,1.306-6.729-1.128-9.162l-23.429-23.429c-2.433-2.432-6.211-2.899-9.162-1.128l-13.46,8.075
			c-4.383-2.256-8.935-4.146-13.606-5.648l-3.803-15.214c-0.835-3.339-3.835-5.681-7.276-5.681h-33.134
			c-3.441,0-6.441,2.342-7.276,5.681l-3.803,15.215c-4.671,1.502-9.222,3.392-13.606,5.647l-13.462-8.077
			c-2.95-1.771-6.729-1.305-9.162,1.128l-23.429,23.429c-2.433,2.434-2.898,6.211-1.128,9.162l8.077,13.462
			c-2.255,4.382-4.143,8.933-5.646,13.603l-15.218,3.805c-3.339,0.834-5.681,3.834-5.681,7.276v9.065H24.067
			c-5.731,0-10.998,2.017-15.137,5.374c-0.012,0.009-0.024,0.019-0.036,0.028c-0.07,0.057-0.141,0.114-0.21,0.172
			c-0.157,0.126-0.31,0.257-0.458,0.397C3.19,142.916,0,149.388,0,156.598v298.199c0,13.271,10.797,24.067,24.067,24.067h367.234
			c4.143,0,7.5-3.358,7.5-7.5c0-4.142-3.357-7.5-7.5-7.5H24.067c-5,0-9.067-4.067-9.067-9.067V156.598
			c0-0.681,0.082-1.343,0.225-1.982l236.334,173.691c1.321,0.971,2.881,1.457,4.441,1.457s3.12-0.485,4.441-1.457l236.333-173.692
			c0.143,0.639,0.225,1.301,0.225,1.983v298.199c0,5-4.067,9.067-9.067,9.067H421.25c-4.143,0-7.5,3.358-7.5,7.5
			c0,4.142,3.357,7.5,7.5,7.5h66.683c13.271,0,24.067-10.796,24.067-24.067V156.598C512,149.383,508.804,142.904,503.759,138.489z
			 M177.8,125.896c2.645-0.661,4.724-2.707,5.427-5.342c1.692-6.341,4.233-12.461,7.551-18.191c1.366-2.361,1.344-5.277-0.059-7.617
			l-7.273-12.123l15.146-15.147l12.123,7.274c2.338,1.404,5.255,1.427,7.616,0.06c5.732-3.318,11.854-5.859,18.193-7.552
			c2.636-0.703,4.681-2.781,5.343-5.427l3.424-13.696h21.421l3.424,13.696c0.662,2.646,2.707,4.724,5.343,5.428
			c6.341,1.692,12.462,4.233,18.194,7.552c2.361,1.367,5.277,1.344,7.616-0.06l12.12-7.272l15.147,15.148l-7.272,12.12
			c-1.403,2.339-1.426,5.256-0.059,7.617c3.318,5.732,5.859,11.854,7.552,18.195c0.703,2.635,2.781,4.681,5.427,5.342l13.694,3.424
			v21.422l-13.695,3.424c-2.645,0.661-4.724,2.707-5.427,5.341c-1.693,6.343-4.234,12.464-7.553,18.195
			c-1.367,2.361-1.345,5.278,0.059,7.617l7.272,12.121l-15.147,15.148l-12.122-7.273c-2.338-1.404-5.255-1.427-7.616-0.06
			c-5.732,3.318-11.853,5.858-18.192,7.55c-2.636,0.704-4.681,2.782-5.343,5.427l-3.424,13.697h-21.423l-3.424-13.699
			c-0.662-2.646-2.707-4.724-5.342-5.427c-6.341-1.693-12.461-4.233-18.191-7.551c-2.358-1.367-5.276-1.345-7.616,0.059
			l-12.123,7.274l-15.147-15.147l7.274-12.124c1.403-2.339,1.426-5.256,0.059-7.617c-3.316-5.729-5.857-11.85-7.55-18.191
			c-0.703-2.635-2.781-4.681-5.427-5.342l-13.698-3.425v-21.423h-0.001L177.8,125.896z M256,312.956L30.912,147.531H149.1v9.069
			c0,3.441,2.342,6.441,5.681,7.276l15.217,3.804c1.503,4.67,3.392,9.221,5.646,13.603l-8.078,13.464
			c-1.771,2.951-1.305,6.728,1.128,9.162l23.429,23.429c2.434,2.433,6.211,2.9,9.162,1.128l13.463-8.077
			c4.382,2.255,8.933,4.145,13.603,5.647l3.804,15.218c0.835,3.339,3.835,5.681,7.276,5.681h33.134c3.441,0,6.441-2.342,7.276-5.681
			l3.804-15.216c4.67-1.502,9.221-3.391,13.604-5.647l13.462,8.077c2.952,1.772,6.729,1.305,9.162-1.128l23.429-23.429
			c2.433-2.434,2.898-6.211,1.128-9.162l-8.076-13.46c2.256-4.383,4.146-8.935,5.649-13.606l15.215-3.804
			c3.339-0.835,5.681-3.835,5.681-7.276v-9.072h118.188L256,312.956z"/>
	</g>
</g>
<g>
</g>
<g>
</g>
<g>
</g>
<g>
</g>
<g>
</g>
<g>
</g>
<g>
</g>
<g>
</g>
<g>
</g>
<g>
</g>
<g>
</g>
<g>
</g>
<g>
</g>
<g>
</g>
<g>
</g>
</svg>
