<?xml version="1.0" encoding="iso-8859-1"?>
<!-- Generator: Adobe Illustrator 19.0.0, SVG Export Plug-In . SVG Version: 6.00 Build 0)  -->
<svg version="1.1" id="Capa_1" xmlns="http://www.w3.org/2000/svg" xmlns:xlink="http://www.w3.org/1999/xlink" x="0px" y="0px"
	 viewBox="0 0 512.001 512.001" style="enable-background:new 0 0 512.001 512.001;" xml:space="preserve">
<g>
	<g>
		<path d="M347.116,223.651h-24.849c-4.143,0-7.5,3.357-7.5,7.5s3.357,7.5,7.5,7.5h24.849c5,0,9.067,4.067,9.067,9.067v99.398
			c0,5-4.067,9.068-9.067,9.068h-182.23c-5,0-9.067-4.068-9.067-9.068v-99.398c0-5,4.067-9.067,9.067-9.067h24.849
			c4.142,0,7.5-3.357,7.5-7.5s-3.358-7.5-7.5-7.5h-24.849c-13.271,0-24.067,10.796-24.067,24.067v99.398
			c0,13.271,10.796,24.068,24.067,24.068h182.23c13.27,0,24.067-10.797,24.067-24.068v-99.398
			C371.183,234.448,360.387,223.651,347.116,223.651z"/>
	</g>
</g>
<g>
	<g>
		<path d="M364.844,351.483l-86.985-69.789c-3.232-2.595-7.951-2.076-10.543,1.156c-2.593,3.23-2.074,7.951,1.156,10.543
			l86.985,69.789c1.385,1.111,3.042,1.65,4.689,1.65c2.196,0,4.373-0.96,5.854-2.806
			C368.593,358.796,368.074,354.075,364.844,351.483z"/>
	</g>
</g>
<g>
	<g>
		<path d="M244.684,282.846c-2.592-3.23-7.312-3.75-10.543-1.156l-86.985,69.792c-3.231,2.592-3.748,7.313-1.156,10.543
			c1.482,1.847,3.658,2.807,5.855,2.807c1.646,0,3.304-0.539,4.688-1.651l86.985-69.792
			C246.759,290.797,247.276,286.076,244.684,282.846z"/>
	</g>
</g>
<g>
	<g>
		<path d="M366.652,233.759c-2.065-3.591-6.649-4.824-10.241-2.761l-100.408,57.767L155.59,230.998
			c-3.591-2.065-8.176-0.83-10.241,2.761c-2.066,3.591-0.83,8.176,2.761,10.241l104.153,59.918c1.158,0.666,2.449,0.999,3.74,0.999
			s2.583-0.333,3.74-0.999L363.891,244C367.481,241.935,368.717,237.35,366.652,233.759z"/>
	</g>
</g>
<g>
	<g>
		<path d="M322.266,157.383H189.735c-4.142,0-7.5,3.357-7.5,7.5v91.118c0,4.143,3.358,7.5,7.5,7.5c4.142,0,7.5-3.357,7.5-7.5
			v-83.618h117.531v83.618c0,4.143,3.357,7.5,7.5,7.5s7.5-3.358,7.5-7.5v-91.118C329.766,160.74,326.409,157.383,322.266,157.383z"
			/>
	</g>
</g>
<g>
	<g>
		<path d="M256.001,202.942c-13.271,0-24.067,10.796-24.067,24.067c0,13.27,10.796,24.067,24.067,24.067
			c13.27,0,24.067-10.797,24.067-24.067C280.068,213.739,269.271,202.942,256.001,202.942z M256.001,236.075
			c-5,0-9.067-4.067-9.067-9.067s4.067-9.067,9.067-9.067s9.067,4.067,9.067,9.067S261.001,236.075,256.001,236.075z"/>
	</g>
</g>
<g>
	<g>
		<path d="M256.001,182.234c-24.689,0-44.775,20.086-44.775,44.775c0,24.689,20.086,44.775,44.775,44.775
			c6.988,0,13.685-1.567,19.903-4.659c3.71-1.844,5.222-6.345,3.378-10.054c-1.844-3.708-6.345-5.223-10.054-3.378
			c-4.126,2.051-8.577,3.091-13.228,3.091c-16.418,0-29.775-13.357-29.775-29.775c0-16.418,13.357-29.775,29.775-29.775
			c16.418,0,29.775,13.357,29.775,29.775v6.212c0,1.574-1.281,2.855-2.855,2.855c-1.574,0-2.854-1.281-2.854-2.854l0.002-18.638
			c0-4.143-3.357-7.501-7.499-7.501c-0.001,0-0.001,0-0.001,0c-4.142,0-7.5,3.357-7.5,7.499l-0.002,18.639
			c0,9.845,8.009,17.855,17.854,17.855c9.846,0,17.856-8.009,17.856-17.855v-6.212C300.776,202.32,280.69,182.234,256.001,182.234z"
			/>
	</g>
</g>
<g>
	<g>
		<path d="M504.501,33.134H7.5c-4.142,0-7.5,3.357-7.5,7.5v430.733c0,4.143,3.358,7.5,7.5,7.5h497.001c4.142,0,7.499-3.357,7.5-7.5
			V40.634C512.001,36.491,508.644,33.134,504.501,33.134z M497.001,463.867H15V48.134h482.001V463.867z"/>
	</g>
</g>
<g>
	<g>
		<path d="M504.5,99.4H7.503c-4.142,0-7.5,3.357-7.5,7.5c0,4.143,3.358,7.5,7.5,7.5H504.5c4.142,0,7.5-3.357,7.5-7.5
			C512,102.757,508.643,99.4,504.5,99.4z"/>
	</g>
</g>
<g>
	<g>
		<path d="M468.387,76.747L451.82,60.18c-2.929-2.928-7.677-2.928-10.607,0c-2.929,2.929-2.929,7.677,0,10.607l16.567,16.567
			c1.465,1.464,3.385,2.196,5.304,2.196c1.919,0,3.838-0.733,5.303-2.196C471.316,84.425,471.316,79.677,468.387,76.747z"/>
	</g>
</g>
<g>
	<g>
		<path d="M468.386,60.18c-2.929-2.928-7.677-2.928-10.607,0l-16.567,16.567c-2.929,2.929-2.929,7.677,0,10.607
			c1.465,1.464,3.385,2.196,5.304,2.196s3.839-0.733,5.304-2.197l16.566-16.566C471.315,67.858,471.315,63.11,468.386,60.18z"/>
	</g>
</g>
<g>
	<g>
		<path d="M421.666,66.265H405.1c-4.143,0-7.5,3.357-7.5,7.5s3.357,7.5,7.5,7.5h16.567c4.142,0,7.499-3.357,7.499-7.5
			S425.809,66.265,421.666,66.265z"/>
	</g>
</g>
<g>
	<g>
		<path d="M380.25,66.265h-16.566c-4.143,0-7.5,3.357-7.5,7.5s3.357,7.5,7.5,7.5h16.566c4.142,0,7.5-3.357,7.5-7.5
			S384.393,66.265,380.25,66.265z"/>
	</g>
</g>
<g>
	<g>
		<path d="M123.469,66.267H40.634c-4.142,0-7.5,3.357-7.5,7.5c0,4.143,3.358,7.5,7.5,7.5h82.834c4.142,0,7.501-3.357,7.501-7.5
			C130.969,69.624,127.611,66.267,123.469,66.267z"/>
	</g>
</g>
<g>
	<g>
		<path d="M434.135,357.188l-28.694-16.566c-3.589-2.07-8.175-0.844-10.245,2.745c-2.071,3.587-0.842,8.174,2.745,10.245
			l28.694,16.566c1.182,0.682,2.471,1.006,3.743,1.006c2.592,0,5.114-1.344,6.502-3.751
			C438.951,363.846,437.722,359.259,434.135,357.188z"/>
	</g>
</g>
<g>
	<g>
		<path d="M454.8,265.067h-33.134c-4.143,0-7.5,3.357-7.5,7.5s3.357,7.5,7.5,7.5H454.8c4.143,0,7.5-3.357,7.5-7.5
			S458.943,265.067,454.8,265.067z"/>
	</g>
</g>
<g>
	<g>
		<path d="M436.88,177.7c-2.072-3.588-6.66-4.815-10.245-2.745l-28.694,16.567c-3.587,2.071-4.816,6.658-2.745,10.245
			c1.39,2.406,3.91,3.751,6.502,3.751c1.272,0,2.562-0.324,3.743-1.006l28.694-16.567C437.722,185.874,438.951,181.287,436.88,177.7
			z"/>
	</g>
</g>
<g>
	<g>
		<path d="M90.334,265.066H57.201c-4.142,0-7.5,3.357-7.5,7.5s3.358,7.5,7.5,7.5h33.134c4.142,0,7.499-3.357,7.499-7.5
			S94.476,265.066,90.334,265.066z"/>
	</g>
</g>
<g>
	<g>
		<path d="M116.805,343.366c-2.071-3.588-6.658-4.815-10.245-2.745l-28.695,16.566c-3.587,2.071-4.816,6.658-2.745,10.245
			c1.389,2.406,3.91,3.751,6.502,3.751c1.273,0,2.562-0.324,3.743-1.006l28.695-16.566
			C117.647,351.54,118.876,346.953,116.805,343.366z"/>
	</g>
</g>
<g>
	<g>
		<path d="M114.061,191.52l-28.694-16.566c-3.588-2.071-8.174-0.844-10.245,2.745c-2.071,3.587-0.842,8.174,2.745,10.245
			l28.694,16.566c1.181,0.682,2.471,1.006,3.743,1.006c2.592,0,5.113-1.344,6.502-3.751
			C118.877,198.178,117.648,193.591,114.061,191.52z"/>
	</g>
</g>
<g>
	<g>
		<path d="M504.5,430.73H70.582c-4.142,0-7.5,3.357-7.5,7.5s3.358,7.5,7.5,7.5H504.5c4.142,0,7.5-3.357,7.5-7.5
			S508.643,430.73,504.5,430.73z"/>
	</g>
</g>
<g>
	<g>
		<path d="M40.634,430.73H7.503c-4.142,0-7.5,3.357-7.5,7.5s3.358,7.5,7.5,7.5h33.131c4.142,0,7.5-3.357,7.5-7.5
			S44.776,430.73,40.634,430.73z"/>
	</g>
</g>
<g>
</g>
<g>
</g>
<g>
</g>
<g>
</g>
<g>
</g>
<g>
</g>
<g>
</g>
<g>
</g>
<g>
</g>
<g>
</g>
<g>
</g>
<g>
</g>
<g>
</g>
<g>
</g>
<g>
</g>
</svg>
