<?xml version="1.0" encoding="UTF-8"?>
<svg width="17px" height="17px" viewBox="0 0 17 17" version="1.1" xmlns="http://www.w3.org/2000/svg" xmlns:xlink="http://www.w3.org/1999/xlink">
    <!-- Generator: Sketch 62 (91390) - https://sketch.com -->
    <title>Распознать 2</title>
    <desc>Created with Sketch.</desc>
    <g id="Page-1" stroke="none" stroke-width="1" fill="none" fill-rule="evenodd">
        <g id="Документы---2-1-1---1440" transform="translate(-103.000000, -261.000000)" fill="#BBC1C7" fill-rule="nonzero">
            <path d="M113.5,261 C113.632202,261.000782 113.758869,261.053171 113.853,261.146 L113.853,261.146 L117.853,265.146 C117.946437,265.240217 117.999212,265.36731 118,265.5 L118,265.5 L118,270 L119,270 L119,269.5 C119,269.223858 119.223858,269 119.5,269 C119.776142,269 120,269.223858 120,269.5 L120,269.5 L120,271.5 C120,271.776142 119.776142,272 119.5,272 C119.223858,272 119,271.776142 119,271.5 L119,271.5 L119,271 L117.999,271 L117.999,276 L118,276 L118,276.5 C118,277.328427 117.328427,278 116.5,278 L116.5,278 L112,278 L112,277 L116.5,277 C116.776142,277 117,276.776142 117,276.5 L117,276.5 L117,276.203 L117,276.203033 L116.999,271 L106,271 L106,276.5 C106,276.74546 106.176875,276.949608 106.410124,276.991944 L106.5,277 L112,277 L112,278 L106.5,278 L106.35554,277.993133 C105.594888,277.920449 105,277.279696 105,276.5 L105,276.5 L105,271 L104,271 L104,271.5 C104,271.776142 103.776142,272 103.5,272 C103.223858,272 103,271.776142 103,271.5 L103,271.5 L103,269.5 C103,269.223858 103.223858,269 103.5,269 C103.776142,269 104,269.223858 104,269.5 L104,269.5 L104,270 L105,270 L105,262.5 C105,262.102175 105.158035,261.720644 105.43934,261.43934 C105.720644,261.158035 106.102175,261 106.5,261 L106.5,261 Z M113,262 L106.5,262 C106.223858,262 106,262.223858 106,262.5 L106,262.5 L106,270 L117,270 L117,266 L114.5,266 C113.671573,266 113,265.328427 113,264.5 L113,264.5 L113,262 Z M114,262.707 L114,264.5 C114,264.776142 114.223858,265 114.5,265 L114.5,265 L116.293,265 L114,262.707 Z" id="Распознать-2"></path>
        </g>
    </g>
</svg>